# pH 13 | (V vs. RHE) | (V vs. SHE) | C2+ | C1 | HER
   -0.435   -1.202   0.02533   0.00000   0.08010865
   -0.485   -1.252   0.07677   0.00000   0.17621334
   -0.534   -1.301   0.24401   0.00000   0.33873973
   -0.583   -1.35    0.40658   0.00000   0.41178579
   -0.633   -1.4     0.6771    0.00000   0.37491778
   -0.682   -1.449   0.78062   0.00000   0.634788
   -0.73    -1.497   0.84335   0.01413   1.41276691
   -0.775   -1.542   0.74283   0.16323   2.70000731
   -0.81    -1.577   0.17747   0.94695   8.55904909
