0.091912  0.00000000
0.183824  0.00000000
0.275735  0.00000000
0.367647  0.00000000
0.459559  0.00000000
0.551471  0.00000000
0.643382  0.00000000
0.735294  0.00000000
0.827206  0.00000000
0.919118  0.00000000
1.011029  0.00000000
1.102941  0.00000000
1.194853  0.00000000
1.286765  0.00000000
1.378676  0.00000000
1.470588  0.00000000
1.562500  0.00000000
1.654412  0.00000000
1.746324  0.00000000
1.838235  0.00000000
1.930147  0.00000000
2.022059  0.00000000
2.113971  0.00000000
2.205882  0.00000000
2.297794  0.00000000
2.389706  0.00000000
2.481618  0.00000000
2.573529  0.00000000
2.665441  0.00000000
2.757353  0.00000000
2.849265  0.00000000
2.941176  0.00000000
3.033088  0.00000000
3.125000  0.00000000
3.216912  0.00000000
3.308824  0.00000000
3.400735  0.00000000
3.492647  0.00000000
3.584559  0.00000000
3.676471  0.00000000
3.768382  0.00000000
3.860294  0.00000000
3.952206  0.00000000
4.044118  0.00000000
4.136029  0.00000000
4.227941  0.00000000
4.319853  0.00000000
4.411765  0.00000000
4.503676  0.00000000
4.595588  0.00000000
4.687500  0.00000000
4.779412  0.00000000
4.871324  0.00000000
4.963235  0.00000000
5.055147  0.00000000
5.147059  0.00000000
5.238971  0.00000000
5.330882  0.00000000
5.422794  0.00000000
5.514706  0.00000000
5.606618  0.00000000
5.698529  0.00000000
5.790441  0.00000000
5.882353  0.00000000
5.974265  0.00000000
6.066176  0.00000000
6.158088  0.00000000
6.250000  0.00000000
6.341912  0.00000000
6.433824  0.00000000
6.525735  0.00000000
6.617647  0.00000000
6.709559  0.00000000
6.801471  0.00000000
6.893382  0.00000000
6.985294  0.00000000
7.077206  0.00000000
7.169118  0.00000000
7.261029  0.00000000
7.352941  0.00000000
7.444853  0.00000000
7.536765  0.00000000
7.628676  0.00000000
7.720588  0.00000000
7.812500  0.00000000
7.904412  0.00000000
7.996324  0.00000000
8.088235  0.00000000
8.180147  0.00000000
8.272059  0.00000000
8.363971  0.00000000
8.455882  0.00000000
8.547794  0.00000000
8.639706  0.00000000
8.731618  0.00000000
8.823529  0.00000000
8.915441  0.00000000
9.007353  0.00000000
9.099265  0.00000000
9.191176  0.00000000
9.283088  0.00000000
9.375000  0.00000000
9.466912  0.00000000
9.558824  0.00000000
9.650735  0.00000000
9.742647  0.00000000
9.834559  0.00000000
9.926471  0.00000000
10.018382  0.00000000
10.110294  0.00000000
10.202206  0.00000000
10.294118  0.00000000
10.386029  0.00000000
10.477941  0.00000000
10.569853  0.00000000
10.661765  0.00000000
10.753676  0.00000000
10.845588  0.00000000
10.937500  0.00000000
11.029412  0.00000000
11.121324  0.00000000
11.213235  0.00000000
11.305147  0.00000000
11.397059  0.00000000
11.488971  0.00000000
11.580882  0.00000000
11.672794  0.00000000
11.764706  0.00000000
11.856618  0.00000000
11.948529  0.00000000
12.040441  0.00000000
12.132353  0.00000000
12.224265  0.00000000
12.316176  0.00000000
12.408088  0.00000000
12.500000  0.00000000
12.591912  0.00000000
12.683824  0.00000000
12.775735  0.00000000
12.867647  0.00000000
12.959559  0.00000000
13.051471  0.00000000
13.143382  0.00000000
13.235294  0.00000000
13.327206  0.00000000
13.419118  0.00000000
13.511029  0.00000000
13.602941  0.00000000
13.694853  0.00000000
13.786765  0.00000000
13.878676  0.00000001
13.970588  0.00000667
14.062500  0.00028094
14.154412  0.00240972
14.246324  0.00854019
14.338235  0.01826459
14.430147  0.02905004
14.522059  0.03867907
14.613971  0.04618010
14.705882  0.05151969
14.797794  0.05510423
14.889706  0.05744905
14.981618  0.05901407
15.073529  0.06015251
15.165441  0.06112127
15.257353  0.06211432
15.349265  0.06330526
15.441176  0.06489071
15.533088  0.06712486
15.625000  0.07036020
15.716912  0.07507033
15.808824  0.08137085
15.900735  0.08853893
15.992647  0.09595115
16.084559  0.10365698
16.176471  0.11210781
16.268382  0.12189972
16.360294  0.13375727
16.452206  0.14877502
16.544118  0.16871671
16.636029  0.19503020
16.727941  0.22801198
16.819853  0.26747043
16.911765  0.31315392
17.003676  0.36455789
17.095588  0.41919215
17.187500  0.47338223
17.279412  0.52518861
17.371324  0.57473151
17.463235  0.62302437
17.555147  0.67117029
17.647059  0.71991240
17.738971  0.76887989
17.830882  0.81681177
17.922794  0.86193467
18.014706  0.90138360
18.106618  0.93267052
18.198529  0.95527238
18.290441  0.97057372
18.382353  0.98059453
18.474265  0.98708647
18.566176  0.99130084
18.658088  0.99406052
18.750000  0.99588906
18.841912  0.99711650
18.933824  0.99795143
19.025735  0.99852681
19.117647  0.99892832
19.209559  0.99921188
19.301471  0.99941442
19.393382  0.99956066
19.485294  0.99966734
19.577206  0.99974590
19.669118  0.99980430
19.761029  0.99984809
19.852941  0.99988119
19.944853  0.99990642
20.036765  0.99992578
20.128676  0.99994076
20.220588  0.99995242
20.312500  0.99996155
20.404412  0.99996876
20.496324  0.99997447
20.588235  0.99997904
20.680147  0.99998269
20.772059  0.99998565
20.863971  0.99998804
20.955882  0.99998999
21.047794  0.99999159
21.139706  0.99999290
21.231618  0.99999398
21.323529  0.99999488
21.415441  0.99999563
21.507353  0.99999626
21.599265  0.99999679
21.691176  0.99999723
21.783088  0.99999760
21.875000  0.99999792
21.966912  0.99999819
22.058824  0.99999842
22.150735  0.99999862
22.242647  0.99999879
22.334559  0.99999894
22.426471  0.99999906
22.518382  0.99999917
22.610294  0.99999927
22.702206  0.99999935
22.794118  0.99999942
22.886029  0.99999949
22.977941  0.99999954
23.069853  0.99999959
23.161765  0.99999963
23.253676  0.99999967
23.345588  0.99999970
23.437500  0.99999973
23.529412  0.99999976
23.621324  0.99999978
23.713235  0.99999980
23.805147  0.99999982
23.897059  0.99999984
23.988971  0.99999985
24.080882  0.99999987
24.172794  0.99999988
24.264706  0.99999989
24.356618  0.99999990
24.448529  0.99999991
24.540441  0.99999992
24.632353  0.99999992
24.724265  0.99999993
24.816176  0.99999994
24.908088  0.99999994
