Loaded dependency [numpy/1.18.2-python-3.8.2-openblas-0.3.9]: openblas/0.3.9
Loaded dependency [gcc/8.4.0]: binutils/2.34
Loaded dependency [python3/3.8.2]: gcc/8.4.0
Loaded dependency [numpy/1.18.2-python-3.8.2-openblas-0.3.9]: python3/3.8.2
Loaded dependency [scipy/1.4.1-python-3.8.2]: numpy/1.18.2-python-3.8.2-openblas-0.3.9
Loaded module: scipy/1.4.1-python-3.8.2
mpi(6):ERROR:105: Unable to locate a modulefile for 'mpi/gcc-6.1.0-openmpi-2.0.0-thread-multiple'
Loaded dependency [scalapack/2.0.2-openblas-0.2.15]: mpi/gcc-6.1.0-openmpi-2.0.0-thread-multiple
Another version of gcc is loaded. Use "module swap gcc/6.1.0" instead.
Loaded dependency [scalapack/2.0.2-openblas-0.2.15]: gcc/6.1.0
Another version of openblas is loaded. Use "module swap openblas/0.2.15" instead.
Loaded dependency [scalapack/2.0.2-openblas-0.2.15]: openblas/0.2.15
Loaded module: scalapack/2.0.2-openblas-0.2.15
Loaded module: mpi/gcc
Unloaded module: mpi/gcc
Unloaded module: scalapack/2.0.2-openblas-0.2.15
Unloaded module: scipy/1.4.1-python-3.8.2
Unloaded module: numpy/1.18.2-python-3.8.2-openblas-0.3.9
Unloaded module: python3/3.8.2
Unloaded module: gcc/8.4.0
Unloaded module: binutils/2.34
Unloaded module: openblas/0.3.9
Unloaded module: latex/TeXLive19
Loaded dependency [numpy/1.18.2-python-3.8.2-openblas-0.3.9]: openblas/0.3.9
Loaded dependency [gcc/8.4.0]: binutils/2.34
Loaded dependency [python3/3.8.2]: gcc/8.4.0
Loaded dependency [numpy/1.18.2-python-3.8.2-openblas-0.3.9]: python3/3.8.2
Loaded dependency [scipy/1.4.1-python-3.8.2]: numpy/1.18.2-python-3.8.2-openblas-0.3.9
Loaded module: scipy/1.4.1-python-3.8.2
mpi(6):ERROR:105: Unable to locate a modulefile for 'mpi/gcc-6.1.0-openmpi-2.0.0-thread-multiple'
Loaded dependency [scalapack/2.0.2-openblas-0.2.15]: mpi/gcc-6.1.0-openmpi-2.0.0-thread-multiple
Another version of gcc is loaded. Use "module swap gcc/6.1.0" instead.
Loaded dependency [scalapack/2.0.2-openblas-0.2.15]: gcc/6.1.0
Another version of openblas is loaded. Use "module swap openblas/0.2.15" instead.
Loaded dependency [scalapack/2.0.2-openblas-0.2.15]: openblas/0.2.15
Loaded module: scalapack/2.0.2-openblas-0.2.15
Loaded module: mpi/gcc
--------------------------------------------------------------------------
mpiexec noticed that process rank 0 with PID 0 on node n-62-18-48 exited on signal 4 (Illegal instruction).
--------------------------------------------------------------------------

------------------------------------------------------------
Sender: LSF System <lsfadmin@n-62-18-48>
Subject: Job 6420619: <CHO111> in cluster <dcc> Exited

Job <CHO111> was submitted from host <gbarlogin1> by user <geokast> in cluster <dcc> at Thu Apr 30 10:04:53 2020
Job was executed on host(s) <24*n-62-18-48>, in queue <hpc>, as user <geokast> in cluster <dcc> at Thu Apr 30 10:04:55 2020
</zhome/f7/9/81494> was used as the home directory.
</zhome/f7/9/81494/SelectCO2/endstates/111/CHO/CHO_Cu-fcc111_3x4.4lc_top> was used as the working directory.
Started at Thu Apr 30 10:04:55 2020
Terminated at Thu Apr 30 10:05:01 2020
Results reported at Thu Apr 30 10:05:01 2020

Your job looked like:

------------------------------------------------------------
# LSBATCH: User input
#!/bin/sh
#BSUB -J CHO111
#BSUB -n 24
#BSUB -W 50:00 
#BSUB -M 3GB


module purge

module load scipy/1.4.1-python-3.8.2
module load  scalapack/2.0.2-openblas-0.2.15
module load mpi
export PYTHONPATH=/zhome/f7/9/81494/opt/ase:/zhome/f7/9/81494/opt/gpaw:/zhome/f7/9/81494/opt/ase:/zhome/f7/9/81494/scripts:/appl/scipy/1.4.1-numpy-1.18.2-python-3.8.2//lib/python3.8/site-packages/:/appl/numpy/1.18.2-python-3.8.2-openblas-0.3.9//lib/python3.8/site-packages/:/appl/python/3.8.2/lib/python3.8/site-packages
export PYTHONPATH=/zhome/f7/9/81494/opt/gpaw:/zhome/f7/9/81494/opt/gpaw:/zhome/f7/9/81494/opt/ase:/zhome/f7/9/81494/scripts:/appl/scipy/1.4.1-numpy-1.18.2-python-3.8.2//lib/python3.8/site-packages/:/appl/numpy/1.18.2-python-3.8.2-openblas-0.3.9//lib/python3.8/site-packages/:/appl/python/3.8.2/lib/python3.8/site-packages
export PATH=/zhome/f7/9/81494/opt/ase/tools:/zhome/f7/9/81494/opt/gpaw/build/scripts-3.8:/zhome/f7/9/81494/opt/ase/tools:/appl/gcc/4.8.5/openmpi/2.1.1-lsf10-threadmultiple//bin:/appl/gcc/4.8.5/openmpi/2.1.1-lsf10-threadmultiple//.//bin:/appl/scipy/1.4.1-numpy-1.18.2-python-3.8.2//bin:/appl/numpy/1.18.2-python-3.8.2-openblas-0.3.9//bin:/appl/python/3.8.2/bin:/appl/gcc/8.4.0/bin:/appl/binutils/2.34/bin:/lsf/local/bin/:/lsf/10.1/linux3.10-glibc2.17-x86_64/etc:/lsf/10.1/linux3.10-glibc2.17-x86_64/bin:/appl/latex/TexLive19/bin/x86_64-linux:/apps/dcc/bin:/usr/bin:/bin:/usr/local/bin:/opt/puppetlabs/bin:/zhome/f7/9/81494/bin:.
export LD_LIBRARY_PATH=/zhome/f7/9/81494/opt/libxc-4.3.4/install/lib:/zhome/f7/9/81494/opt/libxc-4.3.4/install/lib:/appl/gcc/4.8.5/openmpi/2.1.1-lsf10-threadmultiple//lib:/appl/gcc/4.8.5/openmpi/2.1.1-lsf10-threadmultiple//.//lib:/opt/torque4/lib:/appl/ScaLAPACK/2.0.2-openblas-0.2.15//XeonE5-2660v3/gcc-6.1.0/lib:/appl/scipy/1.4.1-numpy-1.18.2-python-3.8.2//lib:/appl/numpy/1.18.2-python-3.8.2-openblas-0.3.9//lib:/appl/python/3.8.2/lib:/appl/gcc/8.4.0/lib:/appl/gcc/8.4.0/lib64:/appl/OpenBLAS/0.3.9/XeonE5-2660v3/gcc-9.3.0/lib:/lsf/10.1/linux3.10-glibc2.17-x86_64/lib
#export LD_RUN_PATH=/zhome/f7/9/81494/opt/libxc-4.3.4/install/lib:/zhome/f7/9/81494/opt/libxc-4.3.4/install/lib:
export GPAW_SETUP_PATH=/zhome/f7/9/81494/opt/gpaw-setups-0.9.20000

#mpirun run.py CHO111
mpiexec -np 24 gpaw-python run.py

------------------------------------------------------------

Exited with exit code 132.

Resource usage summary:

    CPU time :                                   62.27 sec.
    Max Memory :                                 985 MB
    Average Memory :                             985.00 MB
    Total Requested Memory :                     73728.00 MB
    Delta Memory :                               72743.00 MB
    Max Swap :                                   2 MB
    Max Processes :                              28
    Max Threads :                                81
    Run time :                                   26 sec.
    Turnaround time :                            8 sec.

The output (if any) is above this job summary.

