surface_name	site_name	species_name	formation_energy	frequencies	reference
None	gas	CH4	-2.486809	[0, 0, 0,  0,  83.0, 143.7, 1288.3, 1302.9, 1304.3, 1504.7, 1515.7, 3022.0, 3108.2, 3121.0, 3126.1]	GK calc
None	gas	CO	0.000000000000	[]	GK calc
None	gas	H2	0.000000000000	[]	GK calc
None	gas	C2H4	-2.76975805	[0, 0, 0, 0, 0, 0, 826.36096307,  959.45228605,  960.34934469, 1053.97242644, 1229.69837936, 1348.85228724, 1472.24547713, 1668.96347041, 3105.59055667, 3125.65012816, 3173.82607546, 3196.77938303]	own calc
None	gas	CH3CH2OH	-3.255991999999992	[0,  0,   0,  134.7,  149.6,  181.7,  334.3,  384.9,  495.9,  832.0, 907.2,  992.8, 1081.6, 1157.1, 1271.7, 1295.2, 1403.1, 1426.8, 1465.6, 1502.8, 1519.1, 2959.8, 2971.0, 3032.1, 3073.8, 3090.5, 3799.5]	GK calc
None	gas	H2O	0.000000000000	[]	GK_calc
Cu	dl	H	0.000000000000	[]	GK_calc
Cu	100	HCCO	0.105214	[]	beta=(-0.01233728737986181, -1.2783414629964143)
Cu	100	HCCO-H2O-ele	1.016628	[]	beta=(0.49563402598287204, -2.3506802064039753) HCCO_to_H2CCO_base 304j
Cu	100	CHO	0.930682	[]	beta=(0.21859652219853803, -0.8129655654273994)
Cu	100	CHO-H2O-ele	2.411322	[]	beta=(0.8110270536658977, -1.922792443092531) CHO_to_CHOH_base 132j
Cu	100	CHO-H-ele	1.606490	[]	beta=(-0.6271081654871197, 3.380451241588473) CHO_to_CHOH_acid 498j
Cu	100	CHOH	1.619136	[]	beta=(0.14822782085104322, -0.17817422878786757)
Cu	100	CHOH-ele	2.843734	[]	beta=(0.5153049619023197, -0.4941003702763485) CHOH_to_CH_base 329j
Cu	100	CH	0.602849	[]	beta=(-0.012199867554911011, -0.12640000911750726)
Cu	100	CO	0.023132	[]	beta=(0.05936997131538682, -0.7927325843768538)
Cu	100	COH	1.296451	[]	beta=(0.005677962435532292, 0.4147973548584978)
Cu	100	COH-ele	2.513904	[]	beta=(0.5043092097002582, -0.4919934690007759) COH_to_C_base 314j
Cu	100	COH-H-ele	2.027974	[]	beta=(-0.6825246975155607, 3.9236280358536706) COH_to_C_acid 236j
Cu	100	CCO	-0.261471	[]	beta=(0.18128465443997452, -2.1548819114372555)
Cu	100	CCO-H2O-ele	0.831349	[]	beta=(0.627045136433849, -2.7728849214935893) CCO_to_HCCO_base 1108j
Cu	100	H	0.293853	[]	beta=(-0.017702144503487446, 0.18236261074459292)
Cu	100	OCCHO	0.813447	[]	beta=(0.5952073616283964, -3.207068835716118)
Cu	100	clean	-2940.341155	[]	beta=(0.8457530109934288, -2944.6950305498613)
Cu	100	H2O-ele	1.223871	[]	beta=(0.43516785821339593, -0.3398875568815079) clean_to_H_base 1073j
Cu	100	COCO	0.158569	[]	beta=(0.1490641944074651, -1.4635778549969813)
Cu	100	CO-CO	0.900413	[]	beta=(0.33916573662536076, -1.636451601876846) COCO_to_OCCO_base 399j
Cu	100	H2CCO	0.179867	[]	beta=(0.05814520404008808, -1.7888828953124492)
Cu	100	OCCO	0.991769	[]	beta=(0.6158952864463326, -2.784172003212185)
Cu	100	OCCO-H2O-ele	1.696923	[]	beta=(0.9128381777853191, -3.3186225088837125) OCCO_to_OCCOH_base 688j
Cu	100	OCCOH	1.239790	[]	beta=(0.4884538617422778, -2.3643771452121016)
Cu	100	OCCOH-ele	1.774646	[]	beta=(0.7187360031419922, -2.667316616684856) OCCOH_to_CCO_base 326j
Cu	100	C	0.962395	[]	beta=(0.010924292197864371, 0.39120218546423935)
Cu	100	C-H2O-ele	1.790435	[]	beta=(0.3551965134768652, -0.03152661325769532) C_to_CH_base 1259j
Cu	111	CHO	1.053528	[]	beta=(0.06958176987052457, 0.07912760993555497)
Cu	111	CHO-H2O-ele	2.474595	[]	beta=(0.5362096965724192, -0.650410907236333) CHO_to_CHOH_base 131j
Cu	111	CHOH	1.628026	[]	beta=(0.008084389953898109, 0.47326870510086266)
Cu	111	CHOH-ele	2.693537	[]	beta=(0.4009788031956354, -0.10674792253950358) CHOH_to_CH_base 386j
Cu	111	CH	1.123301	[]	beta=(0.016817874043850933, 0.26136465629302125)
Cu	111	CO	0.335671	[]	beta=(0.1523670746611968, -0.8585293405548797)
Cu	111	COH	1.606226	[]	beta=(-0.10038032431916426, 1.2188469852825932)
Cu	111	COH-ele	3.620849	[]	beta=(0.6446638651303487, 0.005368755279288262) COH_to_C_base 267j
Cu	111	H	0.197099	[]	beta=(0.00105005948699, 0.028759896948697555)
Cu	111	OCCHO	1.322648	[]	beta=(0.6404589846568391, -2.880036267749368)
Cu	111	clean	-2943.501804	[]	beta=(0.8626308913490106, -2947.921244264714)
Cu	111	H2O-ele	1.428792	[]	beta=(0.42359926075241655, -0.11802607677867906) clean_to_H_base 809j
Cu	111	COCO	0.321494	[]	beta=(0.12926728463968218, -1.2059691002649644)
Cu	111	CO-CO	1.054740	[]	beta=(0.24726299586257522, -1.0083205922237282) COCO_to_OCCO_base 331j
Cu	111	OCCO	1.518262	[]	beta=(0.5391063784358708, -1.9461673867162423)
Cu	111	OCCO-H2O-ele	2.034622	[]	beta=(0.834664260579936, -2.5808284357314526) OCCO_to_OCCOH_base 758j
Cu	111	OCCOH	1.643020	[]	beta=(0.35524623710613434, -1.3398360326664542)
Cu	111	C	2.164376	[]	beta=(0.13549035397181203, 1.0431304981916867)
Cu	211	CHO	1.121700	[]	beta=(0.27874591667859944, -0.9468234144483205)
Cu	211	CHO-H2O-ele	1.870699	[]	beta=(0.6674784523338531, -1.7815968318431474) CHO_to_CHOH_base 655j
Cu	211	CHO-H-ele	1.398439	[]	beta=(-0.6849804291046061, 3.408351813471708) CHO_to_CHOH_acid 237j
Cu	211	CHOH	1.215453	[]	beta=(0.002490173436322109, 0.049836197165604904)
Cu	211	CHOH-ele	2.498924	[]	beta=(0.5421840466401826, -0.9213500646418653) CHOH_to_CH_base 338j
Cu	211	CHOH-H-ele	2.085110	[]	beta=(-0.3535031349928656, 2.409671797676852) CHOH_to_CH_acid 370j
Cu	211	CH	0.709448	[]	beta=(-0.02176069976103352, 0.006250115756364946)
Cu	211	CO	0.069479	[]	beta=(-0.000527111148607784, -0.48474645648378445)
Cu	211	COH	1.636323	[]	beta=(0.03918911607816627, 0.5951456309105878)
Cu	211	COH-ele	3.279107	[]	beta=(0.6086481218187783, -0.20061179628566925) COH_to_C_base 350j
Cu	211	H	0.047549	[]	beta=(0.02337267525012133, -0.1436253939978989)
Cu	211	OCCHO	1.556990	[]	beta=(0.9394961753142105, -4.031876058439052)
Cu	211	clean	-2943.178771	[]	beta=(0.8521577057744005, -2947.547620979615)
Cu	211	H2O-ele	1.108587	[]	beta=(0.36323579621153623, -0.1699694400844681) clean_to_H_base 762j
Cu	211	H-ele	1.574538	[]	beta=(-0.4990452162663718, 3.1245972855097577) clean_to_H_acid 0
Cu	211	COCO	0.027014	[]	beta=(0.14103454182786662, -1.713160731407346)
Cu	211	CO-CO	0.946105	[]	beta=(0.2484462125887679, -1.2148252849517671) COCO_to_OCCO_base 222j
Cu	211	OCCO	0.954535	[]	beta=(0.4489496638588161, -2.1174978515190914)
Cu	211	OCCO-H2O-ele	2.177593	[]	beta=(1.0821579632286924, -3.420728675703942) OCCO_to_OCCOH_base 343j
Cu	211	OCCOH	-0.440213	[]	beta=(0.13175443433055803, -1.0199329677567506)
Cu	211	C	1.347598	[]	beta=(0.021758771404713162, 0.7221600270491346)
Cu	110	CHO	0.695313	[]	beta=(0.28459572695368146, -1.2939374350554669)
Cu	110	CHO-H2O-ele	2.065246	[]	beta=(0.5679839958430297, -1.2735552003549946) CHO_to_CHOH_base 92j
Cu	110	CHOH	1.050422	[]	beta=(-0.16359533530376136, 0.5837043460387414)
Cu	110	CHOH-ele	2.683518	[]	beta=(0.4057695386684914, -0.16357058180926531) CHOH_to_CH_base 266j
Cu	110	CH	1.069283	[]	beta=(-0.04241631772762203, 0.4801115907036925)
Cu	110	CO	-0.104656	[]	beta=(-0.07514393918370614, -0.2846638995601361)
Cu	110	COH	1.591777	[]	beta=(-0.21034441738054435, 1.6566816559619288)
Cu	110	COH-ele	2.779226	[]	beta=(0.16517563660648968, 1.2545489400366705) COH_to_C_base 333j
Cu	110	H	0.233993	[]	beta=(0.042782826572447495, -0.14012953677746529)
Cu	110	clean	-2943.595984	[]	beta=(0.8187587843615878, -2947.826534419181)
Cu	110	COCO	0.230632	[]	beta=(0.24921565362694095, -1.8821977121774898)
Cu	110	CO-CO	0.745407	[]	beta=(0.3060003098186111, -1.5791015560767354) COCO_to_OCCO_base 410j
Cu	110	OCCO	0.891715	[]	beta=(0.5454666477937457, -2.633282358603701)
Cu	110	OCCO-H2O-ele	1.881558	[]	beta=(0.912627084332223, -3.1876530858614984) OCCO_to_OCCOH_base (134+0j)
Cu	110	OCCOH	0.977552	[]	beta=(0.25893229722966676, -1.630310172566427)
Cu	110	C	1.689583	[]	beta=(0.011252723891682768, 1.131562501558023)
