Warning! graphviz not imported.
header_evaluation: fail - could not save sys = <module 'sys' (built-in)>


rootfinding_iteration_1: cancel - stationary point or singular jacobian (residual = 0.000978370579051)
initial_evaluation: fail - initial guess at point [-0.90,300.00]
rootfinding_iteration_1: cancel - stationary point or singular jacobian (residual = 0.00292064714546)
initial_evaluation: fail - initial guess at point [-0.95,300.00]
rootfinding_iteration_1: cancel - stationary point or singular jacobian (residual = 0.00893568954477)
initial_evaluation: fail - initial guess at point [-1.00,300.00]
rootfinding_iteration_1: cancel - stationary point or singular jacobian (residual = 0.0284416830392)
initial_evaluation: fail - initial guess at point [-1.05,300.00]
rootfinding_iteration_1: cancel - stationary point or singular jacobian (residual = 0.0959773553982)
initial_evaluation: fail - initial guess at point [-1.10,300.00]
rootfinding_iteration_1: cancel - stationary point or singular jacobian (residual = 0.34964583911)
initial_evaluation: fail - initial guess at point [-1.15,300.00]
rootfinding_iteration_1: cancel - stationary point or singular jacobian (residual = 1.38771940796)
initial_evaluation: fail - initial guess at point [-1.20,300.00]
rootfinding_iteration_1: cancel - stationary point or singular jacobian (residual = 5.96229076265)
initial_evaluation: fail - initial guess at point [-1.25,300.00]
rootfinding_iteration_1: cancel - stationary point or singular jacobian (residual = 27.1007847124)
initial_evaluation: fail - initial guess at point [-1.30,300.00]
rootfinding_iteration_1: cancel - stationary point or singular jacobian (residual = 125.023516228)
initial_evaluation: fail - initial guess at point [-1.35,300.00]
rootfinding_iteration_1: cancel - stationary point or singular jacobian (residual = 542.876744191)
initial_evaluation: fail - initial guess at point [-1.40,300.00]
rootfinding_iteration_1: cancel - stationary point or singular jacobian (residual = 1953.92644461)
initial_evaluation: fail - initial guess at point [-1.45,300.00]
rootfinding_iteration_1: cancel - stationary point or singular jacobian (residual = 5208.76657279)
initial_evaluation: fail - initial guess at point [-1.50,300.00]
rootfinding_iteration_1: cancel - stationary point or singular jacobian (residual = 10638.714214)
initial_evaluation: fail - initial guess at point [-1.55,300.00]
rootfinding_iteration_1: cancel - stationary point or singular jacobian (residual = 18847.5288677)
initial_evaluation: fail - initial guess at point [-1.60,300.00]
rootfinding_iteration_1: cancel - stationary point or singular jacobian (residual = 31578.4918754)
initial_evaluation: fail - initial guess at point [-1.65,300.00]
rootfinding_iteration_1: cancel - stationary point or singular jacobian (residual = 51891.5000919)
initial_evaluation: fail - initial guess at point [-1.70,300.00]
rootfinding_iteration_2: fail - stagnated or diverging (residual = 84505.8626523)
initial_evaluation: fail - initial guess at point [-1.75,300.00]
rootfinding_iteration_2: fail - stagnated or diverging (residual = 138454.888196)
initial_evaluation: fail - initial guess at point [-1.80,300.00]
mapper_iteration_0: status - 19 points do not have valid solution.
rootfinding_iteration_3: fail - stagnated or diverging (residual = 8822832.4108)
minresid_iteration_0: fail - [-0.90,300.00] using coverages from [-0.90,300.00]; initial residual was 1e+13 (residual = 8822832.4108)
rootfinding_iteration_4: fail - stagnated or diverging (residual = 544921.948288)
minresid_iteration_1: fail - [-0.90,300.00] using coverages from [-0.90,300.00]; initial residual was 1.25481296126e+13 (residual = 544921.948288)
rootfinding_iteration_4: fail - stagnated or diverging (residual = 544921.94829)
minresid_iteration_2: fail - [-0.90,300.00] using coverages from [-0.90,300.00]; initial residual was 1.25478908758e+13 (residual = 544921.94829)
Unable to find solution at [-0.90,300.00] from current information. No nearby points for bisection.
rootfinding_iteration_11: fail - stagnated or diverging (residual = 1.145954554)
minresid_iteration_0: fail - [-0.95,300.00] using coverages from [-0.95,300.00]; initial residual was 2.01177759053e+13 (residual = 1.145954554)
Unable to find solution at [-0.95,300.00] from current information. No nearby points for bisection.
rootfinding_iteration_11: fail - stagnated or diverging (residual = 2.66084473432)
minresid_iteration_0: fail - [-1.00,300.00] using coverages from [-1.00,300.00]; initial residual was 2.09040032498e+13 (residual = 2.66084473432)
Unable to find solution at [-1.00,300.00] from current information. No nearby points for bisection.
rootfinding_iteration_5: fail - stagnated or diverging (residual = 28279573.8322)
minresid_iteration_0: fail - [-1.05,300.00] using coverages from [-1.05,300.00]; initial residual was 2.16502815394e+13 (residual = 28279573.8322)
Unable to find solution at [-1.05,300.00] from current information. No nearby points for bisection.
rootfinding_iteration_10: fail - stagnated or diverging (residual = 14.8094858426)
minresid_iteration_0: fail - [-1.10,300.00] using coverages from [-1.10,300.00]; initial residual was 2.23524460491e+13 (residual = 14.8094858426)
Unable to find solution at [-1.10,300.00] from current information. No nearby points for bisection.
rootfinding_iteration_5: fail - stagnated or diverging (residual = 27923966.9044)
minresid_iteration_0: fail - [-1.15,300.00] using coverages from [-1.15,300.00]; initial residual was 2.3014154635e+13 (residual = 27923966.9044)
Unable to find solution at [-1.15,300.00] from current information. No nearby points for bisection.
rootfinding_iteration_9: fail - stagnated or diverging (residual = 42202.9456052)
minresid_iteration_0: fail - [-1.20,300.00] using coverages from [-1.20,300.00]; initial residual was 2.36325286088e+13 (residual = 42202.9456052)
Unable to find solution at [-1.20,300.00] from current information. No nearby points for bisection.
rootfinding_iteration_4: fail - stagnated or diverging (residual = 457222172.715)
minresid_iteration_0: fail - [-1.25,300.00] using coverages from [-1.25,300.00]; initial residual was 2.42075740811e+13 (residual = 457222172.715)
Unable to find solution at [-1.25,300.00] from current information. No nearby points for bisection.
rootfinding_iteration_5: fail - stagnated or diverging (residual = 341408306.672)
minresid_iteration_0: fail - [-1.30,300.00] using coverages from [-1.30,300.00]; initial residual was 2.47392698125e+13 (residual = 341408306.672)
Unable to find solution at [-1.30,300.00] from current information. No nearby points for bisection.
rootfinding_iteration_3: fail - stagnated or diverging (residual = 2899153670.08)
minresid_iteration_0: fail - [-1.35,300.00] using coverages from [-1.35,300.00]; initial residual was 2.52263498764e+13 (residual = 2899153670.08)
Unable to find solution at [-1.35,300.00] from current information. No nearby points for bisection.
rootfinding_iteration_3: fail - stagnated or diverging (residual = 2696413173.92)
minresid_iteration_0: fail - [-1.40,300.00] using coverages from [-1.40,300.00]; initial residual was 2.56628713895e+13 (residual = 2696413173.92)
Unable to find solution at [-1.40,300.00] from current information. No nearby points for bisection.
rootfinding_iteration_3: fail - stagnated or diverging (residual = 2652987726.55)
minresid_iteration_0: fail - [-1.45,300.00] using coverages from [-1.45,300.00]; initial residual was 2.60267751598e+13 (residual = 2652987726.55)
Unable to find solution at [-1.45,300.00] from current information. No nearby points for bisection.
rootfinding_iteration_3: fail - stagnated or diverging (residual = 2593795344.14)
minresid_iteration_0: fail - [-1.50,300.00] using coverages from [-1.50,300.00]; initial residual was 2.62562576921e+13 (residual = 2593795344.14)
Unable to find solution at [-1.50,300.00] from current information. No nearby points for bisection.
rootfinding_iteration_3: fail - stagnated or diverging (residual = 2498181304.36)
minresid_iteration_0: fail - [-1.55,300.00] using coverages from [-1.55,300.00]; initial residual was 2.61591574394e+13 (residual = 2498181304.36)
Unable to find solution at [-1.55,300.00] from current information. No nearby points for bisection.
rootfinding_iteration_3: fail - stagnated or diverging (residual = 2311816698.29)
minresid_iteration_0: fail - [-1.60,300.00] using coverages from [-1.60,300.00]; initial residual was 2.52182250222e+13 (residual = 2311816698.29)
Unable to find solution at [-1.60,300.00] from current information. No nearby points for bisection.
rootfinding_iteration_3: fail - stagnated or diverging (residual = 1983982408.75)
minresid_iteration_0: fail - [-1.65,300.00] using coverages from [-1.65,300.00]; initial residual was 2.22877722972e+13 (residual = 1983982408.75)
Unable to find solution at [-1.65,300.00] from current information. No nearby points for bisection.
rootfinding_iteration_4: fail - stagnated or diverging (residual = 140857487.251)
minresid_iteration_0: fail - [-1.70,300.00] using coverages from [-1.70,300.00]; initial residual was 1.61043631508e+13 (residual = 140857487.251)
Unable to find solution at [-1.70,300.00] from current information. No nearby points for bisection.
minresid_iteration_0: success - [-1.75,300.00] using coverages from [-1.75,300.00]
rootfinding_iteration_1: cancel - stationary point or singular jacobian (residual = 3.08537305595e+12)
minresid_iteration_0: fail - [-1.80,300.00] using coverages from [-1.80,300.00]; initial residual was 3.08537305595e+12 (residual = 3.08537305595e+12)
minresid_iteration_1: success - [-1.80,300.00] using coverages from [-1.75,300.00]
mapper_iteration_1: status - 17 points do not have valid solution.
Unable to find solution at [-0.90,300.00] from current information. No nearby points for bisection.
Unable to find solution at [-0.95,300.00] from current information. No nearby points for bisection.
Unable to find solution at [-1.00,300.00] from current information. No nearby points for bisection.
Unable to find solution at [-1.05,300.00] from current information. No nearby points for bisection.
Unable to find solution at [-1.10,300.00] from current information. No nearby points for bisection.
Unable to find solution at [-1.15,300.00] from current information. No nearby points for bisection.
Unable to find solution at [-1.20,300.00] from current information. No nearby points for bisection.
Unable to find solution at [-1.25,300.00] from current information. No nearby points for bisection.
Unable to find solution at [-1.30,300.00] from current information. No nearby points for bisection.
Unable to find solution at [-1.35,300.00] from current information. No nearby points for bisection.
Unable to find solution at [-1.40,300.00] from current information. No nearby points for bisection.
Unable to find solution at [-1.45,300.00] from current information. No nearby points for bisection.
Unable to find solution at [-1.50,300.00] from current information. No nearby points for bisection.
Unable to find solution at [-1.55,300.00] from current information. No nearby points for bisection.
Unable to find solution at [-1.60,300.00] from current information. No nearby points for bisection.
Unable to find solution at [-1.65,300.00] from current information. No nearby points for bisection.
minresid_iteration_0: success - [-1.70,300.00] using coverages from [-1.75,300.00]
mapper_iteration_2: status - 16 points do not have valid solution.
Unable to find solution at [-0.90,300.00] from current information. No nearby points for bisection.
Unable to find solution at [-0.95,300.00] from current information. No nearby points for bisection.
Unable to find solution at [-1.00,300.00] from current information. No nearby points for bisection.
Unable to find solution at [-1.05,300.00] from current information. No nearby points for bisection.
Unable to find solution at [-1.10,300.00] from current information. No nearby points for bisection.
Unable to find solution at [-1.15,300.00] from current information. No nearby points for bisection.
Unable to find solution at [-1.20,300.00] from current information. No nearby points for bisection.
Unable to find solution at [-1.25,300.00] from current information. No nearby points for bisection.
Unable to find solution at [-1.30,300.00] from current information. No nearby points for bisection.
Unable to find solution at [-1.35,300.00] from current information. No nearby points for bisection.
Unable to find solution at [-1.40,300.00] from current information. No nearby points for bisection.
Unable to find solution at [-1.45,300.00] from current information. No nearby points for bisection.
Unable to find solution at [-1.50,300.00] from current information. No nearby points for bisection.
Unable to find solution at [-1.55,300.00] from current information. No nearby points for bisection.
Unable to find solution at [-1.60,300.00] from current information. No nearby points for bisection.
minresid_iteration_0: success - [-1.65,300.00] using coverages from [-1.70,300.00]
mapper_iteration_3: status - 15 points do not have valid solution.
Unable to find solution at [-0.90,300.00] from current information. No nearby points for bisection.
Unable to find solution at [-0.95,300.00] from current information. No nearby points for bisection.
Unable to find solution at [-1.00,300.00] from current information. No nearby points for bisection.
Unable to find solution at [-1.05,300.00] from current information. No nearby points for bisection.
Unable to find solution at [-1.10,300.00] from current information. No nearby points for bisection.
Unable to find solution at [-1.15,300.00] from current information. No nearby points for bisection.
Unable to find solution at [-1.20,300.00] from current information. No nearby points for bisection.
Unable to find solution at [-1.25,300.00] from current information. No nearby points for bisection.
Unable to find solution at [-1.30,300.00] from current information. No nearby points for bisection.
Unable to find solution at [-1.35,300.00] from current information. No nearby points for bisection.
Unable to find solution at [-1.40,300.00] from current information. No nearby points for bisection.
Unable to find solution at [-1.45,300.00] from current information. No nearby points for bisection.
Unable to find solution at [-1.50,300.00] from current information. No nearby points for bisection.
Unable to find solution at [-1.55,300.00] from current information. No nearby points for bisection.
minresid_iteration_0: success - [-1.60,300.00] using coverages from [-1.65,300.00]
mapper_iteration_4: status - 14 points do not have valid solution.
Unable to find solution at [-0.90,300.00] from current information. No nearby points for bisection.
Unable to find solution at [-0.95,300.00] from current information. No nearby points for bisection.
Unable to find solution at [-1.00,300.00] from current information. No nearby points for bisection.
Unable to find solution at [-1.05,300.00] from current information. No nearby points for bisection.
Unable to find solution at [-1.10,300.00] from current information. No nearby points for bisection.
Unable to find solution at [-1.15,300.00] from current information. No nearby points for bisection.
Unable to find solution at [-1.20,300.00] from current information. No nearby points for bisection.
Unable to find solution at [-1.25,300.00] from current information. No nearby points for bisection.
Unable to find solution at [-1.30,300.00] from current information. No nearby points for bisection.
Unable to find solution at [-1.35,300.00] from current information. No nearby points for bisection.
Unable to find solution at [-1.40,300.00] from current information. No nearby points for bisection.
Unable to find solution at [-1.45,300.00] from current information. No nearby points for bisection.
Unable to find solution at [-1.50,300.00] from current information. No nearby points for bisection.
minresid_iteration_0: success - [-1.55,300.00] using coverages from [-1.60,300.00]
mapper_iteration_5: status - 13 points do not have valid solution.
Unable to find solution at [-0.90,300.00] from current information. No nearby points for bisection.
Unable to find solution at [-0.95,300.00] from current information. No nearby points for bisection.
Unable to find solution at [-1.00,300.00] from current information. No nearby points for bisection.
Unable to find solution at [-1.05,300.00] from current information. No nearby points for bisection.
Unable to find solution at [-1.10,300.00] from current information. No nearby points for bisection.
Unable to find solution at [-1.15,300.00] from current information. No nearby points for bisection.
Unable to find solution at [-1.20,300.00] from current information. No nearby points for bisection.
Unable to find solution at [-1.25,300.00] from current information. No nearby points for bisection.
Unable to find solution at [-1.30,300.00] from current information. No nearby points for bisection.
Unable to find solution at [-1.35,300.00] from current information. No nearby points for bisection.
Unable to find solution at [-1.40,300.00] from current information. No nearby points for bisection.
Unable to find solution at [-1.45,300.00] from current information. No nearby points for bisection.
minresid_iteration_0: success - [-1.50,300.00] using coverages from [-1.55,300.00]
mapper_iteration_6: status - 12 points do not have valid solution.
Unable to find solution at [-0.90,300.00] from current information. No nearby points for bisection.
Unable to find solution at [-0.95,300.00] from current information. No nearby points for bisection.
Unable to find solution at [-1.00,300.00] from current information. No nearby points for bisection.
Unable to find solution at [-1.05,300.00] from current information. No nearby points for bisection.
Unable to find solution at [-1.10,300.00] from current information. No nearby points for bisection.
Unable to find solution at [-1.15,300.00] from current information. No nearby points for bisection.
Unable to find solution at [-1.20,300.00] from current information. No nearby points for bisection.
Unable to find solution at [-1.25,300.00] from current information. No nearby points for bisection.
Unable to find solution at [-1.30,300.00] from current information. No nearby points for bisection.
Unable to find solution at [-1.35,300.00] from current information. No nearby points for bisection.
Unable to find solution at [-1.40,300.00] from current information. No nearby points for bisection.
minresid_iteration_0: success - [-1.45,300.00] using coverages from [-1.50,300.00]
mapper_iteration_7: status - 11 points do not have valid solution.
Unable to find solution at [-0.90,300.00] from current information. No nearby points for bisection.
Unable to find solution at [-0.95,300.00] from current information. No nearby points for bisection.
Unable to find solution at [-1.00,300.00] from current information. No nearby points for bisection.
Unable to find solution at [-1.05,300.00] from current information. No nearby points for bisection.
Unable to find solution at [-1.10,300.00] from current information. No nearby points for bisection.
Unable to find solution at [-1.15,300.00] from current information. No nearby points for bisection.
Unable to find solution at [-1.20,300.00] from current information. No nearby points for bisection.
Unable to find solution at [-1.25,300.00] from current information. No nearby points for bisection.
Unable to find solution at [-1.30,300.00] from current information. No nearby points for bisection.
Unable to find solution at [-1.35,300.00] from current information. No nearby points for bisection.
minresid_iteration_0: success - [-1.40,300.00] using coverages from [-1.45,300.00]
mapper_iteration_8: status - 10 points do not have valid solution.
Unable to find solution at [-0.90,300.00] from current information. No nearby points for bisection.
Unable to find solution at [-0.95,300.00] from current information. No nearby points for bisection.
Unable to find solution at [-1.00,300.00] from current information. No nearby points for bisection.
Unable to find solution at [-1.05,300.00] from current information. No nearby points for bisection.
Unable to find solution at [-1.10,300.00] from current information. No nearby points for bisection.
Unable to find solution at [-1.15,300.00] from current information. No nearby points for bisection.
Unable to find solution at [-1.20,300.00] from current information. No nearby points for bisection.
Unable to find solution at [-1.25,300.00] from current information. No nearby points for bisection.
Unable to find solution at [-1.30,300.00] from current information. No nearby points for bisection.
minresid_iteration_0: success - [-1.35,300.00] using coverages from [-1.40,300.00]
mapper_iteration_9: status - 9 points do not have valid solution.
Unable to find solution at [-0.90,300.00] from current information. No nearby points for bisection.
Unable to find solution at [-0.95,300.00] from current information. No nearby points for bisection.
Unable to find solution at [-1.00,300.00] from current information. No nearby points for bisection.
Unable to find solution at [-1.05,300.00] from current information. No nearby points for bisection.
Unable to find solution at [-1.10,300.00] from current information. No nearby points for bisection.
Unable to find solution at [-1.15,300.00] from current information. No nearby points for bisection.
Unable to find solution at [-1.20,300.00] from current information. No nearby points for bisection.
Unable to find solution at [-1.25,300.00] from current information. No nearby points for bisection.
minresid_iteration_0: success - [-1.30,300.00] using coverages from [-1.35,300.00]
mapper_iteration_10: status - 8 points do not have valid solution.
Unable to find solution at [-0.90,300.00] from current information. No nearby points for bisection.
Unable to find solution at [-0.95,300.00] from current information. No nearby points for bisection.
Unable to find solution at [-1.00,300.00] from current information. No nearby points for bisection.
Unable to find solution at [-1.05,300.00] from current information. No nearby points for bisection.
Unable to find solution at [-1.10,300.00] from current information. No nearby points for bisection.
Unable to find solution at [-1.15,300.00] from current information. No nearby points for bisection.
Unable to find solution at [-1.20,300.00] from current information. No nearby points for bisection.
