#V_RHE  I(mA/cm2)   CO  Formate Methane    Ethylene    Ethanol Acetate Hydrogen
-0.30   7.217   69.283  0.0     0.0     0.673   0.0     0.0  16.368
-0.40   11.177  57.175  18.161  0.0     0.673   0.0     0.0     13.901
-0.50   18.757  55.157  22.646  0.0     0.0     0.0     0.0     14.798
-0.60   32.664  45.291  16.592  0.0     13.453  0.0  2.915   15.022
-0.70   69.100  30.493  11.659  0.0     29.372  7.399   2.466   12.108
-0.80   160.58  23.991  5.157   0.0     50.673  5.157   1.000   4.709
