#V_RHE  I(mA/cm2)   Ethanol Acetate n-propanol  Ethylene    Hydrogen
-0.34   2     23.7    18.9   0.0  3.9    18.8 
-0.40   5     13.6    6.6   20.7  13.2   25.0 
-0.49   20    10.4    3.5   17.5  20.4   35.5 
-0.55   50    10.5    5.0   13.6  28.2   38.0 
-0.63   200   15.9    9.7   8.7   32.5   24.1 
-0.72   450   20.3    10.0   6.6  38.5   16.1 




























