# pH 7  | (V vs. RHE) | (V vs. SHE) | C2+ | C1 | HER
   -0.748   -1.161   0.0156    0.00000   0.55382
   -0.798   -1.211   0.02964   0.00107   0.72812
   -0.857   -1.27    0.05642   0.0052    0.78477
   -0.906   -1.319   0.09842   0.01739   0.8821
