#V_RHE  I(mA/cm2)   CO Hydrogen Methane Ethanol Acetate n-propanol  Ethylene 
-0.8	-9.86	5.68	53.68	0.01	4.56	0.65	4.72	14.74
-0.85	-14.90	2.62	44.45	0.04	7.26	0.68	6.20	24.10
-0.9	-21.96	1.49	35.49	0.12	10.69	0.56	5.72	31.02
-0.95	-31.50	0.46	38.21	0.28	14.22	0.33	4.23	33.79
-1.00	-40.06	0.20	52.78	0.51	12.57	0.16	2.20	29.32
-1.05	-52.44	0.06	76.17	1.15	6.86	0.08	0.88	15.89





