#V_RHE  I(mA/cm2)   CO Hydrogen Methane Ethanol Acetate n-propanol  Ethylene 
-0.9	-1.75	14.95	61.67	0.43	0.16	0	0.39	1.10	
-0.95	-2.12	10.40	54.40	1.80	1.42	0.56	0.88	5.31
-1.00	-3.42	9.36	42.35	9.36	3.41	0.95	1.96	15.90
-1.05	-10.37	2.52	23.31	25.53	8.79	1.21	2.62	27.52
-1.10	-14.55	3.16	24.23	38.59	7.98	1.59	1.63	19.34





