#V_RHE  I(mA/cm2)   Acetate Ethanol Ethylene    Formate CO  Methane Hydrogen 
-0.55   100  3.2  27.5  45.1  7.7  5.4  2.9  0.4  6.6 
-0.59   200  2.6  36.1  45.1  3.7  2.7  1.2  1.1  5.6 
-0.68   300  2.3  52.3  37.5  1.4  1.7  0.3  1.2  7.4
