#V_RHE  I(mA/cm2)   Hydrogen    Methane Ethylene Ethanol    Acetate n-propanol
-0.456  2.5 31.3    0.0 18.1    5.0 12.0    6.1
-0.505  5   34.8    0.0 20.7    3.2 14.5    6.9
-0.539  10  35.6    0.0 21.5    3.3 16.1    6.1
-0.603  25  29.7    0.0 22.4    3.8 26.2    5.4
-0.630  50  24.4    0.0 20.0 3.3 37.8    2.1
-0.695  100 19.4    0.8 19.0    3.3 38.6    1.8
-0.736  200 15.8    2.3 16.3    2.4 48.0    2.0
-0.776  300 14.6     8.6    13.7    2.2 43.6    1.1
