#V_RHE  I(mA/cm2)   Ethanol Acetate n-propanol  Ethylene    Hydrogen
-0.31    4   17.3   31.8   0.0   2.8      3.4   55.3 
-0.39   10   18.4   13.0   24.4   16.6   11.6   84.1 
-0.47   35   14.5   8.3    18.8   21.9   18.1   81.6 
-0.56  150   19.2   10.9   13.5   35.4   14.7   93.7 
-0.62  410   23.7   13.8   10.1   39.4   12.0   99.1
-0.67  700   26.7   13.9   8.3   41.8    11.8   102.5 
-0.69 1020   20.4   9.6    4.5   41.7    13.8   89.9
