#V_RHE  I(mA/cm2)   Hydrogen    Methane Ethylene    Acetate Ethanol n-propanol
-0.50   2.159   68.81   0.00    13.76   5.20    6.42    7.64
-0.60   1.978   64.53   0.00    18.04   2.14    6.73   11.62
-0.69   7.985   48.62   2.14    32.11   5.20    8.87    8.87
-0.78   21.86   28.13   7.03    38.23   10.40   11.62   5.20
-0.85   70.06   35.78   19.57   24.46   15.29   6.12    3.67
-0.89   158.2   37.92   19.27   18.96   19.57   5.81    2.45
