# V_RHE  Hydrogen Methane Ethylene Acetate  Ethanol n-propanol
-0.8972 1.1174 1.3817 1.1212 1.1051 1.1540 1.0462
-0.9473 1.0897 1.3728 1.1519 1.1907 1.1395 1.1153
-0.9950 1.1079 1.2529 1.0792 1.1882 1.1787 1.0927
-1.0403 1.1023 1.2993 1.1682 1.1358 1.1166 1.0849
-1.0772 1.0789 1.2677 1.1907 1.2340 1.1316 1.0902
-1.1275 1.0428 1.1285 1.1015 1.1844 1.1194 1.0000
