#Hydrogen    CO  Methane Ethylene Ethane Formate Acetate Ethylene-Glycol Ethanol n-propanol
    3.2     4.2     0.9   4.4   0.0   1.2   0.6     0.1     0.3     0.3 
    2.4     1.1     0.9   2.6   0.0   0.9   1.3     0.0     0.4     0.0 
    1.3     1.1     0.6   4.2   0.0   0.0   1.1     0.0     0.4     0.0 
