# V_RHE  Hydrogen Methane Ethylene Acetate  Ethanol n-propanol
-0.5479 1.0904 1.0000 1.0644 1.2744 1.2170 1.1408
-0.5943 1.1143 1.1434 1.2323 1.2391 1.0849 1.0770
-0.6415 1.1293 1.2117 1.0693 1.1363 1.1497 1.1387
-0.6926 1.1169 1.2756 1.0551 1.1254 1.0945 1.1059
-0.7379 1.0042 1.2377 1.0740 1.2221 1.1207 1.0927
-0.7853 1.0673 1.2280 1.1277 1.2277 1.0899 1.0000
