# V_RHE FE_tot Hydrogen Methane Ethylene Acetate  Ethanol n-propanol
-0.6964 100 0.7707 0.0068 0.0349 0.000 0.000 0.000
-0.7238 100 0.9993 0.0111 0.0599 0.000 0.000 0.000
-0.7477 100 1.1452 0.0303 0.1009 0.000 0.000 0.000
-0.7736 100 1.6021 0.0889 0.1522 0.000 0.000 0.000
-0.7951 100 1.8399 0.2373 0.3069 0.0457 0.0962 0.1305
-0.8459 100 2.9539 0.7482 0.9806 0.1313 0.2170 0.2510
-0.8900 100 4.8051 1.5174 1.8608 0.3102 0.6077 0.5721
-0.9352 100 6.7827 3.3435 4.5384 0.7475 1.1076 1.4025
-0.9842 100 10.9018 7.0113 9.7320 2.3163 2.0583 3.0803
-1.0199 100 18.4162 14.4145 23.3615 6.0131 4.9980 0.000
