0.091912  0.00000000
0.183824  0.00000000
0.275735  0.00000000
0.367647  0.00000000
0.459559  0.00000000
0.551471  0.00000000
0.643382  0.00000000
0.735294  0.00000000
0.827206  0.00000000
0.919118  0.00000000
1.011029  0.00000000
1.102941  0.00000000
1.194853  0.00000000
1.286765  0.00000000
1.378676  0.00000000
1.470588  0.00000000
1.562500  0.00000000
1.654412  0.00000000
1.746324  0.00000000
1.838235  0.00000000
1.930147  0.00000000
2.022059  0.00000000
2.113971  0.00000000
2.205882  0.00000000
2.297794  0.00000000
2.389706  0.00000000
2.481618  0.00000000
2.573529  0.00000000
2.665441  0.00000000
2.757353  0.00000000
2.849265  0.00000000
2.941176  0.00000000
3.033088  0.00000000
3.125000  0.00000000
3.216912  0.00000000
3.308824  0.00000000
3.400735  0.00000000
3.492647  0.00000000
3.584559  0.00000000
3.676471  0.00000000
3.768382  0.00000000
3.860294  0.00000000
3.952206  0.00000000
4.044118  0.00000000
4.136029  0.00000000
4.227941  0.00000000
4.319853  0.00000000
4.411765  0.00000000
4.503676  0.00000000
4.595588  0.00000000
4.687500  0.00000000
4.779412  0.00000000
4.871324  0.00000000
4.963235  0.00000000
5.055147  0.00000000
5.147059  0.00000000
5.238971  0.00000000
5.330882  0.00000000
5.422794  0.00000000
5.514706  0.00000000
5.606618  0.00000000
5.698529  0.00000000
5.790441  0.00000000
5.882353  0.00000000
5.974265  0.00000000
6.066176  0.00000000
6.158088  0.00000000
6.250000  0.00000000
6.341912  0.00000000
6.433824  0.00000000
6.525735  0.00000000
6.617647  0.00000000
6.709559  0.00000000
6.801471  0.00000000
6.893382  0.00000000
6.985294  0.00000000
7.077206  0.00000000
7.169118  0.00000000
7.261029  0.00000000
7.352941  0.00000000
7.444853  0.00000000
7.536765  0.00000000
7.628676  0.00000000
7.720588  0.00000000
7.812500  0.00000000
7.904412  0.00000000
7.996324  0.00000000
8.088235  0.00000000
8.180147  0.00000000
8.272059  0.00000000
8.363971  0.00000000
8.455882  0.00000000
8.547794  0.00000000
8.639706  0.00000000
8.731618  0.00000000
8.823529  0.00000000
8.915441  0.00000000
9.007353  0.00000000
9.099265  0.00000000
9.191176  0.00000000
9.283088  0.00000000
9.375000  0.00000000
9.466912  0.00000000
9.558824  0.00000000
9.650735  0.00000000
9.742647  0.00000000
9.834559  0.00000000
9.926471  0.00000000
10.018382  0.00000000
10.110294  0.00000000
10.202206  0.00000000
10.294118  0.00000000
10.386029  0.00000000
10.477941  0.00000000
10.569853  0.00000000
10.661765  0.00000000
10.753676  0.00000000
10.845588  0.00000000
10.937500  0.00000000
11.029412  0.00000000
11.121324  0.00000000
11.213235  0.00000000
11.305147  0.00000000
11.397059  0.00000000
11.488971  0.00000000
11.580882  0.00000000
11.672794  0.00000000
11.764706  0.00000000
11.856618  0.00000000
11.948529  0.00000000
12.040441  0.00000000
12.132353  0.00000000
12.224265  0.00000000
12.316176  0.00000000
12.408088  0.00000000
12.500000  0.00000000
12.591912  0.00000000
12.683824  0.00000000
12.775735  0.00000000
12.867647  0.00000000
12.959559  0.00000000
13.051471  0.00000000
13.143382  0.00000000
13.235294  0.00000000
13.327206  0.00000000
13.419118  0.00000000
13.511029  0.00000000
13.602941  0.00000000
13.694853  0.00000000
13.786765  0.00000030
13.878676  0.00003970
13.970588  0.00062674
14.062500  0.00309119
14.154412  0.00791596
14.246324  0.01389113
14.338235  0.01953235
14.430147  0.02409953
14.522059  0.02754710
14.613971  0.03015396
14.705882  0.03225984
14.797794  0.03415379
14.889706  0.03605215
14.981618  0.03811080
15.073529  0.04044512
15.165441  0.04315947
15.257353  0.04640500
15.349265  0.05046031
15.441176  0.05577566
15.533088  0.06286636
15.625000  0.07164049
15.716912  0.08088549
15.808824  0.08953427
15.900735  0.09748718
15.992647  0.10525287
16.084559  0.11352343
16.176471  0.12304574
16.268382  0.13476320
16.360294  0.15019121
16.452206  0.17114299
16.544118  0.19850205
16.636029  0.23155272
16.727941  0.26891378
16.819853  0.30845277
16.911765  0.34830215
17.003676  0.38803980
17.095588  0.42823080
17.187500  0.46975573
17.279412  0.51354818
17.371324  0.56049087
17.463235  0.61063002
17.555147  0.66289256
17.647059  0.71635003
17.738971  0.77011163
17.830882  0.82194923
17.922794  0.86899695
18.014706  0.90851836
18.106618  0.93854691
18.198529  0.95949099
18.290441  0.97338291
18.382353  0.98240360
18.474265  0.98824014
18.566176  0.99203856
18.658088  0.99453656
18.750000  0.99619999
18.841912  0.99732234
18.933824  0.99808961
19.025735  0.99862086
19.117647  0.99899321
19.209559  0.99925725
19.301471  0.99944656
19.393382  0.99958371
19.485294  0.99968406
19.577206  0.99975819
19.669118  0.99981342
19.761029  0.99985494
19.852941  0.99988639
19.944853  0.99991040
20.036765  0.99992887
20.128676  0.99994317
20.220588  0.99995432
20.312500  0.99996307
20.404412  0.99996997
20.496324  0.99997546
20.588235  0.99997984
20.680147  0.99998335
20.772059  0.99998619
20.863971  0.99998849
20.955882  0.99999037
21.047794  0.99999190
21.139706  0.99999317
21.231618  0.99999421
21.323529  0.99999508
21.415441  0.99999580
21.507353  0.99999640
21.599265  0.99999691
21.691176  0.99999734
21.783088  0.99999770
21.875000  0.99999800
21.966912  0.99999826
22.058824  0.99999849
22.150735  0.99999868
22.242647  0.99999884
22.334559  0.99999898
22.426471  0.99999910
22.518382  0.99999921
22.610294  0.99999930
22.702206  0.99999938
22.794118  0.99999945
22.886029  0.99999951
22.977941  0.99999956
23.069853  0.99999961
23.161765  0.99999965
23.253676  0.99999968
23.345588  0.99999972
23.437500  0.99999975
23.529412  0.99999977
23.621324  0.99999979
23.713235  0.99999981
23.805147  0.99999983
23.897059  0.99999985
23.988971  0.99999986
24.080882  0.99999987
24.172794  0.99999988
24.264706  0.99999990
24.356618  0.99999990
24.448529  0.99999991
24.540441  0.99999992
24.632353  0.99999993
24.724265  0.99999993
24.816176  0.99999994
24.908088  0.99999994
