0.091912  4.86269974
0.183824  4.86269257
0.275735  4.86270177
0.367647  4.86270320
0.459559  4.86270365
0.551471  4.86270396
0.643382  4.86270414
0.735294  4.86270409
0.827206  4.86270376
0.919118  4.86270302
1.011029  4.86270177
1.102941  4.86269980
1.194853  4.86269697
1.286765  4.86269294
1.378676  4.86268746
1.470588  4.86268003
1.562500  4.86267022
1.654412  4.86265728
1.746324  4.86264045
1.838235  4.86261861
1.930147  4.86259051
2.022059  4.86255439
2.113971  4.86250823
2.205882  4.86244927
2.297794  4.86237426
2.389706  4.86227887
2.481618  4.86215786
2.573529  4.86200441
2.665441  4.86181018
2.757353  4.86156440
2.849265  4.86125380
2.941176  4.86086147
3.033088  4.86036645
3.125000  4.85974220
3.216912  4.85895583
3.308824  4.85796600
3.400735  4.85672152
3.492647  4.85515849
3.584559  4.85319804
3.676471  4.85074230
3.768382  4.84767081
3.860294  4.84383478
3.952206  4.83905143
4.044118  4.83309554
4.136029  4.82569044
4.227941  4.81649541
4.319853  4.80509152
4.411765  4.79096236
4.503676  4.77347169
4.595588  4.75183327
4.687500  4.72507512
4.779412  4.69199090
4.871324  4.65108083
4.963235  4.60047081
5.055147  4.53781029
5.147059  4.46013405
5.238971  4.36368237
5.330882  4.24366763
5.422794  4.09397086
5.514706  3.90675612
5.606618  3.67208934
5.698529  3.37736996
5.790441  3.00666279
5.882353  2.53968059
5.974265  1.94966961
6.066176  1.20142945
6.158088  0.24788592
6.250000  -0.97063850
6.341912  -2.51737903
6.433824  -4.44151931
6.525735  -6.74519093
6.617647  -9.34019784
6.709559  -12.01555177
6.801471  -14.43605638
6.893382  -16.20073319
6.985294  -16.96189414
7.077206  -16.55468746
7.169118  -15.06587480
7.261029  -12.79873345
7.352941  -10.15651956
7.444853  -7.51285390
7.536765  -5.13216464
7.628676  -3.15303044
7.720588  -1.61313663
7.812500  -0.49244195
7.904412  0.25098760
7.996324  0.65808445
8.088235  0.75514943
8.180147  0.55062764
8.272059  0.03562100
8.363971  -0.81636845
8.455882  -2.04562830
8.547794  -3.69079397
8.639706  -5.76340962
8.731618  -8.21064764
8.823529  -10.87306748
8.915441  -13.46520280
9.007353  -15.60326937
9.099265  -16.89559190
9.191176  -17.07414992
9.283088  -16.09998244
9.375000  -14.17938404
9.466912  -11.68095226
9.558824  -9.00517444
9.650735  -6.47504226
9.742647  -4.28947553
9.834559  -2.53290452
9.926471  -1.21026421
10.018382  -0.28887256
10.110294  0.27042616
10.202206  0.49735388
10.294118  0.40401899
10.386029  -0.01701085
10.477941  -0.79069748
10.569853  -1.95357334
10.661765  -3.54121071
10.753676  -5.56152227
10.845588  -7.95748114
10.937500  -10.57139442
11.029412  -13.12564374
11.121324  -15.25011630
11.213235  -16.56876114
11.305147  -16.81973137
11.397059  -15.95334256
11.488971  -14.15066640
11.580882  -11.75161192
11.672794  -9.13581664
11.764706  -6.62004113
11.856618  -4.40711055
11.948529  -2.58675695
12.040441  -1.16884654
12.132353  -0.11988611
12.224265  0.60686715
12.316176  1.05235259
12.408088  1.24918588
12.500000  1.23058412
12.591912  1.05381158
12.683824  0.82521039
12.775735  0.68640011
12.867647  0.74752314
12.959559  1.01884233
13.051471  1.40933610
13.143382  1.79421788
13.235294  2.08223260
13.327206  2.22954164
13.419118  2.21756208
13.511029  2.03132104
13.602941  1.65777654
13.694853  1.11674874
13.786765  0.50601404
13.878676  -0.00359919
13.970588  -0.23355929
14.062500  -0.09110132
14.154412  0.35002345
14.246324  0.88547627
14.338235  1.29303475
14.430147  1.43031842
14.522059  1.26056195
14.613971  0.83150305
14.705882  0.25980994
14.797794  -0.30137068
14.889706  -0.73398842
14.981618  -1.00594838
15.073529  -1.14362600
15.165441  -1.16258742
15.257353  -1.05856289
15.349265  -0.88631971
15.441176  -0.78659745
15.533088  -0.90401565
15.625000  -1.27977189
15.716912  -1.81810278
15.808824  -2.43092820
15.900735  -3.11694200
15.992647  -3.78235445
16.084559  -4.15450419
16.176471  -3.96383395
16.268382  -3.15072151
16.360294  -1.89119563
16.452206  -0.49725792
16.544118  0.74482022
16.636029  1.69876713
16.727941  2.36503111
16.819853  2.80289275
16.911765  3.07566009
17.003676  3.23382759
17.095588  3.31465654
17.187500  3.34458443
17.279412  3.34273794
17.371324  3.32302265
17.463235  3.29593285
17.555147  3.26936493
17.647059  3.24825700
17.738971  3.23422641
17.830882  3.22582268
17.922794  3.22105026
18.014706  3.21712487
18.106618  3.21346128
18.198529  3.20990025
18.290441  3.20638662
18.382353  3.20289648
18.474265  3.19941815
18.566176  3.19594564
18.658088  3.19247581
18.750000  3.18900703
18.841912  3.18553849
18.933824  3.18206978
19.025735  3.17860075
19.117647  3.17513136
19.209559  3.17166154
19.301471  3.16819149
19.393382  3.16473051
19.485294  3.16136880
19.577206  3.15811565
19.669118  3.15497121
19.761029  3.15193545
19.852941  3.14900838
19.944853  3.14619001
20.036765  3.14348035
20.128676  3.14087941
20.220588  3.13838722
20.312500  3.13600376
20.404412  3.13372905
20.496324  3.13156308
20.588235  3.12950587
20.680147  3.12755742
20.772059  3.12571773
20.863971  3.12398679
20.955882  3.12236461
21.047794  3.12085120
21.139706  3.11944654
21.231618  3.11815065
21.323529  3.11696351
21.415441  3.11588514
21.507353  3.11491553
21.599265  3.11405469
21.691176  3.11330260
21.783088  3.11265928
21.875000  3.11212472
21.966912  3.11169892
22.058824  3.11138189
22.150735  3.11117370
22.242647  3.11107422
22.334559  3.11107416
22.426471  3.11108344
22.518382  3.11109278
22.610294  3.11110204
22.702206  3.11111130
22.794118  3.11112056
22.886029  3.11112982
22.977941  3.11113909
23.069853  3.11114836
23.161765  3.11115763
23.253676  3.11116690
23.345588  3.11117617
23.437500  3.11118544
23.529412  3.11119472
23.621324  3.11120400
23.713235  3.11121328
23.805147  3.11122256
23.897059  3.11123184
23.988971  3.11124112
24.080882  3.11125041
24.172794  3.11125969
24.264706  3.11126898
24.356618  3.11127826
24.448529  3.11128755
24.540441  3.11129684
24.632353  3.11130612
24.724265  3.11131543
24.816176  3.11132483
24.908088  3.11133401
