0.091912  4.93239803
0.183824  4.93239012
0.275735  4.93239962
0.367647  4.93240115
0.459559  4.93240159
0.551471  4.93240189
0.643382  4.93240203
0.735294  4.93240199
0.827206  4.93240163
0.919118  4.93240091
1.011029  4.93239962
1.102941  4.93239768
1.194853  4.93239478
1.286765  4.93239075
1.378676  4.93238515
1.470588  4.93237766
1.562500  4.93236763
1.654412  4.93235449
1.746324  4.93233727
1.838235  4.93231500
1.930147  4.93228619
2.022059  4.93224925
2.113971  4.93220188
2.205882  4.93214145
2.297794  4.93206439
2.389706  4.93196647
2.481618  4.93184206
2.573529  4.93168440
2.665441  4.93148464
2.757353  4.93123200
2.849265  4.93091260
2.941176  4.93050935
3.033088  4.93000048
3.125000  4.92935911
3.216912  4.92855131
3.308824  4.92753513
3.400735  4.92625804
3.492647  4.92465517
3.584559  4.92264593
3.676471  4.92013106
3.768382  4.91698791
3.860294  4.91306577
3.952206  4.90817907
4.044118  4.90210000
4.136029  4.89454839
4.227941  4.88518008
4.319853  4.87357174
4.411765  4.85920248
4.503676  4.84143057
4.595588  4.81946402
4.687500  4.79232394
4.779412  4.75879654
4.871324  4.71737320
4.963235  4.66616992
5.055147  4.60282434
5.147059  4.52435766
5.238971  4.42699410
5.330882  4.30592783
5.422794  4.15502091
5.514706  3.96641952
5.606618  3.73017778
5.698529  3.43369313
5.790441  3.06103774
5.882353  2.59193815
5.974265  1.99966436
6.066176  1.24904973
6.158088  0.29306667
6.250000  -0.92790535
6.341912  -2.47703910
6.433824  -4.40346050
6.525735  -6.70924852
6.617647  -9.30616588
6.709559  -11.98319094
6.801471  -14.40510468
6.893382  -16.17091737
6.985294  -16.93294041
7.077206  -16.52632100
7.169118  -15.03781677
7.261029  -12.77069150
7.352941  -10.12818868
7.444853  -7.48392414
7.536765  -5.10233715
7.628676  -3.12203913
7.720588  -1.58077578
7.812500  -0.45859195
7.904412  0.28633587
7.996324  0.69481753
8.088235  0.79303178
8.180147  0.58931360
8.272059  0.07467591
8.363971  -0.77743740
8.455882  -2.00733611
8.547794  -3.65363794
8.639706  -5.72782974
8.731618  -8.17698899
8.823529  -10.84154695
8.915441  -13.43588644
9.007353  -15.57607596
9.099265  -16.87033195
9.191176  -17.05058667
9.283088  -16.07784953
9.375000  -14.15831197
9.466912  -11.66028332
9.558824  -8.98372090
9.650735  -6.45087797
9.742647  -4.25979660
9.834559  -2.49397051
9.926471  -1.15737300
10.018382  -0.21633615
10.110294  0.36934068
10.202206  0.63073765
10.294118  0.58179710
10.386029  0.21738528
10.477941  -0.48510645
10.569853  -1.56202065
10.661765  -3.05397027
10.753676  -4.98184538
10.845588  -7.31168360
10.937500  -9.91666356
11.029412  -12.54829478
11.121324  -14.84887187
11.213235  -16.42438839
11.305147  -16.96429793
11.397059  -16.35757653
11.488971  -14.73787776
11.580882  -12.42942080
11.672794  -9.82745373
11.764706  -7.28124586
11.856618  -5.02661276
11.948529  -3.17718819
12.040441  -1.75335345
12.132353  -0.71419089
12.224265  0.02332249
12.316176  0.57738855
12.408088  1.07732883
12.500000  1.60079831
12.591912  2.13605215
12.683824  2.62305215
12.775735  3.01676259
12.867647  3.30661277
12.959559  3.50177312
13.051471  3.61644556
13.143382  3.66397980
13.235294  3.65520919
13.327206  3.59827365
13.419118  3.49862579
13.511029  3.35894291
13.602941  3.17902022
13.694853  2.95571639
13.786765  2.68674360
13.878676  2.39129516
13.970588  2.14784024
14.062500  2.06197513
14.154412  2.12817987
14.246324  2.21849546
14.338235  2.20800811
14.430147  2.02090227
14.522059  1.60444711
14.613971  0.91074976
14.705882  -0.07893856
14.797794  -1.27685647
14.889706  -2.41723578
14.981618  -3.14013686
15.073529  -3.25834608
15.165441  -2.91721766
15.257353  -2.41735359
15.349265  -1.99623191
15.441176  -1.83279243
15.533088  -2.00231168
15.625000  -2.36667496
15.716912  -2.73621713
15.808824  -3.09746023
15.900735  -3.41353491
15.992647  -3.40801949
16.084559  -2.81256715
16.176471  -1.68649490
16.268382  -0.36525980
16.360294  0.82682588
16.452206  1.74181031
16.544118  2.37955014
16.636029  2.79843296
16.727941  3.06012833
16.819853  3.21239691
16.911765  3.29038256
17.003676  3.31912091
17.095588  3.31682280
17.187500  3.29665524
17.279412  3.26825047
17.371324  3.23880148
17.463235  3.21379741
17.555147  3.19732539
17.647059  3.18996683
17.738971  3.18601425
17.830882  3.18283077
17.922794  3.17988573
18.014706  3.17703390
18.106618  3.17422344
18.198529  3.17143202
18.290441  3.16864910
18.382353  3.16586958
18.474265  3.16309095
18.566176  3.16031207
18.658088  3.15753247
18.750000  3.15475199
18.841912  3.15197067
18.933824  3.14918853
19.025735  3.14640580
19.117647  3.14362981
19.209559  3.14093080
19.301471  3.13831606
19.393382  3.13578576
19.485294  3.13333990
19.577206  3.13097850
19.669118  3.12870161
19.761029  3.12650926
19.852941  3.12440145
19.944853  3.12237821
20.036765  3.12043956
20.128676  3.11858550
20.220588  3.11681604
20.312500  3.11513119
20.404412  3.11353095
20.496324  3.11201532
20.588235  3.11058432
20.680147  3.10923793
20.772059  3.10797617
20.863971  3.10679904
20.955882  3.10570652
21.047794  3.10469864
21.139706  3.10377538
21.231618  3.10293675
21.323529  3.10218275
21.415441  3.10151337
21.507353  3.10092863
21.599265  3.10042851
21.691176  3.10001303
21.783088  3.09968217
21.875000  3.09943595
21.966912  3.09927442
22.058824  3.09919747
22.150735  3.09919789
22.242647  3.09920557
22.334559  3.09921328
22.426471  3.09922094
22.518382  3.09922857
22.610294  3.09923621
22.702206  3.09924383
22.794118  3.09925146
22.886029  3.09925907
22.977941  3.09926668
23.069853  3.09927429
23.161765  3.09928190
23.253676  3.09928949
23.345588  3.09929709
23.437500  3.09930468
23.529412  3.09931227
23.621324  3.09931985
23.713235  3.09932743
23.805147  3.09933501
23.897059  3.09934258
23.988971  3.09935016
24.080882  3.09935773
24.172794  3.09936529
24.264706  3.09937286
24.356618  3.09938042
24.448529  3.09938799
24.540441  3.09939555
24.632353  3.09940311
24.724265  3.09941068
24.816176  3.09941836
24.908088  3.09942580
