
  ___ ___ ___ _ _ _  
 |   |   |_  | | | | 
 | | | | | . | | | | 
 |__ |  _|___|_____|  19.8.2b1
 |___|_|             

User:   geokast@n-62-31-16
Date:   Wed Apr 29 19:51:50 2020
Arch:   x86_64
Pid:    23334
Python: 3.8.2
gpaw:   /zhome/f7/9/81494/opt/gpaw/gpaw (4f0dd10c34)
_gpaw:  /zhome/f7/9/81494/opt/gpaw/build/scripts-3.8/gpaw-python (4f0dd10c34)
ase:    /zhome/f7/9/81494/opt/ase/ase (version 3.19.0b1-a19b3ca009)
numpy:  /appl/numpy/1.18.2-python-3.8.2-openblas-0.3.9/lib/python3.8/site-packages/numpy-1.18.2-py3.8-linux-x86_64.egg/numpy (version 1.18.2)
scipy:  /appl/scipy/1.4.1-numpy-1.18.2-python-3.8.2/lib/python3.8/site-packages/scipy-1.4.1-py3.8-linux-x86_64.egg/scipy (version 1.4.1)
libxc:  4.3.4
units:  Angstrom and eV
cores:  24

Preequilibrating the potential after manual change of ['potential']
New Target electrode potential: 2.9000 V
Density initialized from wave functions

------------
Jellium properties changed!
Current number of Excess Electrons: 0.95624
Jellium size parameters:
  Lower boundary: 19.077102384657554
  Upper boundary: 22.077102384657554
------------

Unit cell:
           periodic     x           y           z      points  spacing
  1. axis:    yes    7.933738    0.000000    0.000000    48     0.1653
  2. axis:    yes    0.000000    9.161092    0.000000    48     0.1909
  3. axis:    no     0.000000    0.000000   25.000000   136     0.1838

  Lengths:   7.933738   9.161092  25.000000
  Angles:   90.000000  90.000000  90.000000

Effective grid spacing dv^(1/3) = 0.1797

                     log10-error:    total        iterations:
           time      wfs    density  energy       fermi  poisson
iter:   1  19:52:45  -4.34         -2962.319409    3      15     
iter:   2  19:53:38  -4.27  -3.14  -2962.309604    3      17     
iter:   3  19:54:30  -5.61  -3.49  -2962.309413    2      9      
iter:   4  19:55:22  -5.99  -4.36  -2962.309352    2      4      
iter:   5  19:56:13  -6.86  -4.96  -2962.309365    2      2      
iter:   6  19:57:03  -7.46  -4.90  -2962.309206    2      2      

Converged after 6 iterations.

Dipole moment: (-18.099935, -11.622719, 4.438673) |e|*Ang

Cavity Surface Area: 118.89514011742132
Cavity Volume: not calculated (no calculator defined)

Solvation Energy Contributions:
surf:            +0.136544
el (free):     -2962.668060
el (extrpol.): -2962.445749
el (free) is composed of:
Energy contributions relative to reference atoms: (reference = -1638326.555401)

Kinetic:       +368.652417
Potential:     -424.240894
External:        +0.000000
XC:            -2911.429256
Entropy (-ST):   -0.444621
Local:           +4.794294
--------------------------
Free energy:   -2962.531516
Extrapolated:  -2962.309206

Dipole-layer corrected work functions: 4.930977, 3.101204 eV

----------------------------------------------------------
Grand Potential Energy (E_tot + E_solv - mu*ne):
Extrpol:    -2959.343707617026
Free:    -2959.5660182925694
-----------------------------------------------------------
Grand canonical energy will be written into results

Fermi level: -4.01609

Showing only first 2 kpts
 Kpt  Band  Eigenvalues  Occupancy
  0   230     -4.44889    0.32899
  0   231     -4.22187    0.29558
  0   232     -4.09075    0.22615
  0   233     -3.90386    0.08186

  1   230     -4.43134    0.32817
  1   231     -4.30713    0.31612
  1   232     -4.09041    0.22590
  1   233     -3.95250    0.11539


Slope of potential versus ne: -8.55290834 V/e

Capacitance of -13615.3245 muF/cm2

Deviation from target potential outsideof threshold, equilibrating potential
Density initialized from wave functions

------------
Jellium properties changed!
Current number of Excess Electrons: 0.97977
Jellium size parameters:
  Lower boundary: 19.077102384657554
  Upper boundary: 22.077102384657554
------------

Unit cell:
           periodic     x           y           z      points  spacing
  1. axis:    yes    7.933738    0.000000    0.000000    48     0.1653
  2. axis:    yes    0.000000    9.161092    0.000000    48     0.1909
  3. axis:    no     0.000000    0.000000   25.000000   136     0.1838

  Lengths:   7.933738   9.161092  25.000000
  Angles:   90.000000  90.000000  90.000000

Effective grid spacing dv^(1/3) = 0.1797

                     log10-error:    total        iterations:
           time      wfs    density  energy       fermi  poisson
iter:   1  19:58:00  -3.80         -2962.399437    3      31     
iter:   2  19:58:54  -3.84  -2.92  -2962.385399    3      19     
iter:   3  19:59:47  -5.13  -3.27  -2962.378453    3      12     
iter:   4  20:00:39  -4.71  -3.65  -2962.379745    3      10     
iter:   5  20:01:32  -4.92  -3.80  -2962.380660    2      11     
iter:   6  20:02:23  -5.54  -3.69  -2962.379079    2      6      
iter:   7  20:03:15  -5.84  -3.91  -2962.379005    2      5      
iter:   8  20:04:07  -5.87  -4.19  -2962.379110    2      5      
iter:   9  20:04:58  -6.51  -4.60  -2962.379155    2      3      
iter:  10  20:05:49  -6.26  -4.59  -2962.379695    2      3      
iter:  11  20:06:40  -7.05  -4.84  -2962.379566    2      2      
iter:  12  20:07:30  -7.32  -4.82  -2962.379241    2      2      
iter:  13  20:08:21  -7.23  -4.94  -2962.379017    2      2      
iter:  14  20:09:12  -7.67  -5.09  -2962.379168    2      2      

Converged after 14 iterations.

Dipole moment: (-18.100472, -11.623997, 4.593124) |e|*Ang

Cavity Surface Area: 118.89514011742132
Cavity Volume: not calculated (no calculator defined)

Solvation Energy Contributions:
surf:            +0.136544
el (free):     -2962.737813
el (extrpol.): -2962.515711
el (free) is composed of:
Energy contributions relative to reference atoms: (reference = -1638326.555401)

Kinetic:       +368.533757
Potential:     -424.074840
External:        +0.000000
XC:            -2911.557751
Entropy (-ST):   -0.444204
Local:           +4.805224
--------------------------
Free energy:   -2962.601269
Extrapolated:  -2962.379168

Dipole-layer corrected work functions: 4.931535, 3.017650 eV

----------------------------------------------------------
Grand Potential Energy (E_tot + E_solv - mu*ne):
Extrpol:    -2959.42257799078
Free:    -2959.644679904246
-----------------------------------------------------------
Grand canonical energy will be written into results

Fermi level: -3.97459

Showing only first 2 kpts
 Kpt  Band  Eigenvalues  Occupancy
  0   230     -4.40883    0.32905
  0   231     -4.18179    0.29605
  0   232     -4.05071    0.22720
  0   233     -3.86392    0.08282

  1   230     -4.39116    0.32824
  1   231     -4.26725    0.31638
  1   232     -4.05177    0.22797
  1   233     -3.91394    0.11762


Slope of potential versus ne: -3.55175876 V/e

Capacitance of -32786.7488 muF/cm2

Deviation from target potential outsideof threshold, equilibrating potential
Density initialized from wave functions

------------
Jellium properties changed!
Current number of Excess Electrons: 1.01289
Jellium size parameters:
  Lower boundary: 19.077102384657554
  Upper boundary: 22.077102384657554
------------

Unit cell:
           periodic     x           y           z      points  spacing
  1. axis:    yes    7.933738    0.000000    0.000000    48     0.1653
  2. axis:    yes    0.000000    9.161092    0.000000    48     0.1909
  3. axis:    no     0.000000    0.000000   25.000000   136     0.1838

  Lengths:   7.933738   9.161092  25.000000
  Angles:   90.000000  90.000000  90.000000

Effective grid spacing dv^(1/3) = 0.1797

                     log10-error:    total        iterations:
           time      wfs    density  energy       fermi  poisson
iter:   1  20:10:09  -3.60         -2962.504066    3      34     
iter:   2  20:11:04  -3.69  -2.84  -2962.483757    2      20     
iter:   3  20:11:57  -4.94  -3.17  -2962.474509    3      13     
iter:   4  20:12:49  -4.45  -3.51  -2962.475375    3      13     
iter:   5  20:13:42  -4.71  -3.75  -2962.476745    3      12     
iter:   6  20:14:34  -5.25  -3.56  -2962.474937    2      7      
iter:   7  20:15:26  -5.56  -3.81  -2962.474706    2      6      
iter:   8  20:16:17  -5.63  -4.14  -2962.474926    2      6      
iter:   9  20:17:09  -6.36  -4.41  -2962.475120    2      3      
iter:  10  20:18:00  -6.03  -4.48  -2962.475849    2      4      
iter:  11  20:18:51  -6.77  -4.64  -2962.475467    2      3      
iter:  12  20:19:42  -7.21  -4.64  -2962.475070    2      2      
iter:  13  20:20:33  -6.98  -4.63  -2962.475261    2      3      
iter:  14  20:21:24  -6.69  -4.61  -2962.474503    2      3      
iter:  15  20:22:15  -6.75  -4.67  -2962.474270    2      3      
iter:  16  20:23:06  -6.98  -4.80  -2962.475014    2      3      
iter:  17  20:23:57  -7.54  -5.12  -2962.474605    2      2      

Converged after 17 iterations.

Dipole moment: (-18.101190, -11.626510, 4.808856) |e|*Ang

Cavity Surface Area: 118.89514011742132
Cavity Volume: not calculated (no calculator defined)

Solvation Energy Contributions:
surf:            +0.136544
el (free):     -2962.832976
el (extrpol.): -2962.611148
el (free) is composed of:
Energy contributions relative to reference atoms: (reference = -1638326.555401)

Kinetic:       +368.608261
Potential:     -424.046289
External:        +0.000000
XC:            -2911.759286
Entropy (-ST):   -0.443656
Local:           +4.807994
--------------------------
Free energy:   -2962.696433
Extrapolated:  -2962.474605

Dipole-layer corrected work functions: 4.931409, 2.901498 eV

----------------------------------------------------------
Grand Potential Energy (E_tot + E_solv - mu*ne):
Extrpol:    -2959.5357063356446
Free:    -2959.757534569016
-----------------------------------------------------------
Grand canonical energy will be written into results

Fermi level: -3.91645

Showing only first 2 kpts
 Kpt  Band  Eigenvalues  Occupancy
  0   230     -4.35272    0.32914
  0   231     -4.12555    0.29668
  0   232     -3.99457    0.22864
  0   233     -3.80790    0.08415

  1   230     -4.33478    0.32833
  1   231     -4.21135    0.31674
  1   232     -3.99785    0.23098
  1   233     -3.86011    0.12092


Changing to simultaneous potential and geometry equilibration

Slope of potential versus ne (unchanged): -3.55175876 V/e

Capacitance of -32786.7488 muF/cm2


Forces in eV/Ang:
  0 Cu    0.01292   -0.00444    0.07288
  1 Cu    0.02906   -0.00794    0.10732
  2 Cu   -0.00314   -0.01461    0.10525
  3 Cu    0.01066    0.00364    0.11273
  4 Cu    0.02502    0.00345    0.11672
  5 Cu    0.00508   -0.02039    0.10178
  6 Cu    0.01329   -0.01011    0.06803
  7 Cu    0.00233   -0.00259    0.10590
  8 Cu    0.02475    0.00251    0.11320
  9 Cu   -0.00978    0.00562    0.10124
 10 Cu    0.03784    0.00528    0.09501
 11 Cu    0.01184    0.02849    0.06862
 12 Cu    0.04891   -0.00962   -0.02900
 13 Cu   -0.01871    0.02057   -0.01132
 14 Cu   -0.03229   -0.05975   -0.09744
 15 Cu   -0.02764   -0.05172   -0.03863
 16 Cu    0.00838   -0.03057   -0.09901
 17 Cu    0.03246    0.02501   -0.11305
 18 Cu   -0.00542    0.04478   -0.07300
 19 Cu    0.01997    0.09146   -0.10636
 20 Cu    0.00512   -0.03739   -0.10649
 21 Cu   -0.02023    0.00948    0.01528
 22 Cu   -0.00838   -0.01005   -0.07327
 23 Cu    0.07224    0.03366   -0.01384
 24 Cu   -0.03678   -0.01401   -0.00312
 25 Cu    0.02087   -0.01030   -0.00187
 26 Cu    0.00140    0.00014   -0.00334
 27 Cu   -0.00951    0.01855   -0.01046
 28 Cu    0.00029   -0.00504    0.00115
 29 Cu   -0.00147    0.00154    0.00453
 30 Cu    0.01044   -0.00556    0.00231
 31 Cu   -0.00162    0.00518    0.00181
 32 Cu    0.00748    0.00973    0.00474
 33 Cu    0.00451    0.00224    0.00303
 34 Cu    0.00782    0.00280    0.00160
 35 Cu   -0.00818   -0.00354    0.01839
 36 C     0.00786    0.00223    0.06906
 37 O     0.02103   -0.01301    0.02565
 38 H    -0.00895   -0.00198   -0.03204
 39 H     0.00544   -0.00651   -0.02387
 40 O    -0.02389    0.00893    0.04023
 41 H    -0.00728   -0.01533   -0.02707
 42 H    -0.01000   -0.01090   -0.05094
 43 O     0.00750    0.01170    0.02646
 44 H     0.00689    0.00338   -0.01640
 45 H    -0.00166   -0.00025   -0.01170
 46 O     0.00198    0.00190    0.01601
 47 H     0.00762   -0.00075   -0.01398
 48 H    -0.00239    0.00749   -0.01048
 49 O     0.01764   -0.00490    0.08233
 50 H    -0.00663   -0.00212   -0.00796
 51 H    -0.01646    0.02565   -0.06568
 52 O     0.01887   -0.01286    0.03052
 53 H    -0.01284   -0.00920   -0.01883
 54 H    -0.00105   -0.00040   -0.05579
 55 O    -0.00915    0.00233    0.02402
 56 H     0.00469    0.00183   -0.00338
 57 H    -0.00423    0.00917   -0.01118
 58 O    -0.00234    0.00427    0.04862
 59 H    -0.00182   -0.01124   -0.01561
 60 H     0.00438    0.00018   -0.04595

System changes: positions 

Initializing position-dependent things.

Solvation position-dependent initialization:
  Atomic radii for <class 'gpaw.solvation.sjm.SJMPower12Potential'>:
      0 Cu    1.54000
      1 Cu    1.54000
      2 Cu    1.54000
      3 Cu    1.54000
      4 Cu    1.54000
      5 Cu    1.54000
      6 Cu    1.54000
      7 Cu    1.54000
      8 Cu    1.54000
      9 Cu    1.54000
     10 Cu    1.54000
     11 Cu    1.54000
     12 Cu    1.54000
     13 Cu    1.54000
     14 Cu    1.54000
     15 Cu    1.54000
     16 Cu    1.54000
     17 Cu    1.54000
     18 Cu    1.54000
     19 Cu    1.54000
     20 Cu    1.54000
     21 Cu    1.54000
     22 Cu    1.54000
     23 Cu    1.54000
     24 Cu    1.54000
     25 Cu    1.54000
     26 Cu    1.54000
     27 Cu    1.54000
     28 Cu    1.54000
     29 Cu    1.54000
     30 Cu    1.54000
     31 Cu    1.54000
     32 Cu    1.54000
     33 Cu    1.54000
     34 Cu    1.54000
     35 Cu    1.54000
     36 C     1.70000
     37 O     1.52000
     38 H     1.20000
     39 H     1.20000
     40 O     1.52000
     41 H     1.20000
     42 H     1.20000
     43 O     1.52000
     44 H     1.20000
     45 H     1.20000
     46 O     1.52000
     47 H     1.20000
     48 H     1.20000
     49 O     1.52000
     50 H     1.20000
     51 H     1.20000
     52 O     1.52000
     53 H     1.20000
     54 H     1.20000
     55 O     1.52000
     56 H     1.20000
     57 H     1.20000
     58 O     1.52000
     59 H     1.20000
     60 H     1.20000
Density initialized from wave functions
       .------------------.  
      /|                  |  
     / |                  |  
    /  |                  |  
   /   |                  |  
  /    |                  |  
 *     |                  |  
 |     |                  |  
 |     |                  |  
 |     |                  |  
 |     |                  |  
 |     |                  |  
 |     |              O   |  
 |     |    H            H|  
 |     |  OO  H    H      |  
 |     |  H       OHO     |  
 |     | H       H    H   |  
 |     OHO H     H        |  
 |     H  Cu   OCCu    Cu |  
 |     |       H          |  
 |    Cu   CCu    Cu    Cu|  
 |     Cu    Cu    CCu    |  
 |     |                  |  
 | Cu  |CCu   CCu   CCu   |  
 |  Cu | CCu    Cu    Cu  |  
 |     |                  |  
 |   Cu|   Cu    Cu       |  
 |    Cu     Cu    Cu     |  
 |     |                  |  
 |     |                  |  
 |     |                  |  
 |     .------------------.  
 |    /                  /   
 |   /                  /    
 |  /                  /     
 | /                  /      
 |/                  /       
 *------------------*        

Positions:
   0 Cu     4.466869    5.843970    7.000000    ( 0.0000,  0.0000,  0.0000)
   1 Cu     7.111448    5.843970    7.000000    ( 0.0000,  0.0000,  0.0000)
   2 Cu     1.822290    5.843970    7.000000    ( 0.0000,  0.0000,  0.0000)
   3 Cu     3.144579    8.134243    7.000000    ( 0.0000,  0.0000,  0.0000)
   4 Cu     5.789159    8.134243    7.000000    ( 0.0000,  0.0000,  0.0000)
   5 Cu     0.500000    8.134243    7.000000    ( 0.0000,  0.0000,  0.0000)
   6 Cu     4.466869    1.263424    7.000000    ( 0.0000,  0.0000,  0.0000)
   7 Cu     7.111448    1.263424    7.000000    ( 0.0000,  0.0000,  0.0000)
   8 Cu     1.822290    1.263424    7.000000    ( 0.0000,  0.0000,  0.0000)
   9 Cu     3.144579    3.553697    7.000000    ( 0.0000,  0.0000,  0.0000)
  10 Cu     5.789159    3.553697    7.000000    ( 0.0000,  0.0000,  0.0000)
  11 Cu     0.500000    3.553697    7.000000    ( 0.0000,  0.0000,  0.0000)
  12 Cu     3.144579    6.607394    9.159290    ( 0.0000,  0.0000,  0.0000)
  13 Cu     5.789159    6.607394    9.159290    ( 0.0000,  0.0000,  0.0000)
  14 Cu     0.500000    6.607394    9.159290    ( 0.0000,  0.0000,  0.0000)
  15 Cu     4.466869    8.897667    9.159290    ( 0.0000,  0.0000,  0.0000)
  16 Cu     7.111448    8.897667    9.159290    ( 0.0000,  0.0000,  0.0000)
  17 Cu     1.822290    8.897667    9.159290    ( 0.0000,  0.0000,  0.0000)
  18 Cu     3.144579    2.026849    9.159290    ( 0.0000,  0.0000,  0.0000)
  19 Cu     5.789159    2.026849    9.159290    ( 0.0000,  0.0000,  0.0000)
  20 Cu     0.500000    2.026849    9.159290    ( 0.0000,  0.0000,  0.0000)
  21 Cu     4.466869    4.317122    9.159290    ( 0.0000,  0.0000,  0.0000)
  22 Cu     7.111448    4.317122    9.159290    ( 0.0000,  0.0000,  0.0000)
  23 Cu     1.822290    4.317122    9.159290    ( 0.0000,  0.0000,  0.0000)
  24 Cu     3.099290    5.055468   11.382517    ( 0.0000,  0.0000,  0.0000)
  25 Cu     5.853395    5.028325   11.317806    ( 0.0000,  0.0000,  0.0000)
  26 Cu     0.502926    5.053641   11.289995    ( 0.0000,  0.0000,  0.0000)
  27 Cu     4.459757    7.438490   11.372062    ( 0.0000,  0.0000,  0.0000)
  28 Cu     7.112655    7.367398   11.296661    ( 0.0000,  0.0000,  0.0000)
  29 Cu     1.788400    7.374733   11.244030    ( 0.0000,  0.0000,  0.0000)
  30 Cu     3.134873    0.506117   11.292951    ( 0.0000,  0.0000,  0.0000)
  31 Cu     5.788123    0.519684   11.249895    ( 0.0000,  0.0000,  0.0000)
  32 Cu     0.494631    0.482279   11.299025    ( 0.0000,  0.0000,  0.0000)
  33 Cu     4.460513    2.770219   11.296654    ( 0.0000,  0.0000,  0.0000)
  34 Cu     7.119423    2.762985   11.294260    ( 0.0000,  0.0000,  0.0000)
  35 Cu     1.812539    2.771375   11.285313    ( 0.0000,  0.0000,  0.0000)
  36 C      4.516486    5.835274   12.410144    ( 0.0000,  0.0000,  0.0000)
  37 O      7.017297    2.629931   15.992111    ( 0.0000,  0.0000,  0.0000)
  38 H      7.930399    2.656051   15.642924    ( 0.0000,  0.0000,  0.0000)
  39 H      6.576838    3.411960   15.594669    ( 0.0000,  0.0000,  0.0000)
  40 O      5.738222    0.373636   14.974486    ( 0.0000,  0.0000,  0.0000)
  41 H      6.207534    1.187405   15.273913    ( 0.0000,  0.0000,  0.0000)
  42 H      5.760620    0.401821   14.000997    ( 0.0000,  0.0000,  0.0000)
  43 O      3.057591    0.334484   15.991542    ( 0.0000,  0.0000,  0.0000)
  44 H      3.965992    0.349048   15.628418    ( 0.0000,  0.0000,  0.0000)
  45 H      2.629143    1.126611   15.607645    ( 0.0000,  0.0000,  0.0000)
  46 O      7.002817    7.194967   16.040028    ( 0.0000,  0.0000,  0.0000)
  47 H      7.902795    7.205006   15.657563    ( 0.0000,  0.0000,  0.0000)
  48 H      6.570060    7.980839   15.649658    ( 0.0000,  0.0000,  0.0000)
  49 O      5.657778    4.914252   15.029166    ( 0.0000,  0.0000,  0.0000)
  50 H      6.133597    5.720209   15.321959    ( 0.0000,  0.0000,  0.0000)
  51 H      5.421895    5.090227   14.080522    ( 0.0000,  0.0000,  0.0000)
  52 O      1.739264    7.231690   14.991051    ( 0.0000,  0.0000,  0.0000)
  53 H      2.223439    8.041582   15.273477    ( 0.0000,  0.0000,  0.0000)
  54 H      1.806252    7.213388   14.020233    ( 0.0000,  0.0000,  0.0000)
  55 O      3.027349    4.909958   16.052739    ( 0.0000,  0.0000,  0.0000)
  56 H      3.946014    4.922745   15.706394    ( 0.0000,  0.0000,  0.0000)
  57 H      2.608472    5.701019   15.657698    ( 0.0000,  0.0000,  0.0000)
  58 O      1.759671    2.664316   14.971319    ( 0.0000,  0.0000,  0.0000)
  59 H      2.225031    3.479313   15.273269    ( 0.0000,  0.0000,  0.0000)
  60 H      1.755596    2.708157   13.997551    ( 0.0000,  0.0000,  0.0000)

Unit cell:
           periodic     x           y           z      points  spacing
  1. axis:    yes    7.933738    0.000000    0.000000    48     0.1653
  2. axis:    yes    0.000000    9.161092    0.000000    48     0.1909
  3. axis:    no     0.000000    0.000000   25.000000   136     0.1838

  Lengths:   7.933738   9.161092  25.000000
  Angles:   90.000000  90.000000  90.000000

Effective grid spacing dv^(1/3) = 0.1797

                     log10-error:    total        iterations:
           time      wfs    density  energy       fermi  poisson
iter:   1  20:33:22  -4.44         -2962.475380    3      12     
iter:   2  20:34:14  -5.03  -3.65  -2962.476230    2      8      
iter:   3  20:35:06  -5.64  -4.03  -2962.475841    2      5      
iter:   4  20:35:57  -5.60  -4.19  -2962.476063    2      5      
iter:   5  20:36:49  -5.36  -4.30  -2962.476756    2      9      
iter:   6  20:37:41  -5.99  -3.84  -2962.476115    2      4      
iter:   7  20:38:32  -6.04  -3.87  -2962.474497    2      6      
iter:   8  20:39:24  -5.75  -4.32  -2962.474463    2      5      
iter:   9  20:40:15  -6.39  -4.29  -2962.475402    2      4      
iter:  10  20:41:07  -6.39  -4.52  -2962.476028    2      4      
iter:  11  20:41:58  -7.08  -4.43  -2962.475264    2      4      
iter:  12  20:42:49  -7.12  -4.79  -2962.475460    2      2      
iter:  13  20:43:40  -7.18  -5.08  -2962.475592    2      2      
iter:  14  20:44:31  -7.37  -5.08  -2962.475290    2      2      
iter:  15  20:45:22  -7.83  -4.82  -2962.475571    2      2      

Converged after 15 iterations.

Dipole moment: (-18.097497, -11.617751, 4.802426) |e|*Ang

Cavity Surface Area: 118.8863862530075
Cavity Volume: not calculated (no calculator defined)

Solvation Energy Contributions:
surf:            +0.136534
el (free):     -2962.833929
el (extrpol.): -2962.612105
el (free) is composed of:
Energy contributions relative to reference atoms: (reference = -1638326.555401)

Kinetic:       +368.389080
Potential:     -423.883974
External:        +0.000000
XC:            -2911.686677
Entropy (-ST):   -0.443649
Local:           +4.791291
--------------------------
Free energy:   -2962.697396
Extrapolated:  -2962.475571

Dipole-layer corrected work functions: 4.930572, 2.908483 eV

----------------------------------------------------------
Grand Potential Energy (E_tot + E_solv - mu*ne):
Extrpol:    -2959.5295978259537
Free:    -2959.7514224991755
-----------------------------------------------------------
Grand canonical energy will be written into results

Fermi level: -3.91953

Showing only first 2 kpts
 Kpt  Band  Eigenvalues  Occupancy
  0   230     -4.35608    0.32915
  0   231     -4.12854    0.29665
  0   232     -3.99759    0.22861
  0   233     -3.81092    0.08412

  1   230     -4.33780    0.32832
  1   231     -4.21435    0.31673
  1   232     -4.00086    0.23094
  1   233     -3.86314    0.12088



Forces in eV/Ang:
  0 Cu    0.01292   -0.00446    0.07471
  1 Cu    0.02905   -0.00796    0.10900
  2 Cu   -0.00314   -0.01465    0.10693
  3 Cu    0.01073    0.00347    0.11452
  4 Cu    0.02500    0.00328    0.11852
  5 Cu    0.00504   -0.02043    0.10351
  6 Cu    0.01329   -0.01016    0.06976
  7 Cu    0.00231   -0.00262    0.10764
  8 Cu    0.02478    0.00250    0.11498
  9 Cu   -0.00974    0.00573    0.10310
 10 Cu    0.03783    0.00540    0.09685
 11 Cu    0.01181    0.02852    0.07028
 12 Cu    0.04853   -0.00952   -0.02784
 13 Cu   -0.01851    0.02063   -0.01001
 14 Cu   -0.03223   -0.05968   -0.09616
 15 Cu   -0.02754   -0.05144   -0.03745
 16 Cu    0.00855   -0.03049   -0.09714
 17 Cu    0.03235    0.02503   -0.11134
 18 Cu   -0.00557    0.04477   -0.07110
 19 Cu    0.01999    0.09136   -0.10480
 20 Cu    0.00527   -0.03733   -0.10465
 21 Cu   -0.02025    0.00943    0.01672
 22 Cu   -0.00818   -0.01005   -0.07215
 23 Cu    0.07201    0.03343   -0.01247
 24 Cu   -0.02498   -0.00861    0.00216
 25 Cu    0.01346   -0.00592    0.00372
 26 Cu    0.00108    0.00017   -0.00208
 27 Cu   -0.00831    0.00960   -0.00495
 28 Cu    0.00045   -0.00420    0.00204
 29 Cu   -0.00194    0.00184    0.00606
 30 Cu    0.00895   -0.00485    0.00337
 31 Cu   -0.00077    0.00508    0.00366
 32 Cu    0.00654    0.00881    0.00491
 33 Cu    0.00383    0.00183    0.00349
 34 Cu    0.00710    0.00220    0.00242
 35 Cu   -0.00696   -0.00374    0.01886
 36 C     0.00753   -0.00056    0.05774
 37 O     0.00948    0.00460    0.00896
 38 H    -0.00313   -0.00380   -0.03106
 39 H     0.01136   -0.02025   -0.01402
 40 O    -0.02942   -0.00347   -0.03234
 41 H     0.00139    0.00008   -0.01823
 42 H    -0.01277   -0.01382    0.00794
 43 O     0.01298    0.01428    0.01025
 44 H    -0.00093    0.00312   -0.01214
 45 H     0.00044   -0.00438   -0.00809
 46 O     0.00840    0.01299    0.00399
 47 H    -0.00155   -0.00127   -0.00889
 48 H     0.00172   -0.00071   -0.00525
 49 O    -0.01493   -0.00713   -0.01163
 50 H     0.00489    0.01481    0.00284
 51 H    -0.00091    0.01073    0.00963
 52 O     0.01464   -0.02527   -0.03574
 53 H    -0.00499    0.00313   -0.01230
 54 H    -0.00528   -0.00068   -0.00049
 55 O     0.00077    0.01336    0.00991
 56 H    -0.00652    0.00107    0.00256
 57 H    -0.00056    0.00072   -0.00596
 58 O    -0.01118   -0.00689   -0.02542
 59 H     0.00670    0.00420   -0.00685
 60 H     0.00412   -0.00390    0.01475

Density initialized from wave functions

------------
Jellium properties changed!
Current number of Excess Electrons: 1.01528
Jellium size parameters:
  Lower boundary: 19.077102384657554
  Upper boundary: 22.077102384657554
------------

System changes: positions 

Initializing position-dependent things.

Solvation position-dependent initialization:
  Atomic radii for <class 'gpaw.solvation.sjm.SJMPower12Potential'>:
      0 Cu    1.54000
      1 Cu    1.54000
      2 Cu    1.54000
      3 Cu    1.54000
      4 Cu    1.54000
      5 Cu    1.54000
      6 Cu    1.54000
      7 Cu    1.54000
      8 Cu    1.54000
      9 Cu    1.54000
     10 Cu    1.54000
     11 Cu    1.54000
     12 Cu    1.54000
     13 Cu    1.54000
     14 Cu    1.54000
     15 Cu    1.54000
     16 Cu    1.54000
     17 Cu    1.54000
     18 Cu    1.54000
     19 Cu    1.54000
     20 Cu    1.54000
     21 Cu    1.54000
     22 Cu    1.54000
     23 Cu    1.54000
     24 Cu    1.54000
     25 Cu    1.54000
     26 Cu    1.54000
     27 Cu    1.54000
     28 Cu    1.54000
     29 Cu    1.54000
     30 Cu    1.54000
     31 Cu    1.54000
     32 Cu    1.54000
     33 Cu    1.54000
     34 Cu    1.54000
     35 Cu    1.54000
     36 C     1.70000
     37 O     1.52000
     38 H     1.20000
     39 H     1.20000
     40 O     1.52000
     41 H     1.20000
     42 H     1.20000
     43 O     1.52000
     44 H     1.20000
     45 H     1.20000
     46 O     1.52000
     47 H     1.20000
     48 H     1.20000
     49 O     1.52000
     50 H     1.20000
     51 H     1.20000
     52 O     1.52000
     53 H     1.20000
     54 H     1.20000
     55 O     1.52000
     56 H     1.20000
     57 H     1.20000
     58 O     1.52000
     59 H     1.20000
     60 H     1.20000
Density initialized from wave functions
       .------------------.  
      /|                  |  
     / |                  |  
    /  |                  |  
   /   |                  |  
  /    |                  |  
 *     |                  |  
 |     |                  |  
 |     |                  |  
 |     |                  |  
 |     |                  |  
 |     |                  |  
 |     |              O   |  
 |     |    H            H|  
 |     |  OO  H    H      |  
 |     |  H       OHO     |  
 |     | H       H    H   |  
 |     OHO H     H        |  
 |     H  Cu   OCCu    Cu |  
 |     |       H          |  
 |    Cu   CCu    Cu    Cu|  
 |     Cu    Cu    CCu    |  
 |     |                  |  
 | Cu  |CCu   CCu   CCu   |  
 |  Cu | CCu    Cu    Cu  |  
 |     |                  |  
 |   Cu|   Cu    Cu       |  
 |    Cu     Cu    Cu     |  
 |     |                  |  
 |     |                  |  
 |     |                  |  
 |     .------------------.  
 |    /                  /   
 |   /                  /    
 |  /                  /     
 | /                  /      
 |/                  /       
 *------------------*        

Positions:
   0 Cu     4.466869    5.843970    7.000000    ( 0.0000,  0.0000,  0.0000)
   1 Cu     7.111448    5.843970    7.000000    ( 0.0000,  0.0000,  0.0000)
   2 Cu     1.822290    5.843970    7.000000    ( 0.0000,  0.0000,  0.0000)
   3 Cu     3.144579    8.134243    7.000000    ( 0.0000,  0.0000,  0.0000)
   4 Cu     5.789159    8.134243    7.000000    ( 0.0000,  0.0000,  0.0000)
   5 Cu     0.500000    8.134243    7.000000    ( 0.0000,  0.0000,  0.0000)
   6 Cu     4.466869    1.263424    7.000000    ( 0.0000,  0.0000,  0.0000)
   7 Cu     7.111448    1.263424    7.000000    ( 0.0000,  0.0000,  0.0000)
   8 Cu     1.822290    1.263424    7.000000    ( 0.0000,  0.0000,  0.0000)
   9 Cu     3.144579    3.553697    7.000000    ( 0.0000,  0.0000,  0.0000)
  10 Cu     5.789159    3.553697    7.000000    ( 0.0000,  0.0000,  0.0000)
  11 Cu     0.500000    3.553697    7.000000    ( 0.0000,  0.0000,  0.0000)
  12 Cu     3.144579    6.607394    9.159290    ( 0.0000,  0.0000,  0.0000)
  13 Cu     5.789159    6.607394    9.159290    ( 0.0000,  0.0000,  0.0000)
  14 Cu     0.500000    6.607394    9.159290    ( 0.0000,  0.0000,  0.0000)
  15 Cu     4.466869    8.897667    9.159290    ( 0.0000,  0.0000,  0.0000)
  16 Cu     7.111448    8.897667    9.159290    ( 0.0000,  0.0000,  0.0000)
  17 Cu     1.822290    8.897667    9.159290    ( 0.0000,  0.0000,  0.0000)
  18 Cu     3.144579    2.026849    9.159290    ( 0.0000,  0.0000,  0.0000)
  19 Cu     5.789159    2.026849    9.159290    ( 0.0000,  0.0000,  0.0000)
  20 Cu     0.500000    2.026849    9.159290    ( 0.0000,  0.0000,  0.0000)
  21 Cu     4.466869    4.317122    9.159290    ( 0.0000,  0.0000,  0.0000)
  22 Cu     7.111448    4.317122    9.159290    ( 0.0000,  0.0000,  0.0000)
  23 Cu     1.822290    4.317122    9.159290    ( 0.0000,  0.0000,  0.0000)
  24 Cu     3.098628    5.055231   11.382532    ( 0.0000,  0.0000,  0.0000)
  25 Cu     5.853759    5.028157   11.317855    ( 0.0000,  0.0000,  0.0000)
  26 Cu     0.502953    5.053645   11.289938    ( 0.0000,  0.0000,  0.0000)
  27 Cu     4.459555    7.438774   11.371909    ( 0.0000,  0.0000,  0.0000)
  28 Cu     7.112664    7.367295   11.296702    ( 0.0000,  0.0000,  0.0000)
  29 Cu     1.788358    7.374773   11.244161    ( 0.0000,  0.0000,  0.0000)
  30 Cu     3.135092    0.505999   11.293023    ( 0.0000,  0.0000,  0.0000)
  31 Cu     5.788099    0.519803   11.249968    ( 0.0000,  0.0000,  0.0000)
  32 Cu     0.494790    0.482491   11.299139    ( 0.0000,  0.0000,  0.0000)
  33 Cu     4.460607    2.770264   11.296732    ( 0.0000,  0.0000,  0.0000)
  34 Cu     7.119593    2.763041   11.294311    ( 0.0000,  0.0000,  0.0000)
  35 Cu     1.812369    2.771289   11.285750    ( 0.0000,  0.0000,  0.0000)
  36 C      4.516664    5.835279   12.411567    ( 0.0000,  0.0000,  0.0000)
  37 O      7.017596    2.629920   15.992432    ( 0.0000,  0.0000,  0.0000)
  38 H      7.930287    2.655974   15.642193    ( 0.0000,  0.0000,  0.0000)
  39 H      6.577063    3.411580   15.594276    ( 0.0000,  0.0000,  0.0000)
  40 O      5.737572    0.373639   14.974219    ( 0.0000,  0.0000,  0.0000)
  41 H      6.207508    1.187304   15.273428    ( 0.0000,  0.0000,  0.0000)
  42 H      5.760340    0.401519   14.000787    ( 0.0000,  0.0000,  0.0000)
  43 O      3.057857    0.334799   15.991890    ( 0.0000,  0.0000,  0.0000)
  44 H      3.966022    0.349123   15.628106    ( 0.0000,  0.0000,  0.0000)
  45 H      2.629139    1.126536   15.607432    ( 0.0000,  0.0000,  0.0000)
  46 O      7.002970    7.195195   16.040202    ( 0.0000,  0.0000,  0.0000)
  47 H      7.902820    7.204980   15.657321    ( 0.0000,  0.0000,  0.0000)
  48 H      6.570072    7.980878   15.649500    ( 0.0000,  0.0000,  0.0000)
  49 O      5.657648    4.914101   15.029526    ( 0.0000,  0.0000,  0.0000)
  50 H      6.133633    5.720441   15.321953    ( 0.0000,  0.0000,  0.0000)
  51 H      5.421769    5.090577   14.080241    ( 0.0000,  0.0000,  0.0000)
  52 O      1.739634    7.231184   14.990662    ( 0.0000,  0.0000,  0.0000)
  53 H      2.223270    8.041572   15.273146    ( 0.0000,  0.0000,  0.0000)
  54 H      1.806157    7.213374   14.019850    ( 0.0000,  0.0000,  0.0000)
  55 O      3.027300    4.910195   16.053064    ( 0.0000,  0.0000,  0.0000)
  56 H      3.945937    4.922776   15.706414    ( 0.0000,  0.0000,  0.0000)
  57 H      2.608434    5.701092   15.657524    ( 0.0000,  0.0000,  0.0000)
  58 O      1.759470    2.664230   14.971224    ( 0.0000,  0.0000,  0.0000)
  59 H      2.225130    3.479308   15.273050    ( 0.0000,  0.0000,  0.0000)
  60 H      1.755693    2.708093   13.997487    ( 0.0000,  0.0000,  0.0000)

Unit cell:
           periodic     x           y           z      points  spacing
  1. axis:    yes    7.933738    0.000000    0.000000    48     0.1653
  2. axis:    yes    0.000000    9.161092    0.000000    48     0.1909
  3. axis:    no     0.000000    0.000000   25.000000   136     0.1838

  Lengths:   7.933738   9.161092  25.000000
  Angles:   90.000000  90.000000  90.000000

Effective grid spacing dv^(1/3) = 0.1797

                     log10-error:    total        iterations:
           time      wfs    density  energy       fermi  poisson
iter:   1  20:54:53  -4.42         -2962.485835    2      10     
iter:   2  20:55:47  -4.52  -3.32  -2962.484154    3      14     
iter:   3  20:56:39  -5.72  -3.68  -2962.482030    2      7      
iter:   4  20:57:30  -5.83  -4.33  -2962.482085    2      4      
iter:   5  20:58:22  -5.97  -4.26  -2962.482773    2      5      
iter:   6  20:59:13  -6.11  -4.19  -2962.483238    2      4      
iter:   7  21:00:05  -6.20  -4.13  -2962.482408    2      5      
iter:   8  21:00:56  -6.50  -4.83  -2962.482078    1      3      
iter:   9  21:01:47  -6.86  -4.61  -2962.482196    2      3      
iter:  10  21:02:38  -7.50  -4.92  -2962.482482    2      2      

Converged after 10 iterations.

Dipole moment: (-18.089961, -11.606479, 4.815849) |e|*Ang

Cavity Surface Area: 118.89738233730127
Cavity Volume: not calculated (no calculator defined)

Solvation Energy Contributions:
surf:            +0.136546
el (free):     -2962.840815
el (extrpol.): -2962.619028
el (free) is composed of:
Energy contributions relative to reference atoms: (reference = -1638326.555401)

Kinetic:       +368.337488
Potential:     -423.849886
External:        +0.000000
XC:            -2911.679295
Entropy (-ST):   -0.443573
Local:           +4.794452
--------------------------
Free energy:   -2962.704269
Extrapolated:  -2962.482482

Dipole-layer corrected work functions: 4.931458, 2.902048 eV

----------------------------------------------------------
Grand Potential Energy (E_tot + E_solv - mu*ne):
Extrpol:    -2959.536095382275
Free:    -2959.7578820673643
-----------------------------------------------------------
Grand canonical energy will be written into results

Fermi level: -3.91675

Showing only first 2 kpts
 Kpt  Band  Eigenvalues  Occupancy
  0   230     -4.35365    0.32916
  0   231     -4.12582    0.29666
  0   232     -3.99498    0.22873
  0   233     -3.80830    0.08422

  1   230     -4.33507    0.32833
  1   231     -4.21175    0.31675
  1   232     -3.99830    0.23109
  1   233     -3.86064    0.12109


Slope of potential versus ne: -2.69411791 V/e

Capacitance of -43224.0260 muF/cm2


Forces in eV/Ang:
  0 Cu    0.01298   -0.00436    0.07312
  1 Cu    0.02902   -0.00804    0.10749
  2 Cu   -0.00316   -0.01459    0.10542
  3 Cu    0.01075    0.00342    0.11279
  4 Cu    0.02497    0.00330    0.11680
  5 Cu    0.00507   -0.02052    0.10207
  6 Cu    0.01333   -0.01020    0.06830
  7 Cu    0.00219   -0.00255    0.10623
  8 Cu    0.02486    0.00254    0.11367
  9 Cu   -0.00977    0.00572    0.10154
 10 Cu    0.03794    0.00547    0.09515
 11 Cu    0.01173    0.02855    0.06896
 12 Cu    0.04880   -0.00989   -0.02734
 13 Cu   -0.01894    0.02023   -0.00930
 14 Cu   -0.03213   -0.05961   -0.09695
 15 Cu   -0.02750   -0.05145   -0.03890
 16 Cu    0.00875   -0.03047   -0.09764
 17 Cu    0.03235    0.02509   -0.11201
 18 Cu   -0.00590    0.04494   -0.07130
 19 Cu    0.02010    0.09149   -0.10561
 20 Cu    0.00555   -0.03722   -0.10554
 21 Cu   -0.02030    0.01011    0.01774
 22 Cu   -0.00799   -0.01023   -0.07347
 23 Cu    0.07183    0.03297   -0.01336
 24 Cu   -0.00819   -0.00126    0.00532
 25 Cu    0.00248    0.00021    0.00691
 26 Cu    0.00065    0.00044   -0.00370
 27 Cu   -0.00667   -0.00373   -0.00126
 28 Cu   -0.00116   -0.00377    0.00003
 29 Cu   -0.00091    0.00139    0.00339
 30 Cu    0.00727   -0.00387    0.00067
 31 Cu   -0.00004    0.00462    0.00061
 32 Cu    0.00501    0.00697    0.00155
 33 Cu    0.00277    0.00368    0.00120
 34 Cu    0.00569    0.00169   -0.00037
 35 Cu   -0.00480   -0.00351    0.01347
 36 C     0.00577   -0.00291    0.03438
 37 O     0.00883    0.00526    0.00263
 38 H    -0.00030   -0.00592   -0.02930
 39 H     0.00891   -0.01995   -0.01193
 40 O    -0.02095    0.00221   -0.02419
 41 H    -0.00235   -0.00546   -0.01868
 42 H    -0.01389   -0.01459    0.00324
 43 O     0.01031    0.00909    0.00367
 44 H    -0.00078    0.00308   -0.01206
 45 H     0.00070   -0.00466   -0.00707
 46 O     0.00982    0.01472    0.00320
 47 H    -0.00286   -0.00147   -0.00809
 48 H     0.00220   -0.00189   -0.00441
 49 O    -0.01191    0.00891   -0.02902
 50 H    -0.00102    0.00331    0.00142
 51 H     0.00158    0.00580    0.02845
 52 O     0.01741   -0.01265   -0.02722
 53 H    -0.00807   -0.00368   -0.01399
 54 H    -0.00488   -0.00170   -0.00460
 55 O     0.00241    0.01429    0.00727
 56 H    -0.00835    0.00090    0.00376
 57 H     0.00003   -0.00099   -0.00517
 58 O    -0.00623    0.00072   -0.01911
 59 H     0.00287   -0.00171   -0.00734
 60 H     0.00366   -0.00477    0.01112

