#V_RHE  I(mA/cm2)   Hydrogen    Ethanol Acetate Acetaldehyde    n-propanol  Ethylene 
-0.23  -0.21   0.0     15.38   23.76     59.32   0.0    0.39   
-0.28  -0.50   10.67   41.17   35.72     7.40    0.0    0.32 
-0.33  -0.78   18.07   60.37   21.00     0       0.65   1.78 
-0.38  -1.35   37.94   40.57   10.94     0       0.32   4.23 
-0.43  -1.87   49.75   28.03   5.95      0       0.43   9.33
