#I(mA/cm2)   n-propanol  Propionaldehyde Ethanol Acetaldehyde    Acetate Ethylene    Hydrogen
 0.01  0.0  3.6  2.5  0.2  0.0  0.4  2.3
 0.06  0.0  4.3  1.2  0.3  0.1  3.1  4.8
 0.18  1.9  1.4  2.5  0.4  0.4  2.5  4.3
