#I(mA/cm2)   Hydrogen    Methane Ethylene Acetate Ethanol n-propanol
0.012   5.725    0.0    0.406   0.0     0.0     0.0 
0.016   3.240    0.0    4.153   0.115   0.0     0.0
0.035   10.091   0.0    3.351   0.808   2.145   4.324 
0.035   6.469    0.0    3.917   0.493   3.394   2.267
0.078   6.697    0.0    7.762   0.3     0.7     1.04
0.106   2.507    0.0    4.411   0.230   1.955   0.808
0.427   2.850    0.242  2.575   0.808   1.628   0.0
0.791   2.434    1.474  2.154   0.873   0.953   0.0
0.688   0.458    1.322  0.32    0.228   0.378   0.0













 
