0.091912  4.85043517
0.183824  4.85042759
0.275735  4.85043669
0.367647  4.85043812
0.459559  4.85043852
0.551471  4.85043880
0.643382  4.85043894
0.735294  4.85043890
0.827206  4.85043857
0.919118  4.85043790
1.011029  4.85043669
1.102941  4.85043485
1.194853  4.85043210
1.286765  4.85042824
1.378676  4.85042288
1.470588  4.85041567
1.562500  4.85040599
1.654412  4.85039327
1.746324  4.85037658
1.838235  4.85035493
1.930147  4.85032690
2.022059  4.85029089
2.113971  4.85024466
2.205882  4.85018564
2.297794  4.85011030
2.389706  4.85001449
2.481618  4.84989272
2.573529  4.84973831
2.665441  4.84954261
2.757353  4.84929500
2.849265  4.84898188
2.941176  4.84858642
3.033088  4.84808727
3.125000  4.84745798
3.216912  4.84666520
3.308824  4.84566761
3.400735  4.84441353
3.492647  4.84283902
3.584559  4.84086464
3.676471  4.83839243
3.768382  4.83530132
3.860294  4.83144238
3.952206  4.82663217
4.044118  4.82064526
4.136029  4.81320431
4.227941  4.80396835
4.319853  4.79251775
4.411765  4.77833583
4.503676  4.76078568
4.595588  4.73908080
4.687500  4.71224859
4.779412  4.67908249
4.871324  4.63808220
4.963235  4.58737346
5.055147  4.52460533
5.147059  4.44681247
5.238971  4.35023499
5.330882  4.23008539
5.422794  4.08024518
5.514706  3.89287957
5.606618  3.65805685
5.698529  3.36318018
5.790441  2.99231946
5.882353  2.52519283
5.974265  1.93505291
6.066176  1.18670549
6.158088  0.23308326
6.250000  -0.98548553
6.341912  -2.53223026
6.433824  -4.45633097
6.525735  -6.75991699
6.617647  -9.35479474
6.709559  -12.02998380
6.801471  -14.45030495
6.893382  -16.21480088
6.985294  -16.97580541
7.077206  -16.56847542
7.169118  -15.07956618
7.261029  -12.81233033
7.352941  -10.16999473
7.444853  -7.52615304
7.536765  -5.14521944
7.628676  -3.16577111
7.720588  -1.62550381
7.812500  -0.50439329
7.904412  0.23947452
7.996324  0.64701312
8.088235  0.74450773
8.180147  0.54039359
8.272059  0.02576908
8.363971  -0.82586124
8.455882  -2.05477817
8.547794  -3.69960873
8.639706  -5.77189060
8.731618  -8.21879297
8.823529  -10.88088094
8.915441  -13.47270924
9.007353  -15.61053344
9.099265  -16.90273009
9.191176  -17.08131910
9.283088  -16.10734479
9.375000  -14.18706036
9.466912  -11.68898902
9.558824  -9.01353167
9.650735  -6.48360129
9.742647  -4.29805074
9.834559  -2.54125506
9.926471  -1.21810027
10.018382  -0.29585331
10.110294  0.26470103
10.202206  0.49339811
10.294118  0.40253236
10.386029  -0.01521654
10.477941  -0.78497028
10.569853  -1.94410899
10.661765  -3.53021484
10.753676  -5.55417888
10.845588  -7.96222153
10.937500  -10.59879088
11.029412  -13.18475497
11.121324  -15.34286880
11.213235  -16.68554959
11.305147  -16.94031510
11.397059  -16.05447599
11.488971  -14.21653349
11.580882  -11.78034319
11.672794  -9.13861133
11.764706  -6.61500679
11.856618  -4.41246219
11.948529  -2.61659829
12.040441  -1.23162784
12.132353  -0.21744752
12.224265  0.48381915
12.316176  0.93957908
12.408088  1.23966512
12.500000  1.49661711
12.591912  1.79958261
12.683824  2.15788248
12.775735  2.51085298
12.867647  2.79197246
12.959559  2.96723948
13.051471  3.02930063
13.143382  2.98066247
13.235294  2.82555347
13.327206  2.57145991
13.419118  2.23972009
13.511029  1.88263965
13.602941  1.58303820
13.694853  1.40767345
13.786765  1.35757325
13.878676  1.38573535
13.970588  1.44303340
14.062500  1.50282058
14.154412  1.55116912
14.246324  1.52885376
14.338235  1.34860566
14.430147  0.96959118
14.522059  0.41797133
14.613971  -0.24268850
14.705882  -0.92250555
14.797794  -1.51981858
14.889706  -1.96347993
14.981618  -2.22154426
15.073529  -2.29189227
15.165441  -2.21756940
15.257353  -2.07993365
15.349265  -1.94650374
15.441176  -1.85239782
15.533088  -1.82844550
15.625000  -1.89941457
15.716912  -2.07785553
15.808824  -2.35354147
15.900735  -2.68079494
15.992647  -2.97136482
16.084559  -3.09799909
16.176471  -2.91928884
16.268382  -2.32648899
16.360294  -1.34838050
16.452206  -0.19045398
16.544118  0.89494255
16.636029  1.75657510
16.727941  2.37043204
16.819853  2.77903621
16.911765  3.03577531
17.003676  3.18582236
17.095588  3.26356219
17.187500  3.29348879
17.279412  3.29339235
17.371324  3.27625129
17.463235  3.25161060
17.555147  3.22647107
17.647059  3.20507208
17.738971  3.18922369
17.830882  3.18014061
17.922794  3.17563878
18.014706  3.17220370
18.106618  3.16907274
18.198529  3.16605067
18.290441  3.16307544
18.382353  3.16012192
18.474265  3.15717855
18.566176  3.15423966
18.658088  3.15130244
18.750000  3.14836554
18.841912  3.14542833
18.933824  3.14249050
19.025735  3.13955213
19.117647  3.13662087
19.209559  3.13377090
19.301471  3.13100988
19.393382  3.12833798
19.485294  3.12575521
19.577206  3.12326161
19.669118  3.12085722
19.761029  3.11854207
19.852941  3.11631620
19.944853  3.11417962
20.036765  3.11213236
20.128676  3.11017443
20.220588  3.10830584
20.312500  3.10652660
20.404412  3.10483672
20.496324  3.10323620
20.588235  3.10172505
20.680147  3.10030327
20.772059  3.09897086
20.863971  3.09772782
20.955882  3.09657416
21.047794  3.09550987
21.139706  3.09453497
21.231618  3.09364944
21.323529  3.09285329
21.415441  3.09214651
21.507353  3.09152912
21.599265  3.09100111
21.691176  3.09056248
21.783088  3.09021322
21.875000  3.08995336
21.966912  3.08978294
22.058824  3.08970185
22.150735  3.08970247
22.242647  3.08971075
22.334559  3.08971909
22.426471  3.08972736
22.518382  3.08973561
22.610294  3.08974387
22.702206  3.08975212
22.794118  3.08976037
22.886029  3.08976862
22.977941  3.08977686
23.069853  3.08978510
23.161765  3.08979334
23.253676  3.08980158
23.345588  3.08980982
23.437500  3.08981805
23.529412  3.08982629
23.621324  3.08983452
23.713235  3.08984275
23.805147  3.08985098
23.897059  3.08985921
23.988971  3.08986743
24.080882  3.08987566
24.172794  3.08988388
24.264706  3.08989211
24.356618  3.08990033
24.448529  3.08990855
24.540441  3.08991677
24.632353  3.08992499
24.724265  3.08993323
24.816176  3.08994156
24.908088  3.08994968
