0.091912  4.65753820
0.183824  4.65753001
0.275735  4.65753932
0.367647  4.65754043
0.459559  4.65754053
0.551471  4.65754059
0.643382  4.65754060
0.735294  4.65754051
0.827206  4.65754031
0.919118  4.65753994
1.011029  4.65753932
1.102941  4.65753837
1.194853  4.65753699
1.286765  4.65753503
1.378676  4.65753231
1.470588  4.65752859
1.562500  4.65752362
1.654412  4.65751701
1.746324  4.65750833
1.838235  4.65749700
1.930147  4.65748233
2.022059  4.65746341
2.113971  4.65743915
2.205882  4.65740813
2.297794  4.65736861
2.389706  4.65731838
2.481618  4.65725469
2.573529  4.65717409
2.665441  4.65707226
2.757353  4.65694377
2.849265  4.65678186
2.941176  4.65657805
3.033088  4.65632175
3.125000  4.65599974
3.216912  4.65559551
3.308824  4.65508851
3.400735  4.65445314
3.492647  4.65365765
3.584559  4.65266259
3.676471  4.65141918
3.768382  4.64986711
3.860294  4.64793203
3.952206  4.64552237
4.044118  4.64252558
4.136029  4.63880343
4.227941  4.63418638
4.319853  4.62846647
4.411765  4.62138881
4.503676  4.61264081
4.595588  4.60183892
4.687500  4.58851215
4.779412  4.57208116
4.871324  4.55183221
4.963235  4.52688328
5.055147  4.49614143
5.147059  4.45824594
5.238971  4.41149555
5.330882  4.35374999
5.422794  4.28230245
5.514706  4.19370529
5.606618  4.08355988
5.698529  3.94621315
5.790441  3.77439118
5.882353  3.55870626
5.974265  3.28658318
6.066176  2.94137552
6.158088  2.50154962
6.250000  1.94125059
6.341912  1.23575709
6.433824  0.37058601
6.525735  -0.64554665
6.617647  -1.76639231
6.709559  -2.90307249
6.801471  -3.93625547
6.893382  -4.75076770
6.985294  -5.28250145
7.077206  -5.55009599
7.169118  -5.65055813
7.261029  -5.71555796
7.352941  -5.85006602
7.444853  -6.08641598
7.536765  -6.37506456
7.628676  -6.61728612
7.720588  -6.72335022
7.812500  -6.66611172
7.904412  -6.50007994
7.996324  -6.33280834
8.088235  -6.26748520
8.180147  -6.34903957
8.272059  -6.54100484
8.363971  -6.74582502
8.455882  -6.85739362
8.547794  -6.81971155
8.639706  -6.65886693
8.731618  -6.46774128
8.823529  -6.35465717
8.915441  -6.38483253
9.007353  -6.54543529
9.099265  -6.75280958
9.191176  -6.89686432
9.283088  -6.90137578
9.375000  -6.76682759
9.466912  -6.56941088
9.558824  -6.41883836
9.650735  -6.39842163
9.742647  -6.52010847
9.834559  -6.71844283
9.926471  -6.88491361
10.018382  -6.92697587
10.110294  -6.81949746
10.202206  -6.61809428
10.294118  -6.42831680
10.386029  -6.34732107
10.477941  -6.41105652
10.569853  -6.57521461
10.661765  -6.73794315
10.753676  -6.79498207
10.845588  -6.69756837
10.937500  -6.48077189
11.029412  -6.24771882
11.121324  -6.11689793
11.213235  -6.16319070
11.305147  -6.38298924
11.397059  -6.69692014
11.488971  -6.99039728
11.580882  -7.17224298
11.672794  -7.22019938
11.764706  -7.18812987
11.856618  -7.16865531
11.948529  -7.23434692
12.040441  -7.39436071
12.132353  -7.59086848
12.224265  -7.73536386
12.316176  -7.76191312
12.408088  -7.66231184
12.500000  -7.47877991
12.591912  -7.26088533
12.683824  -7.01741386
12.775735  -6.69662530
12.867647  -6.21112228
12.959559  -5.49047004
13.051471  -4.52554153
13.143382  -3.37977838
13.235294  -2.16349537
13.327206  -0.99088367
13.419118  0.05239377
13.511029  0.92183771
13.602941  1.60981720
13.694853  2.13161662
13.786765  2.51277770
13.878676  2.77995150
13.970588  2.95533808
14.062500  3.05601158
14.154412  3.09457140
14.246324  3.07987885
14.338235  3.01790798
14.430147  2.91190692
14.522059  2.76236188
14.613971  2.56693992
14.705882  2.32311469
14.797794  2.04233852
14.889706  1.77947539
14.981618  1.63201112
15.073529  1.65017050
15.165441  1.75460396
15.257353  1.80124042
15.349265  1.68576865
15.441176  1.34694943
15.533088  0.73556859
15.625000  -0.17908849
15.716912  -1.35290779
15.808824  -2.59754088
15.900735  -3.59442249
15.992647  -4.06552853
16.084559  -3.97791961
16.176471  -3.53895679
16.268382  -3.01028429
16.360294  -2.59215416
16.452206  -2.41974979
16.544118  -2.53393729
16.636029  -2.83077744
16.727941  -3.13159228
16.819853  -3.30168872
16.911765  -3.29135592
17.003676  -3.08762120
17.095588  -2.65655625
17.187500  -1.96456935
17.279412  -1.04797309
17.371324  -0.04622526
17.463235  0.86743600
17.555147  1.58595671
17.647059  2.09544596
17.738971  2.43153453
17.830882  2.63936237
17.922794  2.75779463
18.014706  2.81622465
18.106618  2.83594443
18.198529  2.83266876
18.290441  2.81776465
18.382353  2.79804139
18.474265  2.77792732
18.566176  2.76108151
18.658088  2.74838611
18.750000  2.74062452
18.841912  2.73630704
18.933824  2.73301231
19.025735  2.72998272
19.117647  2.72704273
19.209559  2.72413941
19.301471  2.72125218
19.393382  2.71837177
19.485294  2.71549380
19.577206  2.71261619
19.669118  2.70973799
19.761029  2.70685886
19.852941  2.70397870
19.944853  2.70109757
20.036765  2.69821552
20.128676  2.69533279
20.220588  2.69245719
20.312500  2.68966366
20.404412  2.68695997
20.496324  2.68434630
20.588235  2.68182265
20.680147  2.67938907
20.772059  2.67704559
20.863971  2.67479225
20.955882  2.67262907
21.047794  2.67055608
21.139706  2.66857329
21.231618  2.66668071
21.323529  2.66487837
21.415441  2.66316627
21.507353  2.66154441
21.599265  2.66001280
21.691176  2.65857146
21.783088  2.65722037
21.875000  2.65595955
21.966912  2.65478900
22.058824  2.65370871
22.150735  2.65271870
22.242647  2.65181897
22.334559  2.65100951
22.426471  2.65029033
22.518382  2.64966142
22.610294  2.64912280
22.702206  2.64867445
22.794118  2.64831638
22.886029  2.64804860
22.977941  2.64787116
23.069853  2.64778395
23.161765  2.64777928
23.253676  2.64778236
23.345588  2.64778548
23.437500  2.64778854
23.529412  2.64779159
23.621324  2.64779464
23.713235  2.64779768
23.805147  2.64780073
23.897059  2.64780378
23.988971  2.64780682
24.080882  2.64780987
24.172794  2.64781292
24.264706  2.64781596
24.356618  2.64781901
24.448529  2.64782206
24.540441  2.64782510
24.632353  2.64782815
24.724265  2.64783120
24.816176  2.64783437
24.908088  2.64783731
