0.091912  4.88132962
0.183824  4.88132116
0.275735  4.88133151
0.367647  4.88133302
0.459559  4.88133342
0.551471  4.88133370
0.643382  4.88133385
0.735294  4.88133378
0.827206  4.88133345
0.919118  4.88133273
1.011029  4.88133151
1.102941  4.88132958
1.194853  4.88132680
1.286765  4.88132283
1.378676  4.88131741
1.470588  4.88131005
1.562500  4.88130027
1.654412  4.88128736
1.746324  4.88127051
1.838235  4.88124861
1.930147  4.88122036
2.022059  4.88118401
2.113971  4.88113749
2.205882  4.88107801
2.297794  4.88100228
2.389706  4.88090590
2.481618  4.88078359
2.573529  4.88062844
2.665441  4.88043203
2.757353  4.88018349
2.849265  4.87986944
2.941176  4.87947281
3.033088  4.87897250
3.125000  4.87834177
3.216912  4.87754754
3.308824  4.87654821
3.400735  4.87529238
3.492647  4.87371584
3.584559  4.87173943
3.676471  4.86926495
3.768382  4.86617164
3.860294  4.86231034
3.952206  4.85749792
4.044118  4.85150876
4.136029  4.84406587
4.227941  4.83482810
4.319853  4.82337618
4.411765  4.80919330
4.503676  4.79164292
4.595588  4.76993842
4.687500  4.74310756
4.779412  4.70994369
4.871324  4.66894683
4.963235  4.61824268
5.055147  4.55548053
5.147059  4.47769502
5.238971  4.38112635
5.330882  4.26098695
5.422794  4.11115806
5.514706  3.92380431
5.606618  3.68899288
5.698529  3.39412588
5.790441  3.02327173
5.882353  2.55614807
5.974265  1.96600663
6.066176  1.21765378
6.158088  0.26402165
6.250000  -0.95456086
6.341912  -2.50132599
6.433824  -4.42545759
6.525735  -6.72909130
6.617647  -9.32403699
6.709559  -11.99931657
6.801471  -14.41974701
6.893382  -16.18436904
6.985294  -16.94550948
7.077206  -16.53831794
7.169118  -15.04953564
7.261029  -12.78240441
7.352941  -10.14014200
7.444853  -7.49634190
7.536765  -5.11541878
7.628676  -3.13595135
7.720588  -1.59563587
7.812500  -0.47444995
7.904412  0.26951391
7.996324  0.67715656
8.088235  0.77474419
8.180147  0.57068553
8.272059  0.05604558
8.363971  -0.79570655
8.455882  -2.02488397
8.547794  -3.67013296
8.639706  -5.74298836
8.731618  -8.19059443
8.823529  -10.85345773
8.915441  -13.44602639
9.007353  -15.58439896
9.099265  -16.87676457
9.191176  -17.05498428
9.283088  -16.08000503
9.375000  -14.15802419
9.466912  -11.65745996
9.558824  -8.97847036
9.650735  -6.44353965
9.742647  -4.25091124
9.834559  -2.48418632
9.926471  -1.14730916
10.018382  -0.20642999
10.110294  0.37898802
10.202206  0.64054245
10.294118  0.59286317
10.386029  0.23157970
10.477941  -0.46524992
10.569853  -1.53390405
10.661765  -3.01615699
10.753676  -4.93552942
10.845588  -7.26211457
10.937500  -9.87368624
11.029412  -12.52463346
11.121324  -14.85570494
11.213235  -16.46568029
11.305147  -17.03315640
11.397059  -16.43748151
11.488971  -14.80831404
11.580882  -12.47216007
11.672794  -9.83000240
11.764706  -7.23676373
11.856618  -4.93192538
11.948529  -3.03115214
12.040441  -1.55748223
12.132353  -0.47872609
12.224265  0.26286980
12.316176  0.74034642
12.408088  1.05278633
12.500000  1.31983941
12.591912  1.63063321
12.683824  1.99149375
12.775735  2.34444639
12.867647  2.63178031
12.959559  2.82833725
13.051471  2.93207156
13.143382  2.94727841
13.235294  2.87629264
13.327206  2.71655988
13.419118  2.45988282
13.511029  2.09465600
13.602941  1.61700241
13.694853  1.06346523
13.786765  0.55942230
13.878676  0.30285873
13.970588  0.39022257
14.062500  0.67999801
14.154412  0.93310906
14.246324  1.00280844
14.338235  0.84247100
14.430147  0.41271251
14.522059  -0.33172444
14.613971  -1.34777975
14.705882  -2.41849711
14.797794  -3.18553295
14.889706  -3.35378458
14.981618  -2.91478155
15.073529  -2.13785434
15.165441  -1.35120543
15.257353  -0.77373242
15.349265  -0.49961386
15.441176  -0.53768954
15.533088  -0.80928325
15.625000  -1.19032791
15.716912  -1.60500470
15.808824  -1.99056180
15.900735  -2.20742737
15.992647  -2.11824622
16.084559  -1.73372194
16.176471  -1.18664921
16.268382  -0.61902534
16.360294  -0.13395176
16.452206  0.24114054
16.544118  0.57651012
16.636029  0.96147013
16.727941  1.41385564
16.819853  1.87670995
16.911765  2.27581071
17.003676  2.57233059
17.095588  2.76957236
17.187500  2.89020297
17.279412  2.95787760
17.371324  2.99174881
17.463235  3.00602459
17.555147  3.00997497
17.647059  3.00692335
17.738971  3.00022380
17.830882  2.99245090
17.922794  2.98404369
18.014706  2.97611870
18.106618  2.96971359
18.198529  2.96548737
18.290441  2.96259218
18.382353  2.95997016
18.474265  2.95742814
18.566176  2.95491545
18.658088  2.95241513
18.750000  2.94992020
18.841912  2.94742747
18.933824  2.94493539
19.025735  2.94244338
19.117647  2.93995759
19.209559  2.93754074
19.301471  2.93519923
19.393382  2.93293316
19.485294  2.93074254
19.577206  2.92862739
19.669118  2.92658777
19.761029  2.92462370
19.852941  2.92273523
19.944853  2.92092238
20.036765  2.91918517
20.128676  2.91752364
20.220588  2.91593778
20.312500  2.91442761
20.404412  2.91299314
20.496324  2.91163438
20.588235  2.91035133
20.680147  2.90914399
20.772059  2.90801238
20.863971  2.90695649
20.955882  2.90597632
21.047794  2.90507187
21.139706  2.90424316
21.231618  2.90349017
21.323529  2.90281291
21.415441  2.90221137
21.507353  2.90168557
21.599265  2.90123549
21.691176  2.90086115
21.783088  2.90056253
21.875000  2.90033965
21.966912  2.90019255
22.058824  2.90012113
22.150735  2.90011895
22.242647  2.90012327
22.334559  2.90012764
22.426471  2.90013196
22.518382  2.90013628
22.610294  2.90014061
22.702206  2.90014494
22.794118  2.90014927
22.886029  2.90015361
22.977941  2.90015796
23.069853  2.90016231
23.161765  2.90016666
23.253676  2.90017101
23.345588  2.90017537
23.437500  2.90017974
23.529412  2.90018410
23.621324  2.90018848
23.713235  2.90019285
23.805147  2.90019722
23.897059  2.90020160
23.988971  2.90020598
24.080882  2.90021037
24.172794  2.90021475
24.264706  2.90021914
24.356618  2.90022353
24.448529  2.90022792
24.540441  2.90023231
24.632353  2.90023670
24.724265  2.90024111
24.816176  2.90024563
24.908088  2.90024991
