
  ___ ___ ___ _ _ _  
 |   |   |_  | | | | 
 | | | | | . | | | | 
 |__ |  _|___|_____|  19.8.2b1
 |___|_|             

User:   geokast@n-62-31-2
Date:   Wed Apr 29 21:59:53 2020
Arch:   x86_64
Pid:    168786
Python: 3.8.2
gpaw:   /zhome/f7/9/81494/opt/gpaw/gpaw (4f0dd10c34)
_gpaw:  /zhome/f7/9/81494/opt/gpaw/build/scripts-3.8/gpaw-python (4f0dd10c34)
ase:    /zhome/f7/9/81494/opt/ase/ase (version 3.19.0b1-a19b3ca009)
numpy:  /appl/numpy/1.18.2-python-3.8.2-openblas-0.3.9/lib/python3.8/site-packages/numpy-1.18.2-py3.8-linux-x86_64.egg/numpy (version 1.18.2)
scipy:  /appl/scipy/1.4.1-numpy-1.18.2-python-3.8.2/lib/python3.8/site-packages/scipy-1.4.1-py3.8-linux-x86_64.egg/scipy (version 1.4.1)
libxc:  4.3.4
units:  Angstrom and eV
cores:  24

Preequilibrating the potential after manual change of ['potential']
New Target electrode potential: 2.7000 V
Density initialized from wave functions

------------
Jellium properties changed!
Current number of Excess Electrons: 1.00303
Jellium size parameters:
  Lower boundary: 19.077102384657554
  Upper boundary: 22.077102384657554
------------

Unit cell:
           periodic     x           y           z      points  spacing
  1. axis:    yes    7.933738    0.000000    0.000000    48     0.1653
  2. axis:    yes    0.000000    9.161092    0.000000    48     0.1909
  3. axis:    no     0.000000    0.000000   25.000000   136     0.1838

  Lengths:   7.933738   9.161092  25.000000
  Angles:   90.000000  90.000000  90.000000

Effective grid spacing dv^(1/3) = 0.1797

                     log10-error:    total        iterations:
           time      wfs    density  energy       fermi  poisson
iter:   1  22:00:48  -5.28         -2986.133343    2      10     
iter:   2  22:01:41  -6.33  -4.33  -2986.134028    2      4      
iter:   3  22:02:34  -5.93  -4.52  -2986.134543    2      4      
iter:   4  22:03:27  -6.66  -4.64  -2986.134557    2      2      
iter:   5  22:04:21  -6.59  -4.68  -2986.134241    2      4      
iter:   6  22:05:14  -6.92  -4.54  -2986.134297    2      2      
iter:   7  22:06:07  -6.86  -4.78  -2986.134526    1      2      
iter:   8  22:07:00  -7.46  -4.97  -2986.134622    2      3      

Converged after 8 iterations.

Dipole moment: (-17.461373, -1.591929, 4.872392) |e|*Ang

Cavity Surface Area: 127.96935246491479
Cavity Volume: not calculated (no calculator defined)

Solvation Energy Contributions:
surf:            +0.146965
el (free):     -2986.501171
el (extrpol.): -2986.281587
el (free) is composed of:
Energy contributions relative to reference atoms: (reference = -1640379.897864)

Kinetic:       +386.783185
Potential:     -442.446344
External:        +0.000000
XC:            -2935.660931
Entropy (-ST):   -0.439168
Local:           +5.262088
--------------------------
Free energy:   -2986.354206
Extrapolated:  -2986.134622

Dipole-layer corrected work functions: 4.885624, 2.499313 eV

----------------------------------------------------------
Grand Potential Energy (E_tot + E_solv - mu*ne):
Extrpol:    -2983.6277367959806
Free:    -2983.847320660173
-----------------------------------------------------------
Grand canonical energy will be written into results

Fermi level: -3.69247

Showing only first 2 kpts
 Kpt  Band  Eigenvalues  Occupancy
  0   234     -3.95017    0.30979
  0   235     -3.85768    0.27972
  0   236     -3.63328    0.11873
  0   237     -3.40792    0.01831

  1   234     -4.06537    0.32552
  1   235     -3.83905    0.27081
  1   236     -3.75366    0.21613
  1   237     -3.68139    0.15744


Slope of potential versus ne: -2.85704409 V/e

Capacitance of -40759.1268 muF/cm2

Deviation from target potential outsideof threshold, equilibrating potential
Density initialized from wave functions

------------
Jellium properties changed!
Current number of Excess Electrons: 0.93279
Jellium size parameters:
  Lower boundary: 19.077102384657554
  Upper boundary: 22.077102384657554
------------

Unit cell:
           periodic     x           y           z      points  spacing
  1. axis:    yes    7.933738    0.000000    0.000000    48     0.1653
  2. axis:    yes    0.000000    9.161092    0.000000    48     0.1909
  3. axis:    no     0.000000    0.000000   25.000000   136     0.1838

  Lengths:   7.933738   9.161092  25.000000
  Angles:   90.000000  90.000000  90.000000

Effective grid spacing dv^(1/3) = 0.1797

                     log10-error:    total        iterations:
           time      wfs    density  energy       fermi  poisson
iter:   1  22:08:01  -2.93         -2986.128519    3      40     
iter:   2  22:08:58  -3.01  -2.51  -2985.994258    2      25     
iter:   3  22:09:54  -4.32  -2.85  -2985.968941    3      18     
iter:   4  22:10:51  -3.92  -3.20  -2985.962635    3      20     
iter:   5  22:11:46  -4.22  -3.51  -2985.960125    2      14     
iter:   6  22:12:40  -4.55  -3.44  -2985.959620    2      9      
iter:   7  22:13:35  -4.88  -3.69  -2985.959668    2      10     
iter:   8  22:14:29  -5.10  -4.04  -2985.959209    2      8      
iter:   9  22:15:22  -5.80  -4.17  -2985.958941    2      3      
iter:  10  22:16:16  -5.62  -4.25  -2985.958503    2      5      
iter:  11  22:17:09  -6.30  -4.58  -2985.958817    2      4      
iter:  12  22:18:02  -6.66  -4.58  -2985.958853    2      2      
iter:  13  22:18:56  -6.67  -4.55  -2985.958738    2      3      
iter:  14  22:19:49  -6.62  -4.44  -2985.958854    2      3      
iter:  15  22:20:42  -7.14  -4.24  -2985.958744    2      1      
iter:  16  22:21:35  -6.75  -4.21  -2985.959099    2      3      
iter:  17  22:22:28  -7.30  -4.19  -2985.959152    2      2      
iter:  18  22:23:21  -7.52  -4.24  -2985.959241    2      2      

Converged after 18 iterations.

Dipole moment: (-17.474788, -1.585976, 4.436531) |e|*Ang

Cavity Surface Area: 127.96935246491479
Cavity Volume: not calculated (no calculator defined)

Solvation Energy Contributions:
surf:            +0.146965
el (free):     -2986.325583
el (extrpol.): -2986.106206
el (free) is composed of:
Energy contributions relative to reference atoms: (reference = -1640379.897864)

Kinetic:       +386.959185
Potential:     -442.815872
External:        +0.000000
XC:            -2935.259396
Entropy (-ST):   -0.438754
Local:           +5.229254
--------------------------
Free energy:   -2986.178618
Extrapolated:  -2985.959241

Dipole-layer corrected work functions: 4.887667, 2.703349 eV

----------------------------------------------------------
Grand Potential Energy (E_tot + E_solv - mu*ne):
Extrpol:    -2983.4375932478015
Free:    -2983.6569701868184
-----------------------------------------------------------
Grand canonical energy will be written into results

Fermi level: -3.79551

Showing only first 2 kpts
 Kpt  Band  Eigenvalues  Occupancy
  0   233     -4.34850    0.33202
  0   234     -4.04958    0.30898
  0   235     -3.95693    0.27800
  0   236     -3.73171    0.11523

  1   233     -4.29059    0.33099
  1   234     -4.16444    0.32521
  1   235     -3.93519    0.26723
  1   236     -3.83829    0.20178


Changing to simultaneous potential and geometry equilibration

Slope of potential versus ne (unchanged): -2.85704409 V/e

Capacitance of -40759.1268 muF/cm2


Forces in eV/Ang:
  0 Cu    0.01242   -0.01040    0.08447
  1 Cu    0.05260   -0.00280    0.08572
  2 Cu   -0.02528   -0.00387    0.08867
  3 Cu   -0.01680    0.00992    0.08607
  4 Cu    0.04389    0.01211    0.08670
  5 Cu    0.01212   -0.02626    0.10959
  6 Cu    0.01298   -0.00113    0.09894
  7 Cu    0.00875   -0.00455    0.11446
  8 Cu    0.01761    0.00099    0.11372
  9 Cu   -0.01680   -0.00446    0.07055
 10 Cu    0.04044   -0.00195    0.06882
 11 Cu    0.01494    0.02445    0.10278
 12 Cu    0.02372    0.02595   -0.09244
 13 Cu   -0.01837    0.00811   -0.07608
 14 Cu    0.00264   -0.00219   -0.07518
 15 Cu    0.00386   -0.10353    0.03812
 16 Cu   -0.01872   -0.01662   -0.06095
 17 Cu    0.03088   -0.01211   -0.06984
 18 Cu   -0.03344    0.02565   -0.07403
 19 Cu    0.03988    0.02648   -0.06351
 20 Cu    0.01754   -0.01426   -0.09403
 21 Cu    0.00750   -0.01218   -0.17602
 22 Cu   -0.05124   -0.00383   -0.06182
 23 Cu    0.09600    0.01182   -0.03336
 24 Cu   -0.00987   -0.02175   -0.00013
 25 Cu    0.01004    0.01850   -0.00569
 26 Cu   -0.00635    0.00563   -0.01615
 27 Cu    0.00193    0.01330    0.01688
 28 Cu    0.00405    0.00008   -0.01032
 29 Cu    0.01181   -0.00227   -0.00938
 30 Cu    0.01348    0.00248   -0.01579
 31 Cu   -0.01101    0.01500   -0.01692
 32 Cu    0.00027   -0.00676   -0.01521
 33 Cu    0.00156    0.01257   -0.02256
 34 Cu   -0.00525    0.00221   -0.01412
 35 Cu    0.00029   -0.01352   -0.00504
 36 O    -0.00766   -0.01263   -0.18370
 37 C    -0.02028   -0.00096    0.15551
 38 H     0.01602    0.00945    0.01436
 39 O    -0.00300   -0.00248   -0.06733
 40 H    -0.01751   -0.01346    0.01696
 41 H    -0.01689   -0.02297    0.00528
 42 O    -0.01337    0.01334   -0.05843
 43 H     0.01355    0.01436   -0.00747
 44 H     0.00339    0.00017    0.05368
 45 O    -0.01001    0.00274   -0.03237
 46 H     0.00388    0.02127    0.02079
 47 H    -0.02373    0.01398   -0.00010
 48 O    -0.02040   -0.01390   -0.02826
 49 H    -0.01621   -0.00635    0.01595
 50 H    -0.01350   -0.02060    0.02322
 51 O     0.01040    0.00210   -0.06052
 52 H     0.00334    0.01857    0.00732
 53 H     0.00255   -0.00161    0.05162
 54 O     0.00260   -0.00313   -0.11107
 55 H     0.00929    0.01774    0.01714
 56 H    -0.02898   -0.03602    0.05899
 57 O     0.00829   -0.01496   -0.01547
 58 H     0.00084    0.01070    0.02555
 59 H    -0.02696    0.02422   -0.01740
 60 O     0.01184    0.01307   -0.08910
 61 H    -0.03016   -0.01936    0.01003
 62 H    -0.00490    0.00650    0.02244

System changes: positions 

Initializing position-dependent things.

Solvation position-dependent initialization:
  Atomic radii for <class 'gpaw.solvation.sjm.SJMPower12Potential'>:
      0 Cu    1.54000
      1 Cu    1.54000
      2 Cu    1.54000
      3 Cu    1.54000
      4 Cu    1.54000
      5 Cu    1.54000
      6 Cu    1.54000
      7 Cu    1.54000
      8 Cu    1.54000
      9 Cu    1.54000
     10 Cu    1.54000
     11 Cu    1.54000
     12 Cu    1.54000
     13 Cu    1.54000
     14 Cu    1.54000
     15 Cu    1.54000
     16 Cu    1.54000
     17 Cu    1.54000
     18 Cu    1.54000
     19 Cu    1.54000
     20 Cu    1.54000
     21 Cu    1.54000
     22 Cu    1.54000
     23 Cu    1.54000
     24 Cu    1.54000
     25 Cu    1.54000
     26 Cu    1.54000
     27 Cu    1.54000
     28 Cu    1.54000
     29 Cu    1.54000
     30 Cu    1.54000
     31 Cu    1.54000
     32 Cu    1.54000
     33 Cu    1.54000
     34 Cu    1.54000
     35 Cu    1.54000
     36 O     1.52000
     37 C     1.70000
     38 H     1.20000
     39 O     1.52000
     40 H     1.20000
     41 H     1.20000
     42 O     1.52000
     43 H     1.20000
     44 H     1.20000
     45 O     1.52000
     46 H     1.20000
     47 H     1.20000
     48 O     1.52000
     49 H     1.20000
     50 H     1.20000
     51 O     1.52000
     52 H     1.20000
     53 H     1.20000
     54 O     1.52000
     55 H     1.20000
     56 H     1.20000
     57 O     1.52000
     58 H     1.20000
     59 H     1.20000
     60 O     1.52000
     61 H     1.20000
     62 H     1.20000
Density initialized from wave functions
       .------------------.  
      /|                  |  
     / |                  |  
    /  |                  |  
   /   |                  |  
  /    |                  |  
 *     |                  |  
 |     |                  |  
 |     |                  |  
 |     |                  |  
 |     |                  |  
 |     |                  |  
 |     |    H         O   |  
 |     |  O O           H |  
 |     |  H   H           |  
 |     |  H       OH      |  
 | H   | H          O     |  
 |     O O H      H       |  
 |     H CCu   O Hu    Cu |  
 |     |                  |  
 |   Cu|   CCu H  Cu    Cu|  
 |     Cu    CCu   CCu    |  
 |     |                  |  
 | Cu  |CCu   CCu   CCu   |  
 |  Cu | CCu    Cu    Cu  |  
 |     |                  |  
 |   Cu|   Cu    Cu       |  
 |    Cu     Cu    Cu     |  
 |     |                  |  
 |     |                  |  
 |     |                  |  
 |     .------------------.  
 |    /                  /   
 |   /                  /    
 |  /                  /     
 | /                  /      
 |/                  /       
 *------------------*        

Positions:
   0 Cu     1.822290    5.843970    7.000000    ( 0.0000,  0.0000,  0.0000)
   1 Cu     4.466869    5.843970    7.000000    ( 0.0000,  0.0000,  0.0000)
   2 Cu     7.111448    5.843970    7.000000    ( 0.0000,  0.0000,  0.0000)
   3 Cu     0.500000    8.134243    7.000000    ( 0.0000,  0.0000,  0.0000)
   4 Cu     3.144579    8.134243    7.000000    ( 0.0000,  0.0000,  0.0000)
   5 Cu     5.789159    8.134243    7.000000    ( 0.0000,  0.0000,  0.0000)
   6 Cu     1.822290    1.263424    7.000000    ( 0.0000,  0.0000,  0.0000)
   7 Cu     4.466869    1.263424    7.000000    ( 0.0000,  0.0000,  0.0000)
   8 Cu     7.111448    1.263424    7.000000    ( 0.0000,  0.0000,  0.0000)
   9 Cu     0.500000    3.553697    7.000000    ( 0.0000,  0.0000,  0.0000)
  10 Cu     3.144579    3.553697    7.000000    ( 0.0000,  0.0000,  0.0000)
  11 Cu     5.789159    3.553697    7.000000    ( 0.0000,  0.0000,  0.0000)
  12 Cu     0.500000    6.607394    9.159290    ( 0.0000,  0.0000,  0.0000)
  13 Cu     3.144579    6.607394    9.159290    ( 0.0000,  0.0000,  0.0000)
  14 Cu     5.789159    6.607394    9.159290    ( 0.0000,  0.0000,  0.0000)
  15 Cu     1.822290    8.897667    9.159290    ( 0.0000,  0.0000,  0.0000)
  16 Cu     4.466869    8.897667    9.159290    ( 0.0000,  0.0000,  0.0000)
  17 Cu     7.111448    8.897667    9.159290    ( 0.0000,  0.0000,  0.0000)
  18 Cu     0.500000    2.026849    9.159290    ( 0.0000,  0.0000,  0.0000)
  19 Cu     3.144579    2.026849    9.159290    ( 0.0000,  0.0000,  0.0000)
  20 Cu     5.789159    2.026849    9.159290    ( 0.0000,  0.0000,  0.0000)
  21 Cu     1.822290    4.317122    9.159290    ( 0.0000,  0.0000,  0.0000)
  22 Cu     4.466869    4.317122    9.159290    ( 0.0000,  0.0000,  0.0000)
  23 Cu     7.111448    4.317122    9.159290    ( 0.0000,  0.0000,  0.0000)
  24 Cu     0.489642    5.048279   11.317570    ( 0.0000,  0.0000,  0.0000)
  25 Cu     3.195039    4.990439   11.317810    ( 0.0000,  0.0000,  0.0000)
  26 Cu     5.793764    5.055194   11.283102    ( 0.0000,  0.0000,  0.0000)
  27 Cu     1.816359    7.424897   11.369855    ( 0.0000,  0.0000,  0.0000)
  28 Cu     4.472103    7.358390   11.295525    ( 0.0000,  0.0000,  0.0000)
  29 Cu     7.094757    7.363516   11.293016    ( 0.0000,  0.0000,  0.0000)
  30 Cu     0.494183    0.496475   11.300056    ( 0.0000,  0.0000,  0.0000)
  31 Cu     3.142255    0.491266   11.301095    ( 0.0000,  0.0000,  0.0000)
  32 Cu     5.786114    0.480163   11.290067    ( 0.0000,  0.0000,  0.0000)
  33 Cu     1.817486    2.751623   11.291185    ( 0.0000,  0.0000,  0.0000)
  34 Cu     4.476130    2.755941   11.298815    ( 0.0000,  0.0000,  0.0000)
  35 Cu     7.104588    2.770553   11.298581    ( 0.0000,  0.0000,  0.0000)
  36 O      1.890084    5.705450   13.876721    ( 0.0000,  0.0000,  0.0000)
  37 C      1.884055    5.831865   12.525064    ( 0.0000,  0.0000,  0.0000)
  38 H      1.767571    6.596448   14.289573    ( 0.0000,  0.0000,  0.0000)
  39 O      7.060731    2.641444   15.931305    ( 0.0000,  0.0000,  0.0000)
  40 H      7.964587    2.665974   15.561613    ( 0.0000,  0.0000,  0.0000)
  41 H      6.620542    3.424948   15.543894    ( 0.0000,  0.0000,  0.0000)
  42 O      5.722472    0.396111   14.802551    ( 0.0000,  0.0000,  0.0000)
  43 H      6.232333    1.190172   15.076645    ( 0.0000,  0.0000,  0.0000)
  44 H      5.700223    0.410663   13.825069    ( 0.0000,  0.0000,  0.0000)
  45 O      3.325197    0.594687   16.197590    ( 0.0000,  0.0000,  0.0000)
  46 H      4.157206    0.514131   15.682736    ( 0.0000,  0.0000,  0.0000)
  47 H      2.902562    1.396961   15.834206    ( 0.0000,  0.0000,  0.0000)
  48 O      6.867200    7.255094   15.951410    ( 0.0000,  0.0000,  0.0000)
  49 H      7.780481    7.404556   15.651998    ( 0.0000,  0.0000,  0.0000)
  50 H      6.402680    8.019507   15.549088    ( 0.0000,  0.0000,  0.0000)
  51 O      5.670487    4.919592   14.872592    ( 0.0000,  0.0000,  0.0000)
  52 H      6.135209    5.752585   15.106456    ( 0.0000,  0.0000,  0.0000)
  53 H      5.600879    4.913325   13.899059    ( 0.0000,  0.0000,  0.0000)
  54 O      1.422279    8.239428   14.797138    ( 0.0000,  0.0000,  0.0000)
  55 H      2.156206    8.700638   15.262401    ( 0.0000,  0.0000,  0.0000)
  56 H      1.415206    8.594383   13.886500    ( 0.0000,  0.0000,  0.0000)
  57 O      3.460184    4.768253   16.612368    ( 0.0000,  0.0000,  0.0000)
  58 H      4.156734    4.855384   15.929013    ( 0.0000,  0.0000,  0.0000)
  59 H      2.905095    5.548819   16.490473    ( 0.0000,  0.0000,  0.0000)
  60 O      1.831516    2.661352   14.883628    ( 0.0000,  0.0000,  0.0000)
  61 H      2.192398    3.560192   14.942823    ( 0.0000,  0.0000,  0.0000)
  62 H      1.794706    2.480162   13.924120    ( 0.0000,  0.0000,  0.0000)

Unit cell:
           periodic     x           y           z      points  spacing
  1. axis:    yes    7.933738    0.000000    0.000000    48     0.1653
  2. axis:    yes    0.000000    9.161092    0.000000    48     0.1909
  3. axis:    no     0.000000    0.000000   25.000000   136     0.1838

  Lengths:   7.933738   9.161092  25.000000
  Angles:   90.000000  90.000000  90.000000

Effective grid spacing dv^(1/3) = 0.1797

                     log10-error:    total        iterations:
           time      wfs    density  energy       fermi  poisson
iter:   1  22:32:58  -3.50         -2985.999975    2      19     
iter:   2  22:33:54  -3.61  -2.85  -2985.963652    2      20     
iter:   3  22:34:49  -4.76  -3.23  -2985.961448    2      14     
iter:   4  22:35:43  -4.64  -3.87  -2985.959790    2      7      
iter:   5  22:36:38  -4.72  -3.85  -2985.958915    2      11     
iter:   6  22:37:32  -5.16  -3.55  -2985.959277    2      6      
iter:   7  22:38:25  -5.48  -3.83  -2985.959543    2      5      
iter:   8  22:39:19  -5.57  -4.10  -2985.960491    2      5      
iter:   9  22:40:12  -6.08  -4.64  -2985.960327    2      3      
iter:  10  22:41:05  -6.25  -4.44  -2985.959627    2      4      
iter:  11  22:41:58  -6.45  -4.75  -2985.959367    2      3      
iter:  12  22:42:52  -6.94  -4.58  -2985.959605    2      3      
iter:  13  22:43:44  -7.49  -4.92  -2985.959781    2      1      

Converged after 13 iterations.

Dipole moment: (-17.475010, -1.574519, 4.443157) |e|*Ang

Cavity Surface Area: 127.99726247458828
Cavity Volume: not calculated (no calculator defined)

Solvation Energy Contributions:
surf:            +0.146997
el (free):     -2986.326240
el (extrpol.): -2986.106778
el (free) is composed of:
Energy contributions relative to reference atoms: (reference = -1640379.897864)

Kinetic:       +387.090741
Potential:     -442.897343
External:        +0.000000
XC:            -2935.347007
Entropy (-ST):   -0.438924
Local:           +5.266294
--------------------------
Free energy:   -2986.179243
Extrapolated:  -2985.959781

Dipole-layer corrected work functions: 4.884627, 2.692869 eV

----------------------------------------------------------
Grand Potential Energy (E_tot + E_solv - mu*ne):
Extrpol:    -2983.447907758294
Free:    -2983.6673697675533
-----------------------------------------------------------
Grand canonical energy will be written into results

Fermi level: -3.78875

Showing only first 2 kpts
 Kpt  Band  Eigenvalues  Occupancy
  0   233     -4.34162    0.33201
  0   234     -4.04327    0.30908
  0   235     -3.94974    0.27780
  0   236     -3.72408    0.11458

  1   233     -4.28443    0.33100
  1   234     -4.15747    0.32519
  1   235     -3.92808    0.26704
  1   236     -3.83247    0.20253



Forces in eV/Ang:
  0 Cu    0.01246   -0.01055    0.09016
  1 Cu    0.05270   -0.00290    0.09141
  2 Cu   -0.02541   -0.00391    0.09438
  3 Cu   -0.01674    0.00971    0.09188
  4 Cu    0.04383    0.01194    0.09249
  5 Cu    0.01209   -0.02652    0.11550
  6 Cu    0.01300   -0.00116    0.10443
  7 Cu    0.00857   -0.00460    0.11979
  8 Cu    0.01773    0.00099    0.11907
  9 Cu   -0.01669   -0.00437    0.07629
 10 Cu    0.04033   -0.00178    0.07460
 11 Cu    0.01493    0.02465    0.10893
 12 Cu    0.02358    0.02571   -0.08749
 13 Cu   -0.01821    0.00824   -0.07145
 14 Cu    0.00273   -0.00199   -0.07087
 15 Cu    0.00392   -0.10312    0.04236
 16 Cu   -0.01849   -0.01676   -0.05608
 17 Cu    0.03063   -0.01221   -0.06482
 18 Cu   -0.03334    0.02531   -0.06947
 19 Cu    0.03980    0.02614   -0.05924
 20 Cu    0.01748   -0.01381   -0.08852
 21 Cu    0.00749   -0.01160   -0.17175
 22 Cu   -0.05067   -0.00381   -0.05744
 23 Cu    0.09545    0.01177   -0.02869
 24 Cu   -0.00298   -0.01665    0.00705
 25 Cu    0.00129    0.02241    0.00262
 26 Cu   -0.00481    0.00508   -0.00874
 27 Cu    0.00273    0.00315    0.02268
 28 Cu    0.00488    0.00124   -0.00168
 29 Cu    0.01006   -0.00155   -0.00182
 30 Cu    0.01068    0.00195   -0.00629
 31 Cu   -0.00858    0.01325   -0.00733
 32 Cu    0.00056   -0.00555   -0.00796
 33 Cu    0.00142    0.01096   -0.01585
 34 Cu   -0.00484    0.00244   -0.00393
 35 Cu    0.00013   -0.01248    0.00349
 36 O    -0.01429    0.02245   -0.01508
 37 C    -0.01778    0.01390    0.00885
 38 H     0.02081   -0.02700   -0.00064
 39 O    -0.02225   -0.02695   -0.04060
 40 H     0.00627   -0.00989    0.00353
 41 H    -0.02426   -0.00393   -0.00696
 42 O    -0.00217    0.02622    0.02855
 43 H     0.00412    0.00033   -0.01475
 44 H     0.00216    0.00181   -0.01606
 45 O    -0.02301    0.00266   -0.01913
 46 H     0.01207    0.02175    0.01267
 47 H    -0.02111    0.01251   -0.00156
 48 O    -0.01774   -0.02910   -0.01065
 49 H    -0.01171   -0.00495    0.01305
 50 H    -0.02149   -0.00682    0.01428
 51 O     0.02277    0.01525    0.02552
 52 H    -0.00468    0.00462   -0.00009
 53 H    -0.00085   -0.00010   -0.01869
 54 O     0.03650   -0.03138    0.02427
 55 H    -0.02165   -0.00048   -0.00733
 56 H    -0.02741    0.00558   -0.03873
 57 O    -0.02874    0.01454   -0.00217
 58 H     0.01535    0.01223    0.01142
 59 H    -0.00568   -0.00523   -0.01203
 60 O     0.00283   -0.00214   -0.00492
 61 H    -0.02037    0.00179    0.00710
 62 H    -0.00549   -0.00201   -0.04425

Density initialized from wave functions

------------
Jellium properties changed!
Current number of Excess Electrons: 0.93029
Jellium size parameters:
  Lower boundary: 19.077102384657554
  Upper boundary: 22.077102384657554
------------

System changes: positions 

Initializing position-dependent things.

Solvation position-dependent initialization:
  Atomic radii for <class 'gpaw.solvation.sjm.SJMPower12Potential'>:
      0 Cu    1.54000
      1 Cu    1.54000
      2 Cu    1.54000
      3 Cu    1.54000
      4 Cu    1.54000
      5 Cu    1.54000
      6 Cu    1.54000
      7 Cu    1.54000
      8 Cu    1.54000
      9 Cu    1.54000
     10 Cu    1.54000
     11 Cu    1.54000
     12 Cu    1.54000
     13 Cu    1.54000
     14 Cu    1.54000
     15 Cu    1.54000
     16 Cu    1.54000
     17 Cu    1.54000
     18 Cu    1.54000
     19 Cu    1.54000
     20 Cu    1.54000
     21 Cu    1.54000
     22 Cu    1.54000
     23 Cu    1.54000
     24 Cu    1.54000
     25 Cu    1.54000
     26 Cu    1.54000
     27 Cu    1.54000
     28 Cu    1.54000
     29 Cu    1.54000
     30 Cu    1.54000
     31 Cu    1.54000
     32 Cu    1.54000
     33 Cu    1.54000
     34 Cu    1.54000
     35 Cu    1.54000
     36 O     1.52000
     37 C     1.70000
     38 H     1.20000
     39 O     1.52000
     40 H     1.20000
     41 H     1.20000
     42 O     1.52000
     43 H     1.20000
     44 H     1.20000
     45 O     1.52000
     46 H     1.20000
     47 H     1.20000
     48 O     1.52000
     49 H     1.20000
     50 H     1.20000
     51 O     1.52000
     52 H     1.20000
     53 H     1.20000
     54 O     1.52000
     55 H     1.20000
     56 H     1.20000
     57 O     1.52000
     58 H     1.20000
     59 H     1.20000
     60 O     1.52000
     61 H     1.20000
     62 H     1.20000
Density initialized from wave functions
       .------------------.  
      /|                  |  
     / |                  |  
    /  |                  |  
   /   |                  |  
  /    |                  |  
 *     |                  |  
 |     |                  |  
 |     |                  |  
 |     |                  |  
 |     |                  |  
 |     |                  |  
 |     |    H         O   |  
 |     |  O O           H |  
 |     |  H   H           |  
 |     |  H       OH      |  
 | H   | H          O     |  
 |     O O H      H       |  
 |     H CCu   O Hu    Cu |  
 |     |                  |  
 |   Cu|   CCu H  Cu    Cu|  
 |     Cu    CCu   CCu    |  
 |     |                  |  
 | Cu  |CCu   CCu   CCu   |  
 |  Cu | CCu    Cu    Cu  |  
 |     |                  |  
 |   Cu|   Cu    Cu       |  
 |    Cu     Cu    Cu     |  
 |     |                  |  
 |     |                  |  
 |     |                  |  
 |     .------------------.  
 |    /                  /   
 |   /                  /    
 |  /                  /     
 | /                  /      
 |/                  /       
 *------------------*        

Positions:
   0 Cu     1.822290    5.843970    7.000000    ( 0.0000,  0.0000,  0.0000)
   1 Cu     4.466869    5.843970    7.000000    ( 0.0000,  0.0000,  0.0000)
   2 Cu     7.111448    5.843970    7.000000    ( 0.0000,  0.0000,  0.0000)
   3 Cu     0.500000    8.134243    7.000000    ( 0.0000,  0.0000,  0.0000)
   4 Cu     3.144579    8.134243    7.000000    ( 0.0000,  0.0000,  0.0000)
   5 Cu     5.789159    8.134243    7.000000    ( 0.0000,  0.0000,  0.0000)
   6 Cu     1.822290    1.263424    7.000000    ( 0.0000,  0.0000,  0.0000)
   7 Cu     4.466869    1.263424    7.000000    ( 0.0000,  0.0000,  0.0000)
   8 Cu     7.111448    1.263424    7.000000    ( 0.0000,  0.0000,  0.0000)
   9 Cu     0.500000    3.553697    7.000000    ( 0.0000,  0.0000,  0.0000)
  10 Cu     3.144579    3.553697    7.000000    ( 0.0000,  0.0000,  0.0000)
  11 Cu     5.789159    3.553697    7.000000    ( 0.0000,  0.0000,  0.0000)
  12 Cu     0.500000    6.607394    9.159290    ( 0.0000,  0.0000,  0.0000)
  13 Cu     3.144579    6.607394    9.159290    ( 0.0000,  0.0000,  0.0000)
  14 Cu     5.789159    6.607394    9.159290    ( 0.0000,  0.0000,  0.0000)
  15 Cu     1.822290    8.897667    9.159290    ( 0.0000,  0.0000,  0.0000)
  16 Cu     4.466869    8.897667    9.159290    ( 0.0000,  0.0000,  0.0000)
  17 Cu     7.111448    8.897667    9.159290    ( 0.0000,  0.0000,  0.0000)
  18 Cu     0.500000    2.026849    9.159290    ( 0.0000,  0.0000,  0.0000)
  19 Cu     3.144579    2.026849    9.159290    ( 0.0000,  0.0000,  0.0000)
  20 Cu     5.789159    2.026849    9.159290    ( 0.0000,  0.0000,  0.0000)
  21 Cu     1.822290    4.317122    9.159290    ( 0.0000,  0.0000,  0.0000)
  22 Cu     4.466869    4.317122    9.159290    ( 0.0000,  0.0000,  0.0000)
  23 Cu     7.111448    4.317122    9.159290    ( 0.0000,  0.0000,  0.0000)
  24 Cu     0.489561    5.047948   11.317677    ( 0.0000,  0.0000,  0.0000)
  25 Cu     3.195094    4.990846   11.317829    ( 0.0000,  0.0000,  0.0000)
  26 Cu     5.793668    5.055292   11.282912    ( 0.0000,  0.0000,  0.0000)
  27 Cu     1.816407    7.424993   11.370260    ( 0.0000,  0.0000,  0.0000)
  28 Cu     4.472191    7.358410   11.295463    ( 0.0000,  0.0000,  0.0000)
  29 Cu     7.094952    7.363484   11.292954    ( 0.0000,  0.0000,  0.0000)
  30 Cu     0.494394    0.496514   11.299903    ( 0.0000,  0.0000,  0.0000)
  31 Cu     3.142085    0.491522   11.300923    ( 0.0000,  0.0000,  0.0000)
  32 Cu     5.786124    0.480054   11.289891    ( 0.0000,  0.0000,  0.0000)
  33 Cu     1.817513    2.751835   11.290863    ( 0.0000,  0.0000,  0.0000)
  34 Cu     4.476037    2.755986   11.298705    ( 0.0000,  0.0000,  0.0000)
  35 Cu     7.104591    2.770315   11.298616    ( 0.0000,  0.0000,  0.0000)
  36 O      1.889839    5.705745   13.875831    ( 0.0000,  0.0000,  0.0000)
  37 C      1.883712    5.832073   12.525757    ( 0.0000,  0.0000,  0.0000)
  38 H      1.767944    6.596072   14.289615    ( 0.0000,  0.0000,  0.0000)
  39 O      7.060382    2.641025   15.930446    ( 0.0000,  0.0000,  0.0000)
  40 H      7.964619    2.665775   15.561727    ( 0.0000,  0.0000,  0.0000)
  41 H      6.620113    3.424806   15.543807    ( 0.0000,  0.0000,  0.0000)
  42 O      5.722391    0.396557   14.802775    ( 0.0000,  0.0000,  0.0000)
  43 H      6.232444    1.190229   15.076394    ( 0.0000,  0.0000,  0.0000)
  44 H      5.700268    0.410691   13.825018    ( 0.0000,  0.0000,  0.0000)
  45 O      3.324811    0.594737   16.197183    ( 0.0000,  0.0000,  0.0000)
  46 H      4.157404    0.514538   15.683003    ( 0.0000,  0.0000,  0.0000)
  47 H      2.902156    1.397201   15.834182    ( 0.0000,  0.0000,  0.0000)
  48 O      6.866857    7.254602   15.951147    ( 0.0000,  0.0000,  0.0000)
  49 H      7.780245    7.404458   15.652254    ( 0.0000,  0.0000,  0.0000)
  50 H      6.402305    8.019329   15.549388    ( 0.0000,  0.0000,  0.0000)
  51 O      5.670870    4.919831   14.872762    ( 0.0000,  0.0000,  0.0000)
  52 H      6.135150    5.752722   15.106481    ( 0.0000,  0.0000,  0.0000)
  53 H      5.600875    4.913318   13.898960    ( 0.0000,  0.0000,  0.0000)
  54 O      1.422843    8.238940   14.797107    ( 0.0000,  0.0000,  0.0000)
  55 H      2.155910    8.700694   15.262352    ( 0.0000,  0.0000,  0.0000)
  56 H      1.414685    8.594339   13.886124    ( 0.0000,  0.0000,  0.0000)
  57 O      3.459778    4.768420   16.612279    ( 0.0000,  0.0000,  0.0000)
  58 H      4.156970    4.855608   15.929278    ( 0.0000,  0.0000,  0.0000)
  59 H      2.904912    5.548827   16.490228    ( 0.0000,  0.0000,  0.0000)
  60 O      1.831601    2.661367   14.883233    ( 0.0000,  0.0000,  0.0000)
  61 H      2.191980    3.560150   14.942967    ( 0.0000,  0.0000,  0.0000)
  62 H      1.794605    2.480155   13.923528    ( 0.0000,  0.0000,  0.0000)

Unit cell:
           periodic     x           y           z      points  spacing
  1. axis:    yes    7.933738    0.000000    0.000000    48     0.1653
  2. axis:    yes    0.000000    9.161092    0.000000    48     0.1909
  3. axis:    no     0.000000    0.000000   25.000000   136     0.1838

  Lengths:   7.933738   9.161092  25.000000
  Angles:   90.000000  90.000000  90.000000

Effective grid spacing dv^(1/3) = 0.1797

                     log10-error:    total        iterations:
           time      wfs    density  energy       fermi  poisson
iter:   1  22:53:28  -4.45         -2985.955159    2      11     
iter:   2  22:54:22  -5.10  -3.74  -2985.952918    2      8      
iter:   3  22:55:16  -5.56  -4.09  -2985.953142    2      5      
iter:   4  22:56:09  -5.51  -4.29  -2985.952884    2      5      
iter:   5  22:57:03  -5.68  -4.36  -2985.952594    2      5      
iter:   6  22:57:56  -6.04  -4.01  -2985.952992    2      5      
iter:   7  22:58:50  -6.53  -4.24  -2985.953234    2      3      
iter:   8  22:59:43  -6.11  -4.44  -2985.953949    2      4      
iter:   9  23:00:36  -6.81  -4.53  -2985.953858    2      2      
iter:  10  23:01:29  -6.42  -4.51  -2985.953098    2      4      
iter:  11  23:02:23  -7.15  -4.55  -2985.953304    2      3      
iter:  12  23:03:16  -6.71  -5.02  -2985.953646    2      3      
iter:  13  23:04:09  -7.61  -4.53  -2985.953715    1      2      

Converged after 13 iterations.

Dipole moment: (-17.475312, -1.559319, 4.428650) |e|*Ang

Cavity Surface Area: 127.98739863319295
Cavity Volume: not calculated (no calculator defined)

Solvation Energy Contributions:
surf:            +0.146986
el (free):     -2986.320192
el (extrpol.): -2986.100701
el (free) is composed of:
Energy contributions relative to reference atoms: (reference = -1640379.897864)

Kinetic:       +387.203036
Potential:     -442.986353
External:        +0.000000
XC:            -2935.352142
Entropy (-ST):   -0.438982
Local:           +5.254249
--------------------------
Free energy:   -2986.173206
Extrapolated:  -2985.953715

Dipole-layer corrected work functions: 4.882576, 2.698897 eV

----------------------------------------------------------
Grand Potential Energy (E_tot + E_solv - mu*ne):
Extrpol:    -2983.44295569923
Free:    -2983.662446694463
-----------------------------------------------------------
Grand canonical energy will be written into results

Fermi level: -3.79074

Showing only first 2 kpts
 Kpt  Band  Eigenvalues  Occupancy
  0   233     -4.34344    0.33201
  0   234     -4.04532    0.30910
  0   235     -3.95136    0.27763
  0   236     -3.72557    0.11420

  1   233     -4.28656    0.33101
  1   234     -4.15922    0.32517
  1   235     -3.92969    0.26684
  1   236     -3.83423    0.20235


Slope of potential versus ne: -2.41498102 V/e

Capacitance of -48220.0984 muF/cm2


Forces in eV/Ang:
  0 Cu    0.01249   -0.01063    0.09383
  1 Cu    0.05278   -0.00293    0.09476
  2 Cu   -0.02551   -0.00389    0.09772
  3 Cu   -0.01677    0.00965    0.09533
  4 Cu    0.04384    0.01189    0.09594
  5 Cu    0.01210   -0.02657    0.11895
  6 Cu    0.01300   -0.00123    0.10787
  7 Cu    0.00850   -0.00460    0.12296
  8 Cu    0.01779    0.00098    0.12222
  9 Cu   -0.01671   -0.00434    0.07971
 10 Cu    0.04035   -0.00174    0.07803
 11 Cu    0.01492    0.02465    0.11258
 12 Cu    0.02360    0.02556   -0.08486
 13 Cu   -0.01809    0.00851   -0.06918
 14 Cu    0.00282   -0.00185   -0.06853
 15 Cu    0.00399   -0.10327    0.04451
 16 Cu   -0.01857   -0.01683   -0.05367
 17 Cu    0.03067   -0.01222   -0.06249
 18 Cu   -0.03337    0.02519   -0.06734
 19 Cu    0.03984    0.02604   -0.05747
 20 Cu    0.01743   -0.01368   -0.08573
 21 Cu    0.00756   -0.01126   -0.16982
 22 Cu   -0.05081   -0.00358   -0.05503
 23 Cu    0.09546    0.01180   -0.02601
 24 Cu   -0.00230   -0.01453    0.00858
 25 Cu    0.00007    0.02195    0.00531
 26 Cu   -0.00369    0.00417   -0.00625
 27 Cu    0.00267    0.00436    0.02180
 28 Cu    0.00531    0.00207   -0.00116
 29 Cu    0.00833   -0.00121   -0.00068
 30 Cu    0.00860    0.00114   -0.00342
 31 Cu   -0.00634    0.01125   -0.00496
 32 Cu    0.00036   -0.00475   -0.00501
 33 Cu    0.00129    0.00969   -0.01254
 34 Cu   -0.00410    0.00282   -0.00233
 35 Cu   -0.00038   -0.01102    0.00368
 36 O    -0.01097   -0.00033    0.01072
 37 C    -0.01680    0.01492   -0.02501
 38 H     0.01863   -0.01075    0.00602
 39 O    -0.02262   -0.02903   -0.04283
 40 H     0.00395   -0.00749    0.00129
 41 H    -0.02168   -0.00258   -0.00952
 42 O    -0.01088    0.01316    0.00666
 43 H     0.01198    0.01310   -0.00997
 44 H     0.00191    0.00154   -0.00280
 45 O    -0.01832    0.00270   -0.01947
 46 H     0.00611    0.02352    0.01365
 47 H    -0.01835    0.01063   -0.00263
 48 O    -0.01849   -0.02294   -0.01181
 49 H    -0.01196   -0.00466    0.01231
 50 H    -0.01989   -0.00826    0.01439
 51 O     0.01175   -0.00038    0.00497
 52 H     0.00251    0.01691    0.00220
 53 H     0.00090    0.00105   -0.00381
 54 O     0.01784   -0.03271   -0.00914
 55 H    -0.00806    0.00813   -0.00207
 56 H    -0.02495   -0.00146   -0.01679
 57 O    -0.01332    0.00408   -0.00832
 58 H     0.00848    0.01159    0.01781
 59 H    -0.01227    0.00475   -0.01323
 60 O    -0.00286   -0.01416   -0.01591
 61 H    -0.01657    0.00934    0.00510
 62 H    -0.00388    0.00255   -0.03413

Density initialized from wave functions

------------
Jellium properties changed!
Current number of Excess Electrons: 0.92983
Jellium size parameters:
  Lower boundary: 19.077102384657554
  Upper boundary: 22.077102384657554
------------

System changes: positions 

Initializing position-dependent things.

Solvation position-dependent initialization:
  Atomic radii for <class 'gpaw.solvation.sjm.SJMPower12Potential'>:
      0 Cu    1.54000
      1 Cu    1.54000
      2 Cu    1.54000
      3 Cu    1.54000
      4 Cu    1.54000
      5 Cu    1.54000
      6 Cu    1.54000
      7 Cu    1.54000
      8 Cu    1.54000
      9 Cu    1.54000
     10 Cu    1.54000
     11 Cu    1.54000
     12 Cu    1.54000
     13 Cu    1.54000
     14 Cu    1.54000
     15 Cu    1.54000
     16 Cu    1.54000
     17 Cu    1.54000
     18 Cu    1.54000
     19 Cu    1.54000
     20 Cu    1.54000
     21 Cu    1.54000
     22 Cu    1.54000
     23 Cu    1.54000
     24 Cu    1.54000
     25 Cu    1.54000
     26 Cu    1.54000
     27 Cu    1.54000
     28 Cu    1.54000
     29 Cu    1.54000
     30 Cu    1.54000
     31 Cu    1.54000
     32 Cu    1.54000
     33 Cu    1.54000
     34 Cu    1.54000
     35 Cu    1.54000
     36 O     1.52000
     37 C     1.70000
     38 H     1.20000
     39 O     1.52000
     40 H     1.20000
     41 H     1.20000
     42 O     1.52000
     43 H     1.20000
     44 H     1.20000
     45 O     1.52000
     46 H     1.20000
     47 H     1.20000
     48 O     1.52000
     49 H     1.20000
     50 H     1.20000
     51 O     1.52000
     52 H     1.20000
     53 H     1.20000
     54 O     1.52000
     55 H     1.20000
     56 H     1.20000
     57 O     1.52000
     58 H     1.20000
     59 H     1.20000
     60 O     1.52000
     61 H     1.20000
     62 H     1.20000
Density initialized from wave functions
       .------------------.  
      /|                  |  
     / |                  |  
    /  |                  |  
   /   |                  |  
  /    |                  |  
 *     |                  |  
 |     |                  |  
 |     |                  |  
 |     |                  |  
 |     |                  |  
 |     |                  |  
 |     |    H         O   |  
 |     |  O O           H |  
 |     |  H   H    H      |  
 |     |  H       OH      |  
 | H   | H          O     |  
 |     O O H      H       |  
 |     H CCu   O Hu    Cu |  
 |     |                  |  
 |   Cu|   CCu H  Cu    Cu|  
 |     Cu    CCu   CCu    |  
 |     |                  |  
 | Cu  |CCu   CCu   CCu   |  
 |  Cu | CCu    Cu    Cu  |  
 |     |                  |  
 |   Cu|   Cu    Cu       |  
 |    Cu     Cu    Cu     |  
 |     |                  |  
 |     |                  |  
 |     |                  |  
 |     .------------------.  
 |    /                  /   
 |   /                  /    
 |  /                  /     
 | /                  /      
 |/                  /       
 *------------------*        

Positions:
   0 Cu     1.822290    5.843970    7.000000    ( 0.0000,  0.0000,  0.0000)
   1 Cu     4.466869    5.843970    7.000000    ( 0.0000,  0.0000,  0.0000)
   2 Cu     7.111448    5.843970    7.000000    ( 0.0000,  0.0000,  0.0000)
   3 Cu     0.500000    8.134243    7.000000    ( 0.0000,  0.0000,  0.0000)
   4 Cu     3.144579    8.134243    7.000000    ( 0.0000,  0.0000,  0.0000)
   5 Cu     5.789159    8.134243    7.000000    ( 0.0000,  0.0000,  0.0000)
   6 Cu     1.822290    1.263424    7.000000    ( 0.0000,  0.0000,  0.0000)
   7 Cu     4.466869    1.263424    7.000000    ( 0.0000,  0.0000,  0.0000)
   8 Cu     7.111448    1.263424    7.000000    ( 0.0000,  0.0000,  0.0000)
   9 Cu     0.500000    3.553697    7.000000    ( 0.0000,  0.0000,  0.0000)
  10 Cu     3.144579    3.553697    7.000000    ( 0.0000,  0.0000,  0.0000)
  11 Cu     5.789159    3.553697    7.000000    ( 0.0000,  0.0000,  0.0000)
  12 Cu     0.500000    6.607394    9.159290    ( 0.0000,  0.0000,  0.0000)
  13 Cu     3.144579    6.607394    9.159290    ( 0.0000,  0.0000,  0.0000)
  14 Cu     5.789159    6.607394    9.159290    ( 0.0000,  0.0000,  0.0000)
  15 Cu     1.822290    8.897667    9.159290    ( 0.0000,  0.0000,  0.0000)
  16 Cu     4.466869    8.897667    9.159290    ( 0.0000,  0.0000,  0.0000)
  17 Cu     7.111448    8.897667    9.159290    ( 0.0000,  0.0000,  0.0000)
  18 Cu     0.500000    2.026849    9.159290    ( 0.0000,  0.0000,  0.0000)
  19 Cu     3.144579    2.026849    9.159290    ( 0.0000,  0.0000,  0.0000)
  20 Cu     5.789159    2.026849    9.159290    ( 0.0000,  0.0000,  0.0000)
  21 Cu     1.822290    4.317122    9.159290    ( 0.0000,  0.0000,  0.0000)
  22 Cu     4.466869    4.317122    9.159290    ( 0.0000,  0.0000,  0.0000)
  23 Cu     7.111448    4.317122    9.159290    ( 0.0000,  0.0000,  0.0000)
  24 Cu     0.489161    5.046203   11.318377    ( 0.0000,  0.0000,  0.0000)
  25 Cu     3.195320    4.993129   11.318097    ( 0.0000,  0.0000,  0.0000)
  26 Cu     5.793188    5.055794   11.281982    ( 0.0000,  0.0000,  0.0000)
  27 Cu     1.816680    7.425561   11.372518    ( 0.0000,  0.0000,  0.0000)
  28 Cu     4.472715    7.358563   11.295162    ( 0.0000,  0.0000,  0.0000)
  29 Cu     7.095961    7.363324   11.292689    ( 0.0000,  0.0000,  0.0000)
  30 Cu     0.495469    0.496689   11.299216    ( 0.0000,  0.0000,  0.0000)
  31 Cu     3.141246    0.492856   11.300100    ( 0.0000,  0.0000,  0.0000)
  32 Cu     5.786168    0.479485   11.289070    ( 0.0000,  0.0000,  0.0000)
  33 Cu     1.817659    2.752960   11.289233    ( 0.0000,  0.0000,  0.0000)
  34 Cu     4.475555    2.756260   11.298193    ( 0.0000,  0.0000,  0.0000)
  35 Cu     7.104582    2.769049   11.298849    ( 0.0000,  0.0000,  0.0000)
  36 O      1.888605    5.706385   13.872621    ( 0.0000,  0.0000,  0.0000)
  37 C      1.881835    5.833340   12.527528    ( 0.0000,  0.0000,  0.0000)
  38 H      1.769957    6.594648   14.290137    ( 0.0000,  0.0000,  0.0000)
  39 O      7.058338    2.638488   15.925576    ( 0.0000,  0.0000,  0.0000)
  40 H      7.964759    2.664786   15.562221    ( 0.0000,  0.0000,  0.0000)
  41 H      6.617799    3.424130   15.543153    ( 0.0000,  0.0000,  0.0000)
  42 O      5.721535    0.398463   14.803213    ( 0.0000,  0.0000,  0.0000)
  43 H      6.233434    1.191141   15.075195    ( 0.0000,  0.0000,  0.0000)
  44 H      5.700506    0.410841   13.825176    ( 0.0000,  0.0000,  0.0000)
  45 O      3.322831    0.595022   16.194913    ( 0.0000,  0.0000,  0.0000)
  46 H      4.158245    0.516922   15.684533    ( 0.0000,  0.0000,  0.0000)
  47 H      2.900013    1.398458   15.833988    ( 0.0000,  0.0000,  0.0000)
  48 O      6.864895    7.252088   15.949658    ( 0.0000,  0.0000,  0.0000)
  49 H      7.778915    7.403924   15.653649    ( 0.0000,  0.0000,  0.0000)
  50 H      6.400246    8.018299   15.551060    ( 0.0000,  0.0000,  0.0000)
  51 O      5.672520    4.920442   14.872963    ( 0.0000,  0.0000,  0.0000)
  52 H      6.135151    5.754064   15.106712    ( 0.0000,  0.0000,  0.0000)
  53 H      5.600931    4.913339   13.898931    ( 0.0000,  0.0000,  0.0000)
  54 O      1.425197    8.236036   14.795688    ( 0.0000,  0.0000,  0.0000)
  55 H      2.154826    8.701385   15.262258    ( 0.0000,  0.0000,  0.0000)
  56 H      1.411878    8.593864   13.884794    ( 0.0000,  0.0000,  0.0000)
  57 O      3.458138    4.768932   16.611514    ( 0.0000,  0.0000,  0.0000)
  58 H      4.158004    4.856845   15.931049    ( 0.0000,  0.0000,  0.0000)
  59 H      2.903616    5.549276   16.488802    ( 0.0000,  0.0000,  0.0000)
  60 O      1.831772    2.660802   14.880718    ( 0.0000,  0.0000,  0.0000)
  61 H      2.189843    3.560352   14.943669    ( 0.0000,  0.0000,  0.0000)
  62 H      1.794114    2.480316   13.920492    ( 0.0000,  0.0000,  0.0000)

Unit cell:
           periodic     x           y           z      points  spacing
  1. axis:    yes    7.933738    0.000000    0.000000    48     0.1653
  2. axis:    yes    0.000000    9.161092    0.000000    48     0.1909
  3. axis:    no     0.000000    0.000000   25.000000   136     0.1838

  Lengths:   7.933738   9.161092  25.000000
  Angles:   90.000000  90.000000  90.000000

Effective grid spacing dv^(1/3) = 0.1797

                     log10-error:    total        iterations:
           time      wfs    density  energy       fermi  poisson
iter:   1  23:13:56  -3.21         -2985.953846    2      13     
iter:   2  23:14:51  -3.93  -3.28  -2985.954314    2      13     
iter:   3  23:15:44  -4.49  -3.56  -2985.953224    2      4      
iter:   4  23:16:39  -4.45  -3.62  -2985.951430    2      10     
iter:   5  23:17:34  -4.65  -3.60  -2985.955128    2      12     
iter:   6  23:18:28  -4.92  -3.53  -2985.953190    2      6      
iter:   7  23:19:21  -5.14  -3.79  -2985.952363    2      5      
iter:   8  23:20:15  -5.29  -4.01  -2985.951880    2      5      
iter:   9  23:21:08  -5.81  -4.26  -2985.952051    2      4      
iter:  10  23:22:01  -5.80  -4.51  -2985.952471    2      4      
iter:  11  23:22:55  -6.28  -4.66  -2985.952521    2      3      
iter:  12  23:23:48  -6.64  -4.82  -2985.952517    2      3      
iter:  13  23:24:41  -7.37  -4.63  -2985.952309    2      2      
iter:  14  23:25:34  -7.27  -4.68  -2985.952330    2      2      
iter:  15  23:26:27  -6.66  -4.88  -2985.952872    2      3      
iter:  16  23:27:20  -6.84  -4.96  -2985.952658    2      3      
iter:  17  23:28:14  -6.82  -4.91  -2985.952655    2      3      
iter:  18  23:29:07  -7.65  -4.74  -2985.952423    2      2      

Converged after 18 iterations.

Dipole moment: (-17.469552, -1.493052, 4.438377) |e|*Ang

Cavity Surface Area: 127.948732716892
Cavity Volume: not calculated (no calculator defined)

Solvation Energy Contributions:
surf:            +0.146941
el (free):     -2986.318967
el (extrpol.): -2986.099364
el (free) is composed of:
Energy contributions relative to reference atoms: (reference = -1640379.897864)

Kinetic:       +387.304550
Potential:     -443.048641
External:        +0.000000
XC:            -2935.390667
Entropy (-ST):   -0.439206
Local:           +5.254996
--------------------------
Free energy:   -2986.172026
Extrapolated:  -2985.952423

Dipole-layer corrected work functions: 4.885312, 2.684823 eV

----------------------------------------------------------
Grand Potential Energy (E_tot + E_solv - mu*ne):
Extrpol:    -2983.4559831107986
Free:    -2983.6755862153136
-----------------------------------------------------------
Grand canonical energy will be written into results

Fermi level: -3.78507

Showing only first 2 kpts
 Kpt  Band  Eigenvalues  Occupancy
  0   233     -4.33857    0.33202
  0   234     -4.03973    0.30912
  0   235     -3.94543    0.27751
  0   236     -3.71947    0.11388

  1   233     -4.28081    0.33101
  1   234     -4.15352    0.32517
  1   235     -3.92365    0.26664
  1   236     -3.82901    0.20271


Slope of potential versus ne: 30.80645300 V/e

Capacitance of 3780.0724 muF/cm2


Forces in eV/Ang:
  0 Cu    0.01257   -0.01059    0.08885
  1 Cu    0.05274   -0.00287    0.08962
  2 Cu   -0.02558   -0.00383    0.09233
  3 Cu   -0.01685    0.00972    0.09014
  4 Cu    0.04383    0.01191    0.09073
  5 Cu    0.01217   -0.02675    0.11368
  6 Cu    0.01305   -0.00126    0.10252
  7 Cu    0.00847   -0.00448    0.11788
  8 Cu    0.01775    0.00085    0.11718
  9 Cu   -0.01667   -0.00417    0.07454
 10 Cu    0.04039   -0.00169    0.07292
 11 Cu    0.01484    0.02491    0.10740
 12 Cu    0.02508    0.02469   -0.08668
 13 Cu   -0.01878    0.00951   -0.07225
 14 Cu    0.00322   -0.00095   -0.07363
 15 Cu    0.00427   -0.10526    0.04065
 16 Cu   -0.01922   -0.01694   -0.05841
 17 Cu    0.03110   -0.01247   -0.06738
 18 Cu   -0.03389    0.02531   -0.07299
 19 Cu    0.04012    0.02638   -0.06444
 20 Cu    0.01733   -0.01337   -0.09026
 21 Cu    0.00825   -0.00946   -0.17434
 22 Cu   -0.05202   -0.00323   -0.05952
 23 Cu    0.09572    0.01084   -0.02932
 24 Cu    0.00050   -0.00532    0.00156
 25 Cu   -0.00569    0.01725    0.00298
 26 Cu    0.00157    0.00046   -0.00417
 27 Cu    0.00235    0.00771    0.00688
 28 Cu    0.00221    0.00409   -0.00219
 29 Cu    0.00442   -0.00162    0.00050
 30 Cu   -0.00049    0.00055    0.00124
 31 Cu    0.00261    0.00272    0.00025
 32 Cu    0.00028   -0.00169   -0.00284
 33 Cu    0.00051    0.00575   -0.00537
 34 Cu   -0.00098    0.00434   -0.00083
 35 Cu   -0.00192   -0.00439   -0.00104
 36 O    -0.00234   -0.05414    0.14619
 37 C    -0.01366    0.02070   -0.16238
 38 H     0.01234    0.03065    0.01721
 39 O    -0.01696   -0.02762   -0.03404
 40 H    -0.00813    0.00273   -0.01064
 41 H    -0.00756   -0.00014   -0.02106
 42 O    -0.01643    0.00008   -0.00415
 43 H     0.01958    0.02836   -0.00219
 44 H    -0.00182   -0.00103    0.00553
 45 O    -0.00950    0.00018   -0.00702
 46 H    -0.01024    0.02879    0.00788
 47 H    -0.00645    0.00368   -0.01040
 48 O    -0.01099   -0.00133   -0.00037
 49 H    -0.01145   -0.00294    0.00509
 50 H    -0.01766   -0.00622    0.00780
 51 O    -0.00280   -0.01504   -0.00240
 52 H     0.00846    0.02352   -0.00118
 53 H     0.00477    0.00468    0.01065
 54 O    -0.01093   -0.02894   -0.03661
 55 H     0.00653    0.01687   -0.00937
 56 H    -0.01325   -0.01196    0.01851
 57 O     0.00233   -0.00321   -0.00892
 58 H    -0.00046    0.01137    0.01932
 59 H    -0.01464    0.01204   -0.01438
 60 O    -0.00852   -0.01868   -0.00859
 61 H    -0.01511    0.00196   -0.00836
 62 H     0.00182    0.01614   -0.02040

Density initialized from wave functions

------------
Jellium properties changed!
Current number of Excess Electrons: 0.93033
Jellium size parameters:
  Lower boundary: 19.077102384657554
  Upper boundary: 22.077102384657554
------------

System changes: positions 

Initializing position-dependent things.

Solvation position-dependent initialization:
  Atomic radii for <class 'gpaw.solvation.sjm.SJMPower12Potential'>:
      0 Cu    1.54000
      1 Cu    1.54000
      2 Cu    1.54000
      3 Cu    1.54000
      4 Cu    1.54000
      5 Cu    1.54000
      6 Cu    1.54000
      7 Cu    1.54000
      8 Cu    1.54000
      9 Cu    1.54000
     10 Cu    1.54000
     11 Cu    1.54000
     12 Cu    1.54000
     13 Cu    1.54000
     14 Cu    1.54000
     15 Cu    1.54000
     16 Cu    1.54000
     17 Cu    1.54000
     18 Cu    1.54000
     19 Cu    1.54000
     20 Cu    1.54000
     21 Cu    1.54000
     22 Cu    1.54000
     23 Cu    1.54000
     24 Cu    1.54000
     25 Cu    1.54000
     26 Cu    1.54000
     27 Cu    1.54000
     28 Cu    1.54000
     29 Cu    1.54000
     30 Cu    1.54000
     31 Cu    1.54000
     32 Cu    1.54000
     33 Cu    1.54000
     34 Cu    1.54000
     35 Cu    1.54000
     36 O     1.52000
     37 C     1.70000
     38 H     1.20000
     39 O     1.52000
     40 H     1.20000
     41 H     1.20000
     42 O     1.52000
     43 H     1.20000
     44 H     1.20000
     45 O     1.52000
     46 H     1.20000
     47 H     1.20000
     48 O     1.52000
     49 H     1.20000
     50 H     1.20000
     51 O     1.52000
     52 H     1.20000
     53 H     1.20000
     54 O     1.52000
     55 H     1.20000
     56 H     1.20000
     57 O     1.52000
     58 H     1.20000
     59 H     1.20000
     60 O     1.52000
     61 H     1.20000
     62 H     1.20000
Density initialized from wave functions
       .------------------.  
      /|                  |  
     / |                  |  
    /  |                  |  
   /   |                  |  
  /    |                  |  
 *     |                  |  
 |     |                  |  
 |     |                  |  
 |     |                  |  
 |     |                  |  
 |     |                  |  
 |     |    H         O   |  
 |     |  O O           H |  
 |     |  H   H    H      |  
 |     |  H       OH      |  
 | H   | H          O     |  
 |     O O H      H       |  
 |     H CCu   O Hu    Cu |  
 |     |                  |  
 |   Cu|   CCu H  Cu    Cu|  
 |     Cu    CCu   CCu    |  
 |     |                  |  
 | Cu  |CCu   CCu   CCu   |  
 |  Cu | CCu    Cu    Cu  |  
 |     |                  |  
 |   Cu|   Cu    Cu       |  
 |    Cu     Cu    Cu     |  
 |     |                  |  
 |     |                  |  
 |     |                  |  
 |     .------------------.  
 |    /                  /   
 |   /                  /    
 |  /                  /     
 | /                  /      
 |/                  /       
 *------------------*        

Positions:
   0 Cu     1.822290    5.843970    7.000000    ( 0.0000,  0.0000,  0.0000)
   1 Cu     4.466869    5.843970    7.000000    ( 0.0000,  0.0000,  0.0000)
   2 Cu     7.111448    5.843970    7.000000    ( 0.0000,  0.0000,  0.0000)
   3 Cu     0.500000    8.134243    7.000000    ( 0.0000,  0.0000,  0.0000)
   4 Cu     3.144579    8.134243    7.000000    ( 0.0000,  0.0000,  0.0000)
   5 Cu     5.789159    8.134243    7.000000    ( 0.0000,  0.0000,  0.0000)
   6 Cu     1.822290    1.263424    7.000000    ( 0.0000,  0.0000,  0.0000)
   7 Cu     4.466869    1.263424    7.000000    ( 0.0000,  0.0000,  0.0000)
   8 Cu     7.111448    1.263424    7.000000    ( 0.0000,  0.0000,  0.0000)
   9 Cu     0.500000    3.553697    7.000000    ( 0.0000,  0.0000,  0.0000)
  10 Cu     3.144579    3.553697    7.000000    ( 0.0000,  0.0000,  0.0000)
  11 Cu     5.789159    3.553697    7.000000    ( 0.0000,  0.0000,  0.0000)
  12 Cu     0.500000    6.607394    9.159290    ( 0.0000,  0.0000,  0.0000)
  13 Cu     3.144579    6.607394    9.159290    ( 0.0000,  0.0000,  0.0000)
  14 Cu     5.789159    6.607394    9.159290    ( 0.0000,  0.0000,  0.0000)
  15 Cu     1.822290    8.897667    9.159290    ( 0.0000,  0.0000,  0.0000)
  16 Cu     4.466869    8.897667    9.159290    ( 0.0000,  0.0000,  0.0000)
  17 Cu     7.111448    8.897667    9.159290    ( 0.0000,  0.0000,  0.0000)
  18 Cu     0.500000    2.026849    9.159290    ( 0.0000,  0.0000,  0.0000)
  19 Cu     3.144579    2.026849    9.159290    ( 0.0000,  0.0000,  0.0000)
  20 Cu     5.789159    2.026849    9.159290    ( 0.0000,  0.0000,  0.0000)
  21 Cu     1.822290    4.317122    9.159290    ( 0.0000,  0.0000,  0.0000)
  22 Cu     4.466869    4.317122    9.159290    ( 0.0000,  0.0000,  0.0000)
  23 Cu     7.111448    4.317122    9.159290    ( 0.0000,  0.0000,  0.0000)
  24 Cu     0.488916    5.045055   11.318774    ( 0.0000,  0.0000,  0.0000)
  25 Cu     3.195386    4.994755   11.318248    ( 0.0000,  0.0000,  0.0000)
  26 Cu     5.792915    5.056110   11.281319    ( 0.0000,  0.0000,  0.0000)
  27 Cu     1.816878    7.426019   11.373955    ( 0.0000,  0.0000,  0.0000)
  28 Cu     4.473049    7.358707   11.294929    ( 0.0000,  0.0000,  0.0000)
  29 Cu     7.096655    7.363197   11.292513    ( 0.0000,  0.0000,  0.0000)
  30 Cu     0.496124    0.496815   11.298778    ( 0.0000,  0.0000,  0.0000)
  31 Cu     3.140763    0.493713   11.299573    ( 0.0000,  0.0000,  0.0000)
  32 Cu     5.786202    0.479111   11.288485    ( 0.0000,  0.0000,  0.0000)
  33 Cu     1.817756    2.753736   11.288130    ( 0.0000,  0.0000,  0.0000)
  34 Cu     4.475245    2.756487   11.297841    ( 0.0000,  0.0000,  0.0000)
  35 Cu     7.104552    2.768212   11.298950    ( 0.0000,  0.0000,  0.0000)
  36 O      1.887803    5.706153   13.872608    ( 0.0000,  0.0000,  0.0000)
  37 C      1.880489    5.834395   12.526529    ( 0.0000,  0.0000,  0.0000)
  38 H      1.771369    6.594131   14.290647    ( 0.0000,  0.0000,  0.0000)
  39 O      7.056892    2.636608   15.922159    ( 0.0000,  0.0000,  0.0000)
  40 H      7.964705    2.664214   15.562380    ( 0.0000,  0.0000,  0.0000)
  41 H      6.616292    3.423685   15.542469    ( 0.0000,  0.0000,  0.0000)
  42 O      5.720884    0.399769   14.803637    ( 0.0000,  0.0000,  0.0000)
  43 H      6.234229    1.191967   15.074392    ( 0.0000,  0.0000,  0.0000)
  44 H      5.700618    0.410913   13.825242    ( 0.0000,  0.0000,  0.0000)
  45 O      3.321458    0.595190   16.193460    ( 0.0000,  0.0000,  0.0000)
  46 H      4.158644    0.518772   15.685552    ( 0.0000,  0.0000,  0.0000)
  47 H      2.898608    1.399284   15.833717    ( 0.0000,  0.0000,  0.0000)
  48 O      6.863575    7.250524   15.948782    ( 0.0000,  0.0000,  0.0000)
  49 H      7.777943    7.403557   15.654563    ( 0.0000,  0.0000,  0.0000)
  50 H      6.398731    8.017597   15.552176    ( 0.0000,  0.0000,  0.0000)
  51 O      5.673596    4.920778   14.873258    ( 0.0000,  0.0000,  0.0000)
  52 H      6.135188    5.755063   15.106799    ( 0.0000,  0.0000,  0.0000)
  53 H      5.601021    4.913410   13.898950    ( 0.0000,  0.0000,  0.0000)
  54 O      1.426637    8.233913   14.794595    ( 0.0000,  0.0000,  0.0000)
  55 H      2.154127    8.701960   15.261989    ( 0.0000,  0.0000,  0.0000)
  56 H      1.409976    8.593440   13.884115    ( 0.0000,  0.0000,  0.0000)
  57 O      3.457022    4.769307   16.611000    ( 0.0000,  0.0000,  0.0000)
  58 H      4.158690    4.857768   15.932323    ( 0.0000,  0.0000,  0.0000)
  59 H      2.902691    5.549620   16.487738    ( 0.0000,  0.0000,  0.0000)
  60 O      1.831833    2.660374   14.879172    ( 0.0000,  0.0000,  0.0000)
  61 H      2.188265    3.560348   14.943971    ( 0.0000,  0.0000,  0.0000)
  62 H      1.793834    2.480623   13.918304    ( 0.0000,  0.0000,  0.0000)

Unit cell:
           periodic     x           y           z      points  spacing
  1. axis:    yes    7.933738    0.000000    0.000000    48     0.1653
  2. axis:    yes    0.000000    9.161092    0.000000    48     0.1909
  3. axis:    no     0.000000    0.000000   25.000000   136     0.1838

  Lengths:   7.933738   9.161092  25.000000
  Angles:   90.000000  90.000000  90.000000

Effective grid spacing dv^(1/3) = 0.1797

                     log10-error:    total        iterations:
           time      wfs    density  energy       fermi  poisson
iter:   1  23:38:49  -3.62         -2985.955368    2      12     
iter:   2  23:39:43  -4.38  -3.63  -2985.953679    2      7      
iter:   3  23:40:36  -4.93  -3.82  -2985.954304    2      4      
iter:   4  23:41:30  -5.10  -3.88  -2985.955822    2      7      
iter:   5  23:42:24  -5.03  -3.87  -2985.953969    2      8      
iter:   6  23:43:18  -5.36  -3.69  -2985.955139    2      6      
iter:   7  23:44:12  -5.64  -4.42  -2985.955276    2      4      
iter:   8  23:45:05  -5.89  -4.34  -2985.953858    2      5      
iter:   9  23:45:59  -6.41  -4.17  -2985.954130    2      4      
iter:  10  23:46:52  -6.24  -4.41  -2985.955021    2      4      
iter:  11  23:47:46  -7.13  -4.53  -2985.954720    2      3      
iter:  12  23:48:39  -6.83  -4.82  -2985.954235    2      3      
iter:  13  23:49:32  -6.70  -4.62  -2985.954671    2      4      
iter:  14  23:50:25  -7.25  -4.79  -2985.954445    2      3      
iter:  15  23:51:18  -8.00  -4.97  -2985.954296    2      1      

Converged after 15 iterations.

Dipole moment: (-17.456072, -1.451041, 4.446439) |e|*Ang

Cavity Surface Area: 127.9181512601924
Cavity Volume: not calculated (no calculator defined)

Solvation Energy Contributions:
surf:            +0.146906
el (free):     -2986.320820
el (extrpol.): -2986.101202
el (free) is composed of:
Energy contributions relative to reference atoms: (reference = -1640379.897864)

Kinetic:       +387.296132
Potential:     -443.043449
External:        +0.000000
XC:            -2935.389119
Entropy (-ST):   -0.439235
Local:           +5.254851
--------------------------
Free energy:   -2986.173914
Extrapolated:  -2985.954296

Dipole-layer corrected work functions: 4.883680, 2.682937 eV

----------------------------------------------------------
Grand Potential Energy (E_tot + E_solv - mu*ne):
Extrpol:    -2983.4582881486913
Free:    -2983.677905873562
-----------------------------------------------------------
Grand canonical energy will be written into results

Fermi level: -3.78331

Showing only first 2 kpts
 Kpt  Band  Eigenvalues  Occupancy
  0   233     -4.33709    0.33203
  0   234     -4.03812    0.30915
  0   235     -3.94337    0.27737
  0   236     -3.71783    0.11397

  1   233     -4.27903    0.33101
  1   234     -4.15164    0.32516
  1   235     -3.92187    0.26663
  1   236     -3.82731    0.20275


Slope of potential versus ne: -3.82836961 V/e

Capacitance of -30417.8108 muF/cm2


Forces in eV/Ang:
  0 Cu    0.01265   -0.01061    0.09163
  1 Cu    0.05266   -0.00296    0.09239
  2 Cu   -0.02559   -0.00382    0.09503
  3 Cu   -0.01685    0.00967    0.09299
  4 Cu    0.04378    0.01184    0.09360
  5 Cu    0.01218   -0.02674    0.11635
  6 Cu    0.01307   -0.00124    0.10515
  7 Cu    0.00834   -0.00437    0.12054
  8 Cu    0.01785    0.00080    0.11992
  9 Cu   -0.01660   -0.00418    0.07731
 10 Cu    0.04042   -0.00175    0.07565
 11 Cu    0.01475    0.02485    0.11018
 12 Cu    0.02600    0.02410   -0.08307
 13 Cu   -0.01925    0.01025   -0.06943
 14 Cu    0.00362   -0.00037   -0.07223
 15 Cu    0.00445   -0.10598    0.04229
 16 Cu   -0.01973   -0.01675   -0.05702
 17 Cu    0.03149   -0.01243   -0.06594
 18 Cu   -0.03431    0.02530   -0.07213
 19 Cu    0.04046    0.02630   -0.06456
 20 Cu    0.01718   -0.01336   -0.08831
 21 Cu    0.00855   -0.00803   -0.17215
 22 Cu   -0.05273   -0.00311   -0.05779
 23 Cu    0.09593    0.01022   -0.02695
 24 Cu    0.00067    0.00093   -0.00294
 25 Cu   -0.00559    0.01229    0.00009
 26 Cu    0.00471   -0.00232   -0.00050
 27 Cu    0.00208    0.01471   -0.00712
 28 Cu    0.00067    0.00519   -0.00069
 29 Cu    0.00048   -0.00117    0.00306
 30 Cu   -0.00649   -0.00010    0.00607
 31 Cu    0.00832   -0.00280    0.00586
 32 Cu    0.00015    0.00073    0.00179
 33 Cu    0.00016    0.00200    0.00162
 34 Cu    0.00127    0.00519    0.00263
 35 Cu   -0.00304    0.00031   -0.00171
 36 O     0.00136   -0.06477    0.10564
 37 C    -0.01083    0.00642   -0.11335
 38 H     0.01098    0.04304    0.01785
 39 O    -0.01119   -0.01933   -0.02189
 40 H    -0.01369    0.00754   -0.01788
 41 H     0.00233   -0.00356   -0.02573
 42 O    -0.01607   -0.00264   -0.02298
 43 H     0.02043    0.03199    0.00120
 44 H    -0.00419   -0.00267    0.02019
 45 O    -0.00722    0.00023   -0.00121
 46 H    -0.01761    0.03019    0.00402
 47 H    -0.00010   -0.00231   -0.01358
 48 O    -0.00574    0.01359    0.00739
 49 H    -0.00966   -0.00168   -0.00019
 50 H    -0.01614   -0.00579    0.00495
 51 O    -0.00971   -0.02031   -0.01651
 52 H     0.01026    0.02371   -0.00257
 53 H     0.00685    0.00598    0.02691
 54 O    -0.02218   -0.01489   -0.03896
 55 H     0.00813    0.01741   -0.01666
 56 H    -0.00745   -0.01635    0.03223
 57 O     0.01361   -0.00687   -0.00700
 58 H    -0.00657    0.01123    0.01934
 59 H    -0.01549    0.01414   -0.01627
 60 O    -0.01434   -0.02720   -0.01982
 61 H    -0.01287    0.00541   -0.01528
 62 H     0.00454    0.02539   -0.00043

Density initialized from wave functions

------------
Jellium properties changed!
Current number of Excess Electrons: 0.92587
Jellium size parameters:
  Lower boundary: 19.077102384657554
  Upper boundary: 22.077102384657554
------------

System changes: positions 

Initializing position-dependent things.

Solvation position-dependent initialization:
  Atomic radii for <class 'gpaw.solvation.sjm.SJMPower12Potential'>:
      0 Cu    1.54000
      1 Cu    1.54000
      2 Cu    1.54000
      3 Cu    1.54000
      4 Cu    1.54000
      5 Cu    1.54000
      6 Cu    1.54000
      7 Cu    1.54000
      8 Cu    1.54000
      9 Cu    1.54000
     10 Cu    1.54000
     11 Cu    1.54000
     12 Cu    1.54000
     13 Cu    1.54000
     14 Cu    1.54000
     15 Cu    1.54000
     16 Cu    1.54000
     17 Cu    1.54000
     18 Cu    1.54000
     19 Cu    1.54000
     20 Cu    1.54000
     21 Cu    1.54000
     22 Cu    1.54000
     23 Cu    1.54000
     24 Cu    1.54000
     25 Cu    1.54000
     26 Cu    1.54000
     27 Cu    1.54000
     28 Cu    1.54000
     29 Cu    1.54000
     30 Cu    1.54000
     31 Cu    1.54000
     32 Cu    1.54000
     33 Cu    1.54000
     34 Cu    1.54000
     35 Cu    1.54000
     36 O     1.52000
     37 C     1.70000
     38 H     1.20000
     39 O     1.52000
     40 H     1.20000
     41 H     1.20000
     42 O     1.52000
     43 H     1.20000
     44 H     1.20000
     45 O     1.52000
     46 H     1.20000
     47 H     1.20000
     48 O     1.52000
     49 H     1.20000
     50 H     1.20000
     51 O     1.52000
     52 H     1.20000
     53 H     1.20000
     54 O     1.52000
     55 H     1.20000
     56 H     1.20000
     57 O     1.52000
     58 H     1.20000
     59 H     1.20000
     60 O     1.52000
     61 H     1.20000
     62 H     1.20000
Density initialized from wave functions
       .------------------.  
      /|                  |  
     / |                  |  
    /  |                  |  
   /   |                  |  
  /    |                  |  
 *     |                  |  
 |     |                  |  
 |     |                  |  
 |     |                  |  
 |     |                  |  
 |     |                  |  
 |     |    H         O   |  
 |     |  O O           H |  
 |     |  H   H    H      |  
 |     |  H       OH      |  
 | H   | H          O     |  
 |     O O H      H       |  
 |     H CCu   O Hu    Cu |  
 |     |                  |  
 |   Cu|   CCu H  Cu    Cu|  
 |     Cu    CCu   CCu    |  
 |     |                  |  
 | Cu  |CCu   CCu   CCu   |  
 |  Cu | CCu    Cu    Cu  |  
 |     |                  |  
 |   Cu|   Cu    Cu       |  
 |    Cu     Cu    Cu     |  
 |     |                  |  
 |     |                  |  
 |     |                  |  
 |     .------------------.  
 |    /                  /   
 |   /                  /    
 |  /                  /     
 | /                  /      
 |/                  /       
 *------------------*        

Positions:
   0 Cu     1.822290    5.843970    7.000000    ( 0.0000,  0.0000,  0.0000)
   1 Cu     4.466869    5.843970    7.000000    ( 0.0000,  0.0000,  0.0000)
   2 Cu     7.111448    5.843970    7.000000    ( 0.0000,  0.0000,  0.0000)
   3 Cu     0.500000    8.134243    7.000000    ( 0.0000,  0.0000,  0.0000)
   4 Cu     3.144579    8.134243    7.000000    ( 0.0000,  0.0000,  0.0000)
   5 Cu     5.789159    8.134243    7.000000    ( 0.0000,  0.0000,  0.0000)
   6 Cu     1.822290    1.263424    7.000000    ( 0.0000,  0.0000,  0.0000)
   7 Cu     4.466869    1.263424    7.000000    ( 0.0000,  0.0000,  0.0000)
   8 Cu     7.111448    1.263424    7.000000    ( 0.0000,  0.0000,  0.0000)
   9 Cu     0.500000    3.553697    7.000000    ( 0.0000,  0.0000,  0.0000)
  10 Cu     3.144579    3.553697    7.000000    ( 0.0000,  0.0000,  0.0000)
  11 Cu     5.789159    3.553697    7.000000    ( 0.0000,  0.0000,  0.0000)
  12 Cu     0.500000    6.607394    9.159290    ( 0.0000,  0.0000,  0.0000)
  13 Cu     3.144579    6.607394    9.159290    ( 0.0000,  0.0000,  0.0000)
  14 Cu     5.789159    6.607394    9.159290    ( 0.0000,  0.0000,  0.0000)
  15 Cu     1.822290    8.897667    9.159290    ( 0.0000,  0.0000,  0.0000)
  16 Cu     4.466869    8.897667    9.159290    ( 0.0000,  0.0000,  0.0000)
  17 Cu     7.111448    8.897667    9.159290    ( 0.0000,  0.0000,  0.0000)
  18 Cu     0.500000    2.026849    9.159290    ( 0.0000,  0.0000,  0.0000)
  19 Cu     3.144579    2.026849    9.159290    ( 0.0000,  0.0000,  0.0000)
  20 Cu     5.789159    2.026849    9.159290    ( 0.0000,  0.0000,  0.0000)
  21 Cu     1.822290    4.317122    9.159290    ( 0.0000,  0.0000,  0.0000)
  22 Cu     4.466869    4.317122    9.159290    ( 0.0000,  0.0000,  0.0000)
  23 Cu     7.111448    4.317122    9.159290    ( 0.0000,  0.0000,  0.0000)
  24 Cu     0.488583    5.043536   11.319193    ( 0.0000,  0.0000,  0.0000)
  25 Cu     3.195394    4.997174   11.318384    ( 0.0000,  0.0000,  0.0000)
  26 Cu     5.792649    5.056480   11.280410    ( 0.0000,  0.0000,  0.0000)
  27 Cu     1.817190    7.426998   11.375640    ( 0.0000,  0.0000,  0.0000)
  28 Cu     4.473499    7.359004   11.294615    ( 0.0000,  0.0000,  0.0000)
  29 Cu     7.097595    7.363001   11.292351    ( 0.0000,  0.0000,  0.0000)
  30 Cu     0.496862    0.496990   11.298312    ( 0.0000,  0.0000,  0.0000)
  31 Cu     3.140290    0.494805   11.299000    ( 0.0000,  0.0000,  0.0000)
  32 Cu     5.786252    0.478627   11.287735    ( 0.0000,  0.0000,  0.0000)
  33 Cu     1.817889    2.754814   11.286682    ( 0.0000,  0.0000,  0.0000)
  34 Cu     4.474858    2.756902   11.297434    ( 0.0000,  0.0000,  0.0000)
  35 Cu     7.104448    2.767100   11.299058    ( 0.0000,  0.0000,  0.0000)
  36 O      1.886707    5.704905   13.873527    ( 0.0000,  0.0000,  0.0000)
  37 C      1.878451    5.835752   12.524331    ( 0.0000,  0.0000,  0.0000)
  38 H      1.773549    6.594077   14.291570    ( 0.0000,  0.0000,  0.0000)
  39 O      7.054754    2.633782   15.917247    ( 0.0000,  0.0000,  0.0000)
  40 H      7.964360    2.663587   15.562201    ( 0.0000,  0.0000,  0.0000)
  41 H      6.614336    3.422944   15.541021    ( 0.0000,  0.0000,  0.0000)
  42 O      5.719836    0.401710   14.803925    ( 0.0000,  0.0000,  0.0000)
  43 H      6.235587    1.193537   15.073267    ( 0.0000,  0.0000,  0.0000)
  44 H      5.700668    0.410947   13.825663    ( 0.0000,  0.0000,  0.0000)
  45 O      3.319367    0.595430   16.191513    ( 0.0000,  0.0000,  0.0000)
  46 H      4.158876    0.521881   15.686967    ( 0.0000,  0.0000,  0.0000)
  47 H      2.896701    1.400333   15.833066    ( 0.0000,  0.0000,  0.0000)
  48 O      6.861724    7.248703   15.947837    ( 0.0000,  0.0000,  0.0000)
  49 H      7.776451    7.403030   15.655764    ( 0.0000,  0.0000,  0.0000)
  50 H      6.396324    8.016555   15.553770    ( 0.0000,  0.0000,  0.0000)
  51 O      5.674994    4.921052   14.873532    ( 0.0000,  0.0000,  0.0000)
  52 H      6.135336    5.756686   15.106814    ( 0.0000,  0.0000,  0.0000)
  53 H      5.601271    4.913619   13.899422    ( 0.0000,  0.0000,  0.0000)
  54 O      1.428393    8.230901   14.792960    ( 0.0000,  0.0000,  0.0000)
  55 H      2.153090    8.702934   15.261113    ( 0.0000,  0.0000,  0.0000)
  56 H      1.407242    8.592634   13.883533    ( 0.0000,  0.0000,  0.0000)
  57 O      3.455619    4.769831   16.610289    ( 0.0000,  0.0000,  0.0000)
  58 H      4.159552    4.859262   15.934338    ( 0.0000,  0.0000,  0.0000)
  59 H      2.901228    5.550209   16.485960    ( 0.0000,  0.0000,  0.0000)
  60 O      1.831651    2.659329   14.876719    ( 0.0000,  0.0000,  0.0000)
  61 H      2.185823    3.560402   14.944047    ( 0.0000,  0.0000,  0.0000)
  62 H      1.793539    2.481565   13.915345    ( 0.0000,  0.0000,  0.0000)

Unit cell:
           periodic     x           y           z      points  spacing
  1. axis:    yes    7.933738    0.000000    0.000000    48     0.1653
  2. axis:    yes    0.000000    9.161092    0.000000    48     0.1909
  3. axis:    no     0.000000    0.000000   25.000000   136     0.1838

  Lengths:   7.933738   9.161092  25.000000
  Angles:   90.000000  90.000000  90.000000

Effective grid spacing dv^(1/3) = 0.1797

                     log10-error:    total        iterations:
           time      wfs    density  energy       fermi  poisson
iter:   1  00:01:00  -3.28         -2985.944130    2      13     
iter:   2  00:01:55  -4.06  -3.51  -2985.945476    2      10     
iter:   3  00:02:48  -4.55  -3.68  -2985.944468    2      5      
iter:   4  00:03:42  -4.71  -3.83  -2985.944216    2      6      
iter:   5  00:04:36  -4.92  -3.92  -2985.945216    2      6      
iter:   6  00:05:29  -5.15  -3.74  -2985.944053    2      5      
iter:   7  00:06:22  -5.86  -4.06  -2985.943924    1      3      
iter:   8  00:07:16  -5.53  -4.16  -2985.943400    2      5      
iter:   9  00:08:09  -6.06  -4.56  -2985.943429    2      3      
iter:  10  00:09:02  -6.41  -4.46  -2985.943364    2      3      
iter:  11  00:09:55  -5.89  -4.27  -2985.944037    2      4      
iter:  12  00:10:48  -6.49  -4.71  -2985.944055    2      2      
iter:  13  00:11:41  -6.89  -4.87  -2985.944078    2      3      
iter:  14  00:12:34  -7.29  -4.76  -2985.944126    2      2      
iter:  15  00:13:27  -7.30  -4.87  -2985.943889    2      2      
iter:  16  00:14:20  -7.08  -5.09  -2985.943733    2      3      
iter:  17  00:15:13  -7.52  -5.20  -2985.943849    2      3      

Converged after 17 iterations.

Dipole moment: (-17.433362, -1.389370, 4.424854) |e|*Ang

Cavity Surface Area: 127.87750802046914
Cavity Volume: not calculated (no calculator defined)

Solvation Energy Contributions:
surf:            +0.146859
el (free):     -2986.310324
el (extrpol.): -2986.090709
el (free) is composed of:
Energy contributions relative to reference atoms: (reference = -1640379.897864)

Kinetic:       +387.184548
Potential:     -442.975939
External:        +0.000000
XC:            -2935.335514
Entropy (-ST):   -0.439230
Local:           +5.255812
--------------------------
Free energy:   -2986.163464
Extrapolated:  -2985.943849

Dipole-layer corrected work functions: 4.884295, 2.695971 eV

----------------------------------------------------------
Grand Potential Energy (E_tot + E_solv - mu*ne):
Extrpol:    -2983.447731606315
Free:    -2983.6673466966777
-----------------------------------------------------------
Grand canonical energy will be written into results

Fermi level: -3.79013

Showing only first 2 kpts
 Kpt  Band  Eigenvalues  Occupancy
  0   233     -4.34467    0.33204
  0   234     -4.04475    0.30911
  0   235     -3.94967    0.27712
  0   236     -3.72487    0.11413

  1   233     -4.28549    0.33100
  1   234     -4.15806    0.32513
  1   235     -3.92828    0.26641
  1   236     -3.83226    0.20126


Slope of potential versus ne: -2.92431990 V/e

Capacitance of -39821.4375 muF/cm2


Forces in eV/Ang:
  0 Cu    0.01275   -0.01046    0.09013
  1 Cu    0.05262   -0.00293    0.09096
  2 Cu   -0.02567   -0.00368    0.09339
  3 Cu   -0.01711    0.00963    0.09150
  4 Cu    0.04392    0.01172    0.09213
  5 Cu    0.01225   -0.02668    0.11466
  6 Cu    0.01308   -0.00129    0.10359
  7 Cu    0.00849   -0.00428    0.11911
  8 Cu    0.01769    0.00058    0.11859
  9 Cu   -0.01672   -0.00410    0.07569
 10 Cu    0.04068   -0.00175    0.07410
 11 Cu    0.01464    0.02484    0.10853
 12 Cu    0.02691    0.02359   -0.08387
 13 Cu   -0.01955    0.01149   -0.07137
 14 Cu    0.00416    0.00037   -0.07480
 15 Cu    0.00470   -0.10711    0.04011
 16 Cu   -0.02022   -0.01669   -0.05987
 17 Cu    0.03184   -0.01267   -0.06863
 18 Cu   -0.03515    0.02538   -0.07560
 19 Cu    0.04123    0.02643   -0.06909
 20 Cu    0.01692   -0.01337   -0.09066
 21 Cu    0.00908   -0.00645   -0.17476
 22 Cu   -0.05353   -0.00294   -0.06014
 23 Cu    0.09606    0.00938   -0.02861
 24 Cu   -0.00129    0.00726   -0.00945
 25 Cu   -0.00299    0.00450   -0.00503
 26 Cu    0.00788   -0.00529    0.00116
 27 Cu    0.00138    0.02250   -0.02384
 28 Cu   -0.00146    0.00576   -0.00022
 29 Cu   -0.00424   -0.00088    0.00442
 30 Cu   -0.01287   -0.00008    0.00860
 31 Cu    0.01395   -0.00841    0.00938
 32 Cu    0.00000    0.00338    0.00431
 33 Cu   -0.00015   -0.00232    0.00838
 34 Cu    0.00380    0.00602    0.00448
 35 Cu   -0.00393    0.00630   -0.00442
 36 O    -0.00055   -0.02935    0.01616
 37 C    -0.00655   -0.02030    0.00662
 38 H     0.01401    0.01910    0.00435
 39 O     0.00446    0.00670   -0.00221
 40 H    -0.01927    0.01137   -0.02503
 41 H     0.01554   -0.01113   -0.02776
 42 O    -0.00288    0.00621   -0.01770
 43 H     0.01051    0.01979    0.00079
 44 H    -0.00745   -0.00390    0.01846
 45 O    -0.00507   -0.00284    0.00078
 46 H    -0.02379    0.02637   -0.00162
 47 H     0.00466   -0.00804   -0.01548
 48 O     0.00317    0.02808    0.01722
 49 H    -0.00615    0.00190   -0.00752
 50 H    -0.01414   -0.00215    0.00117
 51 O    -0.00660   -0.00798   -0.01022
 52 H     0.00399    0.00710   -0.00582
 53 H     0.00673    0.00619    0.02708
 54 O    -0.02950    0.00180   -0.02673
 55 H     0.00857    0.01497   -0.02396
 56 H    -0.00225   -0.01590    0.03510
 57 O     0.01136   -0.00024    0.00213
 58 H    -0.00718    0.01046    0.01068
 59 H    -0.00803    0.00390   -0.01577
 60 O    -0.00789   -0.01070   -0.02014
 61 H    -0.01788   -0.00955   -0.02181
 62 H     0.00601    0.03002    0.00792

