0.091912  0.00000000
0.183824  0.00000000
0.275735  0.00000000
0.367647  0.00000000
0.459559  0.00000000
0.551471  0.00000000
0.643382  0.00000000
0.735294  0.00000000
0.827206  0.00000000
0.919118  0.00000000
1.011029  0.00000000
1.102941  0.00000000
1.194853  0.00000000
1.286765  0.00000000
1.378676  0.00000000
1.470588  0.00000000
1.562500  0.00000000
1.654412  0.00000000
1.746324  0.00000000
1.838235  0.00000000
1.930147  0.00000000
2.022059  0.00000000
2.113971  0.00000000
2.205882  0.00000000
2.297794  0.00000000
2.389706  0.00000000
2.481618  0.00000000
2.573529  0.00000000
2.665441  0.00000000
2.757353  0.00000000
2.849265  0.00000000
2.941176  0.00000000
3.033088  0.00000000
3.125000  0.00000000
3.216912  0.00000000
3.308824  0.00000000
3.400735  0.00000000
3.492647  0.00000000
3.584559  0.00000000
3.676471  0.00000000
3.768382  0.00000000
3.860294  0.00000000
3.952206  0.00000000
4.044118  0.00000000
4.136029  0.00000000
4.227941  0.00000000
4.319853  0.00000000
4.411765  0.00000000
4.503676  0.00000000
4.595588  0.00000000
4.687500  0.00000000
4.779412  0.00000000
4.871324  0.00000000
4.963235  0.00000000
5.055147  0.00000000
5.147059  0.00000000
5.238971  0.00000000
5.330882  0.00000000
5.422794  0.00000000
5.514706  0.00000000
5.606618  0.00000000
5.698529  0.00000000
5.790441  0.00000000
5.882353  0.00000000
5.974265  0.00000000
6.066176  0.00000000
6.158088  0.00000000
6.250000  0.00000000
6.341912  0.00000000
6.433824  0.00000000
6.525735  0.00000000
6.617647  0.00000000
6.709559  0.00000000
6.801471  0.00000000
6.893382  0.00000000
6.985294  0.00000000
7.077206  0.00000000
7.169118  0.00000000
7.261029  0.00000000
7.352941  0.00000000
7.444853  0.00000000
7.536765  0.00000000
7.628676  0.00000000
7.720588  0.00000000
7.812500  0.00000000
7.904412  0.00000000
7.996324  0.00000000
8.088235  0.00000000
8.180147  0.00000000
8.272059  0.00000000
8.363971  0.00000000
8.455882  0.00000000
8.547794  0.00000000
8.639706  0.00000000
8.731618  0.00000000
8.823529  0.00000000
8.915441  0.00000000
9.007353  0.00000000
9.099265  0.00000000
9.191176  0.00000000
9.283088  0.00000000
9.375000  0.00000000
9.466912  0.00000000
9.558824  0.00000000
9.650735  0.00000000
9.742647  0.00000000
9.834559  0.00000000
9.926471  0.00000000
10.018382  0.00000000
10.110294  0.00000000
10.202206  0.00000000
10.294118  0.00000000
10.386029  0.00000000
10.477941  0.00000000
10.569853  0.00000000
10.661765  0.00000000
10.753676  0.00000000
10.845588  0.00000000
10.937500  0.00000000
11.029412  0.00000000
11.121324  0.00000000
11.213235  0.00000000
11.305147  0.00000000
11.397059  0.00000000
11.488971  0.00000000
11.580882  0.00000000
11.672794  0.00000000
11.764706  0.00000000
11.856618  0.00000000
11.948529  0.00000000
12.040441  0.00000000
12.132353  0.00000000
12.224265  0.00000000
12.316176  0.00000000
12.408088  0.00000000
12.500000  0.00000000
12.591912  0.00000000
12.683824  0.00000000
12.775735  0.00000000
12.867647  0.00000000
12.959559  0.00000000
13.051471  0.00000357
13.143382  0.00020450
13.235294  0.00205373
13.327206  0.00787326
13.419118  0.01744855
13.511029  0.02810644
13.602941  0.03749915
13.694853  0.04474757
13.786765  0.05001935
13.878676  0.05387971
13.970588  0.05692191
14.062500  0.05964327
14.154412  0.06243465
14.246324  0.06559502
14.338235  0.06933661
14.430147  0.07378575
14.522059  0.07899576
14.613971  0.08497280
14.705882  0.09171603
14.797794  0.09927740
14.889706  0.10784277
14.981618  0.11781439
15.073529  0.12971166
15.165441  0.14346730
15.257353  0.15840703
15.349265  0.17429134
15.441176  0.19158445
15.533088  0.21135035
15.625000  0.23527117
15.716912  0.26493380
15.808824  0.30044183
15.900735  0.33917758
15.992647  0.37802520
16.084559  0.41579877
16.176471  0.45286514
16.268382  0.49009617
16.360294  0.52832751
16.452206  0.56821057
16.544118  0.61016814
16.636029  0.65384884
16.727941  0.69730109
16.819853  0.73861717
16.911765  0.77756983
17.003676  0.81491996
17.095588  0.85135029
17.187500  0.88643900
17.279412  0.91823984
17.371324  0.94407023
17.463235  0.96286882
17.555147  0.97560199
17.647059  0.98393144
17.738971  0.98932043
17.830882  0.99281429
17.922794  0.99509937
18.014706  0.99661166
18.106618  0.99762566
18.198529  0.99831466
18.290441  0.99878899
18.382353  0.99911967
18.474265  0.99935299
18.566176  0.99951952
18.658088  0.99963966
18.750000  0.99972724
18.841912  0.99979170
18.933824  0.99983959
19.025735  0.99987549
19.117647  0.99990261
19.209559  0.99992327
19.301471  0.99993913
19.393382  0.99995140
19.485294  0.99996094
19.577206  0.99996842
19.669118  0.99997432
19.761029  0.99997901
19.852941  0.99998274
19.944853  0.99998574
20.036765  0.99998816
20.128676  0.99999013
20.220588  0.99999173
20.312500  0.99999304
20.404412  0.99999412
20.496324  0.99999501
20.588235  0.99999575
20.680147  0.99999636
20.772059  0.99999688
20.863971  0.99999731
20.955882  0.99999768
21.047794  0.99999799
21.139706  0.99999825
21.231618  0.99999848
21.323529  0.99999867
21.415441  0.99999883
21.507353  0.99999898
21.599265  0.99999910
21.691176  0.99999920
21.783088  0.99999930
21.875000  0.99999937
21.966912  0.99999944
22.058824  0.99999951
22.150735  0.99999956
22.242647  0.99999961
22.334559  0.99999965
22.426471  0.99999968
22.518382  0.99999971
22.610294  0.99999974
22.702206  0.99999977
22.794118  0.99999979
22.886029  0.99999981
22.977941  0.99999983
23.069853  0.99999984
23.161765  0.99999986
23.253676  0.99999987
23.345588  0.99999988
23.437500  0.99999989
23.529412  0.99999990
23.621324  0.99999991
23.713235  0.99999992
23.805147  0.99999993
23.897059  0.99999993
23.988971  0.99999994
24.080882  0.99999994
24.172794  0.99999995
24.264706  0.99999995
24.356618  0.99999996
24.448529  0.99999996
24.540441  0.99999996
24.632353  0.99999997
24.724265  0.99999997
24.816176  0.99999997
24.908088  0.99999997
