# V_RHE  Hydrogen Methane Ethylene Acetate  Ethanol n-propanol
-0.6303 1.0872 1.0000 1.1561 1.1202 1.1382 1.0634
-0.6804 1.0703 1.2794 1.1825 1.1156 1.1860 1.1264
-0.7271 1.1434 1.2067 1.1598 1.2397 1.1074 1.1125
-0.7736 1.1800 1.2668 1.1048 1.2006 1.0957 1.0691
-0.8228 1.1099 1.1066 1.1564 1.1660 1.0985 1.0874
-0.8646 1.1347 1.1698 1.1489 1.0990 1.0914 1.0000
