0.091912  0.00000000
0.183824  0.00000000
0.275735  0.00000000
0.367647  0.00000000
0.459559  0.00000000
0.551471  0.00000000
0.643382  0.00000000
0.735294  0.00000000
0.827206  0.00000000
0.919118  0.00000000
1.011029  0.00000000
1.102941  0.00000000
1.194853  0.00000000
1.286765  0.00000000
1.378676  0.00000000
1.470588  0.00000000
1.562500  0.00000000
1.654412  0.00000000
1.746324  0.00000000
1.838235  0.00000000
1.930147  0.00000000
2.022059  0.00000000
2.113971  0.00000000
2.205882  0.00000000
2.297794  0.00000000
2.389706  0.00000000
2.481618  0.00000000
2.573529  0.00000000
2.665441  0.00000000
2.757353  0.00000000
2.849265  0.00000000
2.941176  0.00000000
3.033088  0.00000000
3.125000  0.00000000
3.216912  0.00000000
3.308824  0.00000000
3.400735  0.00000000
3.492647  0.00000000
3.584559  0.00000000
3.676471  0.00000000
3.768382  0.00000000
3.860294  0.00000000
3.952206  0.00000000
4.044118  0.00000000
4.136029  0.00000000
4.227941  0.00000000
4.319853  0.00000000
4.411765  0.00000000
4.503676  0.00000000
4.595588  0.00000000
4.687500  0.00000000
4.779412  0.00000000
4.871324  0.00000000
4.963235  0.00000000
5.055147  0.00000000
5.147059  0.00000000
5.238971  0.00000000
5.330882  0.00000000
5.422794  0.00000000
5.514706  0.00000000
5.606618  0.00000000
5.698529  0.00000000
5.790441  0.00000000
5.882353  0.00000000
5.974265  0.00000000
6.066176  0.00000000
6.158088  0.00000000
6.250000  0.00000000
6.341912  0.00000000
6.433824  0.00000000
6.525735  0.00000000
6.617647  0.00000000
6.709559  0.00000000
6.801471  0.00000000
6.893382  0.00000000
6.985294  0.00000000
7.077206  0.00000000
7.169118  0.00000000
7.261029  0.00000000
7.352941  0.00000000
7.444853  0.00000000
7.536765  0.00000000
7.628676  0.00000000
7.720588  0.00000000
7.812500  0.00000000
7.904412  0.00000000
7.996324  0.00000000
8.088235  0.00000000
8.180147  0.00000000
8.272059  0.00000000
8.363971  0.00000000
8.455882  0.00000000
8.547794  0.00000000
8.639706  0.00000000
8.731618  0.00000000
8.823529  0.00000000
8.915441  0.00000000
9.007353  0.00000000
9.099265  0.00000000
9.191176  0.00000000
9.283088  0.00000000
9.375000  0.00000000
9.466912  0.00000000
9.558824  0.00000000
9.650735  0.00000000
9.742647  0.00000000
9.834559  0.00000000
9.926471  0.00000000
10.018382  0.00000000
10.110294  0.00000000
10.202206  0.00000000
10.294118  0.00000000
10.386029  0.00000000
10.477941  0.00000000
10.569853  0.00000000
10.661765  0.00000000
10.753676  0.00000000
10.845588  0.00000000
10.937500  0.00000000
11.029412  0.00000000
11.121324  0.00000000
11.213235  0.00000000
11.305147  0.00000000
11.397059  0.00000000
11.488971  0.00000000
11.580882  0.00000000
11.672794  0.00000000
11.764706  0.00000000
11.856618  0.00000000
11.948529  0.00000000
12.040441  0.00000000
12.132353  0.00000000
12.224265  0.00000000
12.316176  0.00000000
12.408088  0.00000000
12.500000  0.00000000
12.591912  0.00000000
12.683824  0.00000000
12.775735  0.00000000
12.867647  0.00000000
12.959559  0.00000000
13.051471  0.00000000
13.143382  0.00000000
13.235294  0.00000000
13.327206  0.00000000
13.419118  0.00000000
13.511029  0.00000000
13.602941  0.00000000
13.694853  0.00000000
13.786765  0.00000000
13.878676  0.00000000
13.970588  0.00000000
14.062500  0.00000000
14.154412  0.00000000
14.246324  0.00000000
14.338235  0.00000000
14.430147  0.00000000
14.522059  0.00000000
14.613971  0.00000000
14.705882  0.00000000
14.797794  0.00000000
14.889706  0.00000020
14.981618  0.00003363
15.073529  0.00060040
15.165441  0.00316535
15.257353  0.00836976
15.349265  0.01481760
15.441176  0.02068681
15.533088  0.02506731
15.625000  0.02792397
15.716912  0.02960864
15.808824  0.03052186
15.900735  0.03098303
15.992647  0.03121918
16.084559  0.03139771
16.176471  0.03165802
16.268382  0.03213165
16.360294  0.03295458
16.452206  0.03427301
16.544118  0.03624547
16.636029  0.03904430
16.727941  0.04285837
16.819853  0.04790033
16.911765  0.05442122
17.003676  0.06273544
17.095588  0.07326384
17.187500  0.08661695
17.279412  0.10379147
17.371324  0.12649405
17.463235  0.15725733
17.555147  0.19908807
17.647059  0.25250958
17.738971  0.31214445
17.830882  0.37131939
17.922794  0.42714151
18.014706  0.47978264
18.106618  0.53044308
18.198529  0.58033373
18.290441  0.63036061
18.382353  0.68059261
18.474265  0.72994520
18.566176  0.77751650
18.658088  0.82259020
18.750000  0.86418764
18.841912  0.90111582
18.933824  0.93148733
19.025735  0.95412631
19.117647  0.96973924
19.209559  0.98005159
19.301471  0.98674989
19.393382  0.99109617
19.485294  0.99393670
19.577206  0.99581401
19.669118  0.99707075
19.761029  0.99792333
19.852941  0.99850940
19.944853  0.99891744
20.036765  0.99920501
20.128676  0.99941004
20.220588  0.99955783
20.312500  0.99966548
20.404412  0.99974467
20.496324  0.99980346
20.588235  0.99984750
20.680147  0.99988077
20.772059  0.99990611
20.863971  0.99992555
20.955882  0.99994058
21.047794  0.99995227
21.139706  0.99996143
21.231618  0.99996866
21.323529  0.99997439
21.415441  0.99997896
21.507353  0.99998263
21.599265  0.99998559
21.691176  0.99998799
21.783088  0.99998995
21.875000  0.99999155
21.966912  0.99999287
22.058824  0.99999396
22.150735  0.99999486
22.242647  0.99999561
22.334559  0.99999624
22.426471  0.99999677
22.518382  0.99999721
22.610294  0.99999759
22.702206  0.99999791
22.794118  0.99999818
22.886029  0.99999841
22.977941  0.99999861
23.069853  0.99999878
23.161765  0.99999893
23.253676  0.99999906
23.345588  0.99999917
23.437500  0.99999926
23.529412  0.99999935
23.621324  0.99999942
23.713235  0.99999948
23.805147  0.99999954
23.897059  0.99999959
23.988971  0.99999963
24.080882  0.99999967
24.172794  0.99999970
24.264706  0.99999973
24.356618  0.99999976
24.448529  0.99999978
24.540441  0.99999980
24.632353  0.99999982
24.724265  0.99999984
24.816176  0.99999985
24.908088  0.99999987
