# pH 3  | (V vs. RHE) | (V vs. SHE) | C2+ | C1 | HER
   -0.997   -1.174   0.005226215   0.006255593   3.586229379
   -1.039   -1.216   0.013175424   0.037214972   4.228030226
   -1.08    -1.257   0.018237571   0.107564407   5.844536215
   -1.123   -1.3     0.03282661    0.225669153   6.592178757
