#V_RHE  FE_tot  Hydrogen    Methane Ethylene    Allyl-Alcohol   n-propanol  Ethanol Acetate Methanol
 -0.605    82.4   4.16 0.0        10.94 0.0 1.86      2.11 0.71       0.0
 -0.636    87.0   7.39 0.0        23.50 0.57 3.68     4.53 2.11       0.0
 -0.653    88.8   8.92 0.0        35.75 0.85 5.51     8.05 4.88       0.0
 -0.665    91.1   11.12 0.25      47.27 1.35 6.57     11.85 9.06      0.0
 -0.677    86.1   14.43 1.46      68.52 1.01 6.37     16.33 15.79     0.0
 -0.695    89.2   45.70 14.0      90.78 1.41 5.95     26.34 29.91     0.0
