#V_RHE  I(mA/cm2)   Hydrogen    Methane Ethylene Ethanol    Acetate n-propanol
-0.492  2.5 36.5    0.0 19.3    7.4 5.2 10.3    
-0.538  5   43.1    0.0 24.0    6.5 4.7 10.0
-0.583  10  41.5    0.0 28.1    6.5 6.0 9.8
-0.657  25  32.3    0.4 27.4    7.8 11.6    4.5
