#V_RHE  I(mA/cm2)   CO Hydrogen Methane Ethanol Acetate n-propanol  Ethylene 
-0.85	-24.34	1.29	41.53	0.02	10.68	0.39	5.27	26.49
-0.9	-36.99	0.31	48.41	0.02	12.87	0.14	2.64	26.68
-0.95	-47.70	0.12	71.51	0.05	7.84	0.08	1.28	17.85
-1.00	-60.26	0.12	79.80	0.72	4.59	0.01	0.65	12.46





