# V_RHE  Hydrogen Methane Ethylene Acetate  Ethanol n-propanol
-0.6964 1.1866 1.5392 1.2224 1.0000 1.0000 1.0000
-0.7238 1.1773 1.4388 1.1508 1.0000 1.0000 1.0000
-0.7477 1.0812 1.3017 1.2531 1.0000 1.0000 1.0000
-0.7736 1.2773 1.2794 1.2025 1.0000 1.0000 1.0000
-0.7951 1.0700 1.3403 1.1663 1.0914 1.2300 1.1652
-0.8459 1.0566 1.0402 1.1711 1.0957 1.1479 1.1535
-0.8900 1.0852 1.2153 1.0713 1.1556 1.1644 1.1540
-0.9352 1.1771 1.2232 1.1387 1.1133 1.2148 1.1288
-0.9842 1.1169 1.2874 1.1548 1.1492 1.1833 1.1166
-1.0199 1.1125 1.0311 1.0318 1.0995 1.2868 1.0000
