#V_RHE	Formate	Allyl-alcohol   Ethylene-glycol	n-propanol	Glycolaldehyde	Methanol    Acetone Hydroxyacetone  Acetate Acetaldehyde    Ethanol Propionaldehyde Hydrogen Methane    CO  Ethylene
0.031   0.0031  0.0000  0.0002  0.0018  0.0000  0.0002  0.0000  0.0000  0.0002  0.0000  0.0080  0.0000  0.1679  0.1742  0.0024  0.0801
0.019   0.0010  0.0019  0.0001  0.0010  0.0079  0.0017  0.0002  0.0000  0.0001  0.0008  0.0040  0.0000  0.0536  0.0353  0.0007  0.0311
0.018   0.0006  0.0041  0.0004  0.0040  0.0013  0.0001  0.0002  0.0000  0.0006  0.0006  0.0082  0.0000  0.0157  0.0214  0.0019  0.0226
0.008   0.0024  0.0028  0.0001  0.0039  0.0011  0.0002  0.0002  0.0000  0.0005  0.0022  0.0040  0.0000  0.0096  0.0189  0.0016  0.0083
0.004   0.0572  0.0102  0.0015  0.0125  0.0002  0.0005  0.0003  0.0007  0.0025  0.0030  0.0088  0.0083  0.0046  0.0556  0.0188  0.0412
0.004   0.0987  0.0042  0.0005  0.0168  0.0000  0.0019  0.0002  0.0000  0.0011  0.0024  0.0160  0.0078  0.0675  0.0048  0.0117  0.0887
0.003   0.0731  0.0000  0.0000  0.0000  0.0000  0.0000  0.0000  0.0000  0.0000  0.0000  0.0000  0.0000  0.0449  0.0035  0.0161  0.0205
0.003   0.0132  0.0000  0.0000  0.0000  0.0000  0.0000  0.0000  0.0000  0.0000  0.0000  0.0000  0.0000  0.0215  0.0021  0.0157  0.0176
0.001   0.0677  0.0000  0.0000  0.0000  0.0000  0.0000  0.0000  0.0000  0.0000  0.0000  0.0000  0.0000  0.1658  0.0012  0.0322  0.0051
0.001   0.0051  0.0000  0.0000  0.0000  0.0000  0.0000  0.0000  0.0000  0.0000  0.0000  0.0000  0.0000  0.1779  0.0000  0.1951  0.0000
