0.091912  0.00000000
0.183824  0.00000000
0.275735  0.00000000
0.367647  0.00000000
0.459559  0.00000000
0.551471  0.00000000
0.643382  0.00000000
0.735294  0.00000000
0.827206  0.00000000
0.919118  0.00000000
1.011029  0.00000000
1.102941  0.00000000
1.194853  0.00000000
1.286765  0.00000000
1.378676  0.00000000
1.470588  0.00000000
1.562500  0.00000000
1.654412  0.00000000
1.746324  0.00000000
1.838235  0.00000000
1.930147  0.00000000
2.022059  0.00000000
2.113971  0.00000000
2.205882  0.00000000
2.297794  0.00000000
2.389706  0.00000000
2.481618  0.00000000
2.573529  0.00000000
2.665441  0.00000000
2.757353  0.00000000
2.849265  0.00000000
2.941176  0.00000000
3.033088  0.00000000
3.125000  0.00000000
3.216912  0.00000000
3.308824  0.00000000
3.400735  0.00000000
3.492647  0.00000000
3.584559  0.00000000
3.676471  0.00000000
3.768382  0.00000000
3.860294  0.00000000
3.952206  0.00000000
4.044118  0.00000000
4.136029  0.00000000
4.227941  0.00000000
4.319853  0.00000000
4.411765  0.00000000
4.503676  0.00000000
4.595588  0.00000000
4.687500  0.00000000
4.779412  0.00000000
4.871324  0.00000000
4.963235  0.00000000
5.055147  0.00000000
5.147059  0.00000000
5.238971  0.00000000
5.330882  0.00000000
5.422794  0.00000000
5.514706  0.00000000
5.606618  0.00000000
5.698529  0.00000000
5.790441  0.00000000
5.882353  0.00000000
5.974265  0.00000000
6.066176  0.00000000
6.158088  0.00000000
6.250000  0.00000000
6.341912  0.00000000
6.433824  0.00000000
6.525735  0.00000000
6.617647  0.00000000
6.709559  0.00000000
6.801471  0.00000000
6.893382  0.00000000
6.985294  0.00000000
7.077206  0.00000000
7.169118  0.00000000
7.261029  0.00000000
7.352941  0.00000000
7.444853  0.00000000
7.536765  0.00000000
7.628676  0.00000000
7.720588  0.00000000
7.812500  0.00000000
7.904412  0.00000000
7.996324  0.00000000
8.088235  0.00000000
8.180147  0.00000000
8.272059  0.00000000
8.363971  0.00000000
8.455882  0.00000000
8.547794  0.00000000
8.639706  0.00000000
8.731618  0.00000000
8.823529  0.00000000
8.915441  0.00000000
9.007353  0.00000000
9.099265  0.00000000
9.191176  0.00000000
9.283088  0.00000000
9.375000  0.00000000
9.466912  0.00000000
9.558824  0.00000000
9.650735  0.00000000
9.742647  0.00000000
9.834559  0.00000000
9.926471  0.00000000
10.018382  0.00000000
10.110294  0.00000000
10.202206  0.00000000
10.294118  0.00000000
10.386029  0.00000000
10.477941  0.00000000
10.569853  0.00000000
10.661765  0.00000000
10.753676  0.00000000
10.845588  0.00000000
10.937500  0.00000000
11.029412  0.00000000
11.121324  0.00000000
11.213235  0.00000000
11.305147  0.00000000
11.397059  0.00000000
11.488971  0.00000000
11.580882  0.00000000
11.672794  0.00000000
11.764706  0.00000000
11.856618  0.00000000
11.948529  0.00000000
12.040441  0.00000000
12.132353  0.00000000
12.224265  0.00000000
12.316176  0.00000000
12.408088  0.00000000
12.500000  0.00000000
12.591912  0.00000000
12.683824  0.00000000
12.775735  0.00000000
12.867647  0.00000000
12.959559  0.00000044
13.051471  0.00006272
13.143382  0.00104765
13.235294  0.00537851
13.327206  0.01419903
13.419118  0.02551377
13.511029  0.03653008
13.602941  0.04565510
13.694853  0.05257320
13.786765  0.05762762
13.878676  0.06133868
13.970588  0.06418736
14.062500  0.06656496
14.154412  0.06879155
14.246324  0.07114443
14.338235  0.07387975
14.430147  0.07725409
14.522059  0.08152957
14.613971  0.08694724
14.705882  0.09370485
14.797794  0.10197052
14.889706  0.11192744
14.981618  0.12386268
15.073529  0.13819961
15.165441  0.15499817
15.257353  0.17374670
15.349265  0.19425820
15.441176  0.21723783
15.533088  0.24415588
15.625000  0.27643009
15.716912  0.31477342
15.808824  0.35803821
15.900735  0.40350452
15.992647  0.44888691
16.084559  0.49340359
16.176471  0.53735712
16.268382  0.58145032
16.360294  0.62640076
16.452206  0.67237172
16.544118  0.71825247
16.636029  0.76169997
16.727941  0.80048928
16.819853  0.83427106
16.911765  0.86418348
17.003676  0.89136922
17.095588  0.91583445
17.187500  0.93719496
17.279412  0.95523248
17.371324  0.96940086
17.463235  0.97959469
17.555147  0.98649174
17.647059  0.99102114
17.738971  0.99397096
17.830882  0.99589908
17.922794  0.99717163
18.014706  0.99802199
18.106618  0.99859790
18.198529  0.99899323
18.290441  0.99926820
18.382353  0.99946189
18.474265  0.99959998
18.566176  0.99969956
18.658088  0.99977215
18.750000  0.99982560
18.841912  0.99986535
18.933824  0.99989517
19.025735  0.99991775
19.117647  0.99993498
19.209559  0.99994824
19.301471  0.99995851
19.393382  0.99996653
19.485294  0.99997283
19.577206  0.99997782
19.669118  0.99998179
19.761029  0.99998497
19.852941  0.99998753
19.944853  0.99998960
20.036765  0.99999129
20.128676  0.99999267
20.220588  0.99999380
20.312500  0.99999474
20.404412  0.99999552
20.496324  0.99999617
20.588235  0.99999671
20.680147  0.99999717
20.772059  0.99999755
20.863971  0.99999788
20.955882  0.99999815
21.047794  0.99999839
21.139706  0.99999859
21.231618  0.99999876
21.323529  0.99999891
21.415441  0.99999904
21.507353  0.99999915
21.599265  0.99999925
21.691176  0.99999934
21.783088  0.99999941
21.875000  0.99999947
21.966912  0.99999953
22.058824  0.99999958
22.150735  0.99999962
22.242647  0.99999966
22.334559  0.99999970
22.426471  0.99999973
22.518382  0.99999975
22.610294  0.99999978
22.702206  0.99999980
22.794118  0.99999982
22.886029  0.99999983
22.977941  0.99999985
23.069853  0.99999986
23.161765  0.99999987
23.253676  0.99999989
23.345588  0.99999990
23.437500  0.99999990
23.529412  0.99999991
23.621324  0.99999992
23.713235  0.99999993
23.805147  0.99999993
23.897059  0.99999994
23.988971  0.99999994
24.080882  0.99999995
24.172794  0.99999995
24.264706  0.99999996
24.356618  0.99999996
24.448529  0.99999996
24.540441  0.99999997
24.632353  0.99999997
24.724265  0.99999997
24.816176  0.99999997
24.908088  0.99999997
