#V_RHE  I(mA/cm2)   Hydrogen    Ethylene    Acetate Ethanol Propanol 
-0.36   5.958   14.8    15.9    12.5    11.9    8.6
-0.56   20.58   24.6    32.0    10.2    18.2    10.6
-0.76   49.09   35.2    37.5    6.8     13.5    7.8
-0.96   76.98   39.1    35.3    5.8     12.1    4.3 
