#Hydrogen    Ethylene    Acetate Ethanol Propanol 
    0.5     1.0     2.0     1.0     0.5
    2.0     2.0     0.5     0.8     1.0
    3.0     3.0     0.5     1.0     0.8
    3.0     2.0     0.5     0.8     0.6
