#V_RHE I(mA/cm2)   Formate  Acetaldehyde Ethanol    n-propanol    Ethylene    Ethane
-0.20    0.093  2.2    0.0   0.0   0.0   20.7   0.0   0.0  
-0.25    0.154  3.0    0.0   0.0   0.0   29.0   0.0   0.0 
-0.30    0.387  5.5    0.0   0.0   0.0   39.3   0.0   0.0 
-0.35    0.643  11.0   0.0   0.0   0.0   46.7   0.0   0.0 
-0.40    1.00   10.8   0.0   0.0   0.0   38.5   0.0   0.0 
-0.45    1.48   29.6   0.0   0.0   0.0   41.4   0.0   0.0 
-0.50    1.68   32.9   2.1   3.0   0.0   35.0   0.0   0.0 
-0.55    2.60   38.8   2.3   3.5   0.0   30.1   0.0   0.0 
-0.60    3.17   32.5   2.0   4.6   0.0   27.8   1.2   2.3 
-0.65    4.67   31.9   2.3   4.4   0.0   20.7   1.7   3.5 
-0.70    6.15   32.1   1.2   2.3   0.0   15.3   2.4   4.7 
-0.75    9.04   24.2   1.5   4.1   3.7   10.8   3.0   5.61
-0.80    12.3   22.0   1.3   3.7   7.1   7.7    3.3   5.8 
-0.85    15.0   10.2   0.51  4.7   5.7   6.4    3.9   6.6
