#V_RHE I(mA/cm2)   Acetate  Ethanol n-propanol    Ethylene    Ethane
-0.30   0.600   16.8    32.7    0.0 0.0 0.0
-0.35   1.28    14.3    33.2    0.0 0.0 0.0
-0.40   1.95    11.6    28.1    0.0 0.3 0.7
-0.45   2.79    10.3    28.7    0.0 0.7 1.3
-0.50   4.43    5.6     20.5    3.0 1.4 1.8
