#V_RHE  I(mA/cm2)   Hydrogen    CO  Ethylene    Ethane  Formate Acetate Ethanol Acetone n-propanol
-0.39   0.59      34.60   44.73   0.00   0.00      6.73   0.00   0.00  0.00  0.00
-0.47   1.08      27.02   46.74   0.00   0.00      9.45   0.00   0.00  0.00  0.00
-0.55   2.62      12.21   51.14   0.00   0.00     26.73   0.55   0.00  0.00  0.00
-0.62   4.72      14.77   33.45   0.49   0.00     42.23   1.01   0.00  0.00  0.00
-0.69   10.00     31.61   15.75   3.43   0.10     34.71   0.75   0.00  0.63  1.53
-0.79   14.32     38.22   9.71    10.56   0.00    23.11   0.76   0.00  0.39  3.63
-0.88   20.94     40.57   5.48    16.16   0.27    19.08   0.67   1.24  1.22  4.82
-0.99   35.88     49.26   1.66    15.24   0.00    24.64   0.31   1.25  1.49  2.19
