#V_RHE  I(mA/cm2)   Hydrogen    CO  Ethylene    Ethane  Formate Acetate Ethanol Acetone n-propanol
-0.40    8.00     30.50  30.83  1.21  0.00  4.51  1.60  0.94  0.00  0.00
-0.47   20.00     49.63  17.41  3.12  0.00  6.09  1.53  2.57  0.00  0.00
-0.61   50.00     53.81   8.00  6.37  0.79  7.50  1.01  3.23  0.00  1.60
-0.71   100.00    38.64  8.25  14.78  1.52  8.41  0.67  3.96  0.00  2.88
-0.82   200.00    36.15  9.47  23.64  0.88  3.15  0.47  6.57  0.00  2.92
-0.85   300.00    40.00  8.58  24.92  0.29  2.22  0.33  6.96  0.00  2.39
