#V_RHE I(mA/cm2)   Acetate  Ethanol n-propanol    Ethylene    Ethane
-0.25   0.0432  17.3    13.7    0.0 0.0 0.0
-0.30   0.180   13.8    25.5    0.0 0.0 0.0
-0.35   0.416   12.8    30.4    0.0 0.69    1.1
-0.40   0.812   6.9     25.7    10.0    3.5 2.5
-0.45   1.22    1.7 15.1    5.0 4.8 1.4
-0.50   1.78    0.75    15.2    2.2 10.8    0.37
